"","Brick","intercept","Sales_DDD_1","Sales_DDD_2","BX_PDE_exp","INH_PDE_exp","Attendees_exp","Segment","altered"
"1",9135000,8.78772004923995,0.44237,0.518160066150504,193.626901842823,72.0598270014831,7,1,FALSE
"2",9155000,8.78772004923995,0.44237,0.518160066150504,193.626901842823,72.0598270014831,7,1,FALSE
"3",9182000,8.78772004923995,0.44237,0.518160066150504,193.626901842823,72.0598270014831,7,1,FALSE
"4",9184500,8.78772004923995,0.44237,0.518160066150504,193.626901842823,72.0598270014831,7,1,FALSE
"5",9187500,8.78772004923995,0.44237,0.518160066150504,193.626901842823,72.0598270014831,7,1,FALSE
"6",9213000,8.78772004923995,0.44237,0.518160066150504,193.626901842823,72.0598270014831,7,1,FALSE
"7",9273000,8.78772004923995,0.44237,0.518160066150504,193.626901842823,72.0598270014831,7,1,FALSE
"8",9278000,8.78772004923995,0.44237,0.518160066150504,193.626901842823,72.0598270014831,7,1,FALSE
"9",9415000,8.78772004923995,0.44237,0.518160066150504,193.626901842823,72.0598270014831,7,1,FALSE
"10",9474000,8.78772004923995,0.44237,0.518160066150504,193.626901842823,72.0598270014831,7,1,FALSE
"11",9498000,8.78772004923995,0.44237,0.518160066150504,193.626901842823,72.0598270014831,7,1,FALSE
"12",9540000,8.78772004923995,0.44237,0.518160066150504,193.626901842823,72.0598270014831,7,1,FALSE
"13",9010000,9.06614506103742,0.44237,0.518160066150504,193.631416441587,72.2360598697543,7,1,FALSE
"14",9012000,9.13790706392419,0.44237,0.518160066150504,193.635159332416,72.2819784883102,7,1,FALSE
"15",9014000,9.10014749177711,0.44237,0.518160066150504,193.633071031768,72.2577952614808,7,1,FALSE
"16",9015000,9.11874258215195,0.44237,0.518160066150504,193.6351957744,72.2699115058271,7,1,FALSE
"17",9016000,9.11911096741877,0.44237,0.518160066150504,193.634394272759,72.2699900671717,7,1,FALSE
"18",9017000,9.14671109523204,0.44237,0.518160066150504,193.636329196077,72.2877473173553,7,1,FALSE
"19",9019000,9.04388344768763,0.44237,0.518160066150504,193.631232726825,72.2220021744763,7,1,FALSE
"20",9020000,9.19310021086438,0.44237,0.518160066150504,193.642065977902,72.3180568214725,7,1,FALSE
"21",9022000,9.1830675216962,0.44237,0.518160066150504,193.639886752773,72.3113241426208,7,1,FALSE
"22",9025000,9.14791377325241,0.44237,0.518160066150504,193.636841077291,72.2886025362288,7,1,FALSE
"23",9027000,9.12043033761692,0.44237,0.518160066150504,193.635947597135,72.2711189567574,7,1,FALSE
"24",9029000,9.13137201270512,0.44237,0.518160066150504,193.636994413827,72.2782107539748,7,1,FALSE
"25",9030000,9.14427624201655,0.44237,0.518160066150504,193.636216964051,72.2861915133005,7,1,FALSE
"26",9033000,9.15513194263623,0.44237,0.518160066150504,193.636388960462,72.2930615056939,7,1,FALSE
"27",9060000,9.15483531705329,0.44237,0.518160066150504,193.636565291018,72.2929080260093,7,1,FALSE
"28",9070000,9.16713179019646,0.44237,0.518160066150504,193.637254176003,72.3007839374201,7,1,FALSE
"29",9072000,9.14324023966436,0.44237,0.518160066150504,193.636306754609,72.2855553647749,7,1,FALSE
"30",9074000,9.15575294341927,0.44237,0.518160066150504,193.636356715113,72.293446350641,7,1,FALSE
"31",9080000,9.20628192440829,0.44237,0.518160066150504,193.639195442597,72.3258151887831,7,1,FALSE
"32",9090000,9.22996963877279,0.44237,0.518160066150504,193.641491755565,72.3411799047871,7,1,FALSE
"33",9092000,9.46653278256266,0.44237,0.518160066150504,193.659501126017,72.4936100780436,7,1,FALSE
"34",9096000,9.06601466047626,0.44237,0.518160066150504,193.633953231887,72.2364653953643,7,1,FALSE
"35",9098000,9.11740503407441,0.44237,0.518160066150504,193.635659501102,72.2691574311506,7,1,FALSE
"36",9100000,9.14847338366362,0.44237,0.518160066150504,193.636364733831,72.2888623376657,7,1,FALSE
"37",9110000,9.12674615348478,0.44237,0.518160066150504,193.635365145758,72.2749875707406,7,1,FALSE
"38",9120000,9.16956354076792,0.44237,0.518160066150504,193.636852569615,72.3022396866328,7,1,FALSE
"39",9123000,9.15497877773886,0.44237,0.518160066150504,193.636838460989,72.2930505508914,7,1,FALSE
"40",9130000,9.12116735529604,0.44237,0.518160066150504,193.634627215516,72.2713324515083,7,1,FALSE
"41",9140000,9.16995243319104,0.44237,0.518160066150504,193.636875657856,72.3024906272821,7,1,FALSE
"42",9150000,9.15775716793822,0.44237,0.518160066150504,193.636555380663,72.294746620475,7,1,FALSE
"43",9160000,9.13915754818393,0.44237,0.518160066150504,193.636155199725,72.2829549556926,7,1,FALSE
"44",9181000,9.13078953508242,0.44237,0.518160066150504,193.635311356639,72.2775238514266,7,1,FALSE
"45",9183000,9.09100539905639,0.44237,0.518160066150504,193.631376759064,72.2517115277238,7,1,FALSE
"46",9185000,9.11584766457079,0.44237,0.518160066150504,193.634881834181,72.2680303059317,7,1,FALSE
"47",9185500,9.12269417116817,0.44237,0.518160066150504,193.636182468591,72.2725880218499,7,1,FALSE
"48",9187000,9.16423688334485,0.44237,0.518160066150504,193.636744883307,72.2988638330494,7,1,FALSE
"49",9188000,9.11521684899941,0.44237,0.518160066150504,193.635385787335,72.2677284618001,7,1,FALSE
"50",9189000,9.22785488099168,0.44237,0.518160066150504,193.644003129486,72.3403159652329,7,1,FALSE
"51",9190000,9.23166131018286,0.44237,0.518160066150504,193.638448845862,72.341659599672,7,1,FALSE
"52",9191000,9.15059810858072,0.44237,0.518160066150504,193.636226885272,72.2901749000295,7,1,FALSE
"53",9191500,9.14714635262468,0.44237,0.518160066150504,193.636728696881,72.2880958485746,7,1,FALSE
"54",9192000,9.13979896166384,0.44237,0.518160066150504,193.636519772228,72.283427902801,7,1,FALSE
"55",9193000,9.13250651450795,0.44237,0.518160066150504,193.636201965519,72.2787729287147,7,1,FALSE
"56",9193500,9.11700815869445,0.44237,0.518160066150504,193.634619377012,72.2687094294625,7,1,FALSE
"57",9194500,9.12002108456605,0.44237,0.518160066150504,193.635309409077,72.2707384413542,7,1,FALSE
"58",9195000,9.14393797324794,0.44237,0.518160066150504,193.636712237493,72.2860717475711,7,1,FALSE
"59",9196000,9.12306739808112,0.44237,0.518160066150504,193.635622946888,72.2727186963533,7,1,FALSE
"60",9197000,9.10597250246493,0.44237,0.518160066150504,193.635498677887,72.2619270643368,7,1,FALSE
"61",9198000,9.13782142585977,0.44237,0.518160066150504,193.635842716653,72.2820540565902,7,1,FALSE
"62",9199000,9.13132764911656,0.44237,0.518160066150504,193.636363261683,72.2780624613592,7,1,FALSE
"63",9199500,9.11634231371212,0.44237,0.518160066150504,193.635283181352,72.2684174668208,7,1,FALSE
"64",9210000,9.17413349211452,0.44237,0.518160066150504,193.637423988273,72.3052260850958,7,1,FALSE
"65",9215000,9.19402870277388,0.44237,0.518160066150504,193.637398458241,72.317753708414,7,1,FALSE
"66",9240000,9.16769298720996,0.44237,0.518160066150504,193.639666299176,72.3015966426945,7,1,FALSE
"67",9244000,9.2035797098703,0.44237,0.518160066150504,193.636714170707,72.3236394439328,7,1,FALSE
"68",9246000,9.14516019847997,0.44237,0.518160066150504,193.636262835511,72.2867563673603,7,1,FALSE
"69",9248000,9.1348586901171,0.44237,0.518160066150504,193.635945890682,72.2802070674128,7,1,FALSE
"70",9250000,9.14077931709682,0.44237,0.518160066150504,193.63534578421,72.2838223097474,7,1,FALSE
"71",9254000,9.11539801919874,0.44237,0.518160066150504,193.634163424953,72.2676105883189,7,1,FALSE
"72",9256000,9.13687456112722,0.44237,0.518160066150504,193.636207175916,72.2815268472413,7,1,FALSE
"73",9270000,9.1280096099284,0.44237,0.518160066150504,193.635076372524,72.2757277322201,7,1,FALSE
"74",9272000,9.13208030459387,0.44237,0.518160066150504,193.635820070446,72.2784333215499,7,1,FALSE
"75",9272500,9.15970441177485,0.44237,0.518160066150504,193.637081458265,72.2960728567128,7,1,FALSE
"76",9274000,9.11480838297391,0.44237,0.518160066150504,193.634541298801,72.2673107980193,7,1,FALSE
"77",9276000,9.12605910119059,0.44237,0.518160066150504,193.63602035631,72.2746787249865,7,1,FALSE
"78",9277000,9.31554598321877,0.44237,0.518160066150504,193.6490636541,72.3965179590286,7,1,FALSE
"79",9279000,9.13362926666295,0.44237,0.518160066150504,193.636328489729,72.2795058006097,7,1,FALSE
"80",9280000,9.12167161789533,0.44237,0.518160066150504,193.635921917203,72.2718964741211,7,1,FALSE
"81",9285000,9.13455283695557,0.44237,0.518160066150504,193.636214610188,72.2800656779425,7,1,FALSE
"82",9310000,9.1973532669021,0.44237,0.518160066150504,193.641569369952,72.3206448855109,7,1,FALSE
"83",9316000,9.17423898198604,0.44237,0.518160066150504,193.637756944872,72.3053569199466,7,1,FALSE
"84",9370000,9.18112831663194,0.44237,0.518160066150504,193.639423848467,72.3100130381916,7,1,FALSE
"85",9390000,9.15836008968407,0.44237,0.518160066150504,193.636005887138,72.295020681146,7,1,FALSE
"86",9394000,9.13162076382143,0.44237,0.518160066150504,193.635595951329,72.2781007676402,7,1,FALSE
"87",9396000,9.15219128184081,0.44237,0.518160066150504,193.636619340935,72.2912527245023,7,1,FALSE
"88",9401000,9.11357101228816,0.44237,0.518160066150504,193.63392974516,72.2664128835081,7,1,FALSE
"89",9402000,9.16809596645192,0.44237,0.518160066150504,193.637369598763,72.3014128753972,7,1,FALSE
"90",9404000,9.13633307774751,0.44237,0.518160066150504,193.636083728244,72.2811626658632,7,1,FALSE
"91",9406000,9.11084381488601,0.44237,0.518160066150504,193.634514823802,72.2648087203429,7,1,FALSE
"92",9409000,9.1532057895568,0.44237,0.518160066150504,193.6365132441,72.2918718713007,7,1,FALSE
"93",9410000,9.19951400667957,0.44237,0.518160066150504,193.638169728788,72.3213562356156,7,1,FALSE
"94",9413000,9.12017105071269,0.44237,0.518160066150504,193.6353700972,72.2708467508869,7,1,FALSE
"95",9420000,9.13926976949397,0.44237,0.518160066150504,193.63505771735,72.2828164827234,7,1,FALSE
"96",9422000,9.11962116106064,0.44237,0.518160066150504,193.632572299755,72.2699676167811,7,1,FALSE
"97",9425000,9.09020999998577,0.44237,0.518160066150504,193.632609391869,72.2514497589236,7,1,FALSE
"98",9430000,9.15073450027464,0.44237,0.518160066150504,193.636700951463,72.2903507131202,7,1,FALSE
"99",9440000,9.14951848406232,0.44237,0.518160066150504,193.636518913694,72.2895511211735,7,1,FALSE
"100",9450000,9.20069794734653,0.44237,0.518160066150504,193.636793994372,72.3218405888439,7,1,FALSE
"101",9470000,9.09983616898238,0.44237,0.518160066150504,193.631328122401,72.2572680225626,7,1,FALSE
"102",9473000,9.14533224745902,0.44237,0.518160066150504,193.636629244393,72.2869343971363,7,1,FALSE
"103",9478000,9.13169175436309,0.44237,0.518160066150504,193.636198306781,72.2782603683637,7,1,FALSE
"104",9480000,9.24827631415085,0.44237,0.518160066150504,193.641970513409,72.3527935190753,7,1,FALSE
"105",9490000,9.12003316008154,0.44237,0.518160066150504,193.635853425165,72.2708512735887,7,1,FALSE
"106",9494000,9.1393689111779,0.44237,0.518160066150504,193.636271343785,72.2831102397653,7,1,FALSE
"107",9496000,9.17969951481092,0.44237,0.518160066150504,193.636664498901,72.3085884203106,7,1,FALSE
"108",9500000,9.1197716737622,0.44237,0.518160066150504,193.635532181649,72.2706253775972,7,1,FALSE
"109",9520000,9.12357531081098,0.44237,0.518160066150504,193.635857543965,72.2730833812784,7,1,FALSE
"110",9524000,9.12659113305394,0.44237,0.518160066150504,193.635635614339,72.2749410633615,7,1,FALSE
"111",9530000,9.12760007966935,0.44237,0.518160066150504,193.635479028197,72.2755442515888,7,1,FALSE
"112",9532000,9.10370793090095,0.44237,0.518160066150504,193.631931750864,72.2598186664054,7,1,FALSE
"113",9538000,9.1274838226363,0.44237,0.518160066150504,193.636044305294,72.2755802689525,7,1,FALSE
"114",9560000,9.12319898243769,0.44237,0.518160066150504,193.635396216703,72.2727582888815,7,1,FALSE
"115",9570000,9.15214796183776,0.44237,0.518160066150504,193.636368775084,72.2911754972837,7,1,FALSE
"116",9575000,9.14014522248792,0.44237,0.518160066150504,193.63675872126,72.2836915317833,7,1,FALSE
"117",9580000,9.12937067987516,0.44237,0.518160066150504,193.636031023905,72.2767655608514,7,1,FALSE
"118",9584000,9.19045565579792,0.44237,0.518160066150504,193.639769264674,72.3159523814217,7,1,FALSE
"119",9590000,9.14045814551573,0.44237,0.518160066150504,193.636870642702,72.2839097890212,7,1,FALSE
"120",9610000,9.15184083004833,0.44237,0.518160066150504,193.636521489582,72.2910136779093,7,1,FALSE
"121",9611000,9.17021405567921,0.44237,0.518160066150504,193.637816798729,72.302833483273,7,1,FALSE
"122",9612000,9.16473886212478,0.44237,0.518160066150504,193.637141418311,72.2992551480648,7,1,FALSE
"123",9613000,9.13890740037706,0.44237,0.518160066150504,193.635693522056,72.2827112911524,7,1,FALSE
"124",9613500,9.12617939110836,0.44237,0.518160066150504,193.635775341546,72.2747074369754,7,1,FALSE
"125",9614000,9.12380349771079,0.44237,0.518160066150504,193.634757899778,72.2730177306168,7,1,FALSE
"126",9615000,9.12208328926603,0.44237,0.518160066150504,193.635077102099,72.2719941987853,7,1,FALSE
"127",9617500,9.15720062596941,0.44237,0.518160066150504,193.635639706885,72.2942215850541,7,1,FALSE
"128",9618000,9.12985907465157,0.44237,0.518160066150504,193.637165125254,72.2772901577782,7,1,FALSE
"129",9619000,9.11933775208608,0.44237,0.518160066150504,193.635689183648,72.2703814549106,7,1,FALSE
"130",9620000,9.21189418708069,0.44237,0.518160066150504,193.638331996199,72.3291840258134,7,1,FALSE
"131",9621000,9.19903578960189,0.44237,0.518160066150504,193.638146078398,72.3210496490899,7,1,FALSE
"132",9622000,9.1824051387522,0.44237,0.518160066150504,193.639989010195,72.3109251424851,7,1,FALSE
"133",9623000,9.17749993012467,0.44237,0.518160066150504,193.638834266163,72.3076155741619,7,1,FALSE
"134",9625000,9.12792713977848,0.44237,0.518160066150504,193.635685423791,72.2757917461821,7,1,FALSE
"135",9630000,9.30871691140663,0.44237,0.518160066150504,193.646267645137,72.391689623187,7,1,FALSE
"136",9633000,9.16014150662369,0.44237,0.518160066150504,193.637736447021,72.2964731270755,7,1,FALSE
"137",9634000,9.14472471833984,0.44237,0.518160066150504,193.636542364794,72.2865351892227,7,1,FALSE
"138",9635000,9.10266026342541,0.44237,0.518160066150504,193.633810006326,72.2595200190178,7,1,FALSE
"139",9638000,9.16146889612209,0.44237,0.518160066150504,193.637393710742,72.297245119835,7,1,FALSE
"140",9640000,9.12832934301396,0.44237,0.518160066150504,193.635073297731,72.2759274562713,7,1,FALSE
"141",9641000,9.17306078500979,0.44237,0.518160066150504,193.637475833605,72.3045615299617,7,1,FALSE
"142",9643000,9.19476264735101,0.44237,0.518160066150504,193.638992163941,72.3185224494935,7,1,FALSE
"143",9644000,9.21478179819486,0.44237,0.518160066150504,193.638050438041,72.3309501113591,7,1,FALSE
"144",9646000,9.15772219282727,0.44237,0.518160066150504,193.636495964468,72.2947137679082,7,1,FALSE
"145",9648000,9.19158534233512,0.44237,0.518160066150504,193.637586638818,72.3162527656851,7,1,FALSE
"146",9649000,9.14775586493708,0.44237,0.518160066150504,193.633059681564,72.2877809313241,7,1,FALSE
"147",9650000,9.15070899560632,0.44237,0.518160066150504,193.636313799835,72.2902603988989,7,1,FALSE
"148",9652000,9.1077562862725,0.44237,0.518160066150504,193.632930175896,72.2625609726719,7,1,FALSE
"149",9654000,9.11240673113508,0.44237,0.518160066150504,193.633945139817,72.265683495449,7,1,FALSE
"150",9660000,9.1640791513763,0.44237,0.518160066150504,193.638999765455,72.2991930319073,7,1,FALSE
"151",9662000,9.1657922074246,0.44237,0.518160066150504,193.63762063077,72.300010008145,7,1,FALSE
"152",9664000,9.14178091205682,0.44237,0.518160066150504,193.637391664089,72.2848425331869,7,1,FALSE
"153",9668000,9.19648993954878,0.44237,0.518160066150504,193.637975012389,72.3194148853944,7,1,FALSE
"154",9670000,9.15444970959947,0.44237,0.518160066150504,193.638140657996,72.2929652415865,7,1,FALSE
"155",9672000,9.15534846346243,0.44237,0.518160066150504,193.634550250896,72.2928482902893,7,1,FALSE
"156",9678000,9.15995579894027,0.44237,0.518160066150504,193.636622946824,72.2961448160536,7,1,FALSE
"157",9680000,9.14264118344305,0.44237,0.518160066150504,193.635817689728,72.2850834758033,7,1,FALSE
"158",9682000,9.13115803019162,0.44237,0.518160066150504,193.634708165229,72.2776402694237,7,1,FALSE
"159",9686000,9.14289347932068,0.44237,0.518160066150504,193.635503813844,72.2851824223735,7,1,FALSE
"160",9690000,9.14530205801102,0.44237,0.518160066150504,193.636305432712,72.2868533837491,7,1,FALSE
"161",9694000,9.18456513056387,0.44237,0.518160066150504,193.637486384739,72.3118095000376,7,1,FALSE
"162",9698000,9.15394244841574,0.44237,0.518160066150504,193.636526169422,72.2923391223885,7,1,FALSE
"163",9700000,9.19060340325097,0.44237,0.518160066150504,193.637262890803,72.3155717054717,7,1,FALSE
"164",9703000,9.17455822458886,0.44237,0.518160066150504,193.636853809377,72.3053859747374,7,1,FALSE
"165",9704000,9.16273817447203,0.44237,0.518160066150504,193.636711480238,72.2979140795801,7,1,FALSE
"166",9705000,9.16925251170503,0.44237,0.518160066150504,193.636402632802,72.3019578139666,7,1,FALSE
"167",9706000,9.19098093490952,0.44237,0.518160066150504,193.637905806619,72.315931410525,7,1,FALSE
"168",9720000,9.19052370977489,0.44237,0.518160066150504,193.640343021213,72.3161067174034,7,1,FALSE
"169",9721000,9.08649354447413,0.44237,0.518160066150504,193.631470840698,72.2488919247917,7,1,FALSE
"170",9722000,9.0672206738953,0.44237,0.518160066150504,193.6278856841,72.2360695947276,7,1,FALSE
"171",9723000,9.12037227042937,0.44237,0.518160066150504,193.634852881151,72.2708728013645,7,1,FALSE
"172",9724000,9.14278489790655,0.44237,0.518160066150504,193.636160562256,72.2852399315027,7,1,FALSE
"173",9725000,9.09682640524668,0.44237,0.518160066150504,193.6326408897,72.2556203505241,7,1,FALSE
"174",9725500,9.13161710659004,0.44237,0.518160066150504,193.634634250412,72.2779156853299,7,1,FALSE
"175",9726000,9.14193739317824,0.44237,0.518160066150504,193.637485694527,72.2849566565107,7,1,FALSE
"176",9727000,9.14487562790923,0.44237,0.518160066150504,193.636597678445,72.2866407254229,7,1,FALSE
"177",9727500,9.12197362153903,0.44237,0.518160066150504,193.635779482463,72.2720595289255,7,1,FALSE
"178",9730000,9.15423019518818,0.44237,0.518160066150504,193.635903783294,72.2923990688655,7,1,FALSE
"179",9734000,9.14393099050784,0.44237,0.518160066150504,193.63646366844,72.2860203116915,7,1,FALSE
"180",9738000,9.16530402205174,0.44237,0.518160066150504,193.63727461959,72.2996378526438,7,1,FALSE
"181",9780000,9.20703505079237,0.44237,0.518160066150504,193.640272631722,72.3264924646751,7,1,FALSE
"182",9782000,9.19859774298186,0.44237,0.518160066150504,193.639056275053,72.3209468688233,7,1,FALSE
"183",9784000,9.09642544045127,0.44237,0.518160066150504,193.632619223503,72.255367247659,7,1,FALSE
"184",9785000,9.14280074096603,0.44237,0.518160066150504,193.636342334049,72.2852857847613,7,1,FALSE
"185",9790000,9.139952727678,0.44237,0.518160066150504,193.637842947773,72.2837785225235,7,1,FALSE
"186",9792000,9.09558506706494,0.44237,0.518160066150504,193.633055845984,72.2549187558579,7,1,FALSE
"187",9796000,9.15737147893883,0.44237,0.518160066150504,193.637449739653,72.2946751021383,7,1,FALSE
"188",9800000,9.15795024803156,0.44237,0.518160066150504,193.636820123455,72.2949183372143,7,1,FALSE
"189",9810000,9.1546040829424,0.44237,0.518160066150504,193.636664763797,72.2927809613437,7,1,FALSE
"190",9815000,9.17267993943701,0.44237,0.518160066150504,193.637330133145,72.3042935658146,7,1,FALSE
"191",9850000,9.19313393818866,0.44237,0.518160066150504,193.638537525677,72.3174084738188,7,1,FALSE
"192",9855000,9.14900472249277,0.44237,0.518160066150504,193.635185581135,72.2889735491375,7,1,FALSE
"193",9860000,9.19757066591755,0.44237,0.518160066150504,193.64156316818,72.3207748069413,7,1,FALSE
"194",9864000,9.13619613192046,0.44237,0.518160066150504,193.636671021048,72.2811882196563,7,1,FALSE
"195",9870000,9.2659899956531,0.44237,0.518160066150504,193.644410810548,72.3644138026001,7,1,FALSE
"196",9890000,9.11253549043496,0.44237,0.518160066150504,193.633966559161,72.265769765989,7,1,FALSE
"197",9894000,9.14498538014444,0.44237,0.518160066150504,193.636446087211,72.286681068424,7,1,FALSE
"198",9896000,9.15946538967785,0.44237,0.518160066150504,193.636708584166,72.2958512236761,7,1,FALSE
"199",9900000,9.20030355657073,0.44237,0.518160066150504,193.638939000085,72.3220004397564,7,1,FALSE
"200",9905000,9.29124682064579,0.44237,0.518160066150504,193.645667152878,72.3805655843224,7,1,FALSE
"201",9910000,9.18055172663863,0.44237,0.518160066150504,193.635614178639,72.3089249888841,7,1,FALSE
"202",9940000,9.14020061142439,0.44237,0.518160066150504,193.636014160964,72.2835840680371,7,1,FALSE
"203",9943000,9.12578520669607,0.44237,0.518160066150504,193.636428302817,72.2745839008866,7,1,FALSE
"204",9945000,9.14243290690774,0.44237,0.518160066150504,193.636410691154,72.2850667038759,7,1,FALSE
"205",9948000,9.10689040654826,0.44237,0.518160066150504,193.634769723502,72.2623671400165,7,1,FALSE
"206",9950000,9.21530376429784,0.44237,0.518160066150504,193.63863976111,72.3313923630663,7,1,FALSE
"207",9952000,9.12601196230243,0.44237,0.518160066150504,193.635886231121,72.2746229255191,7,1,FALSE
"208",9955000,9.10452551450409,0.44237,0.518160066150504,193.634765754521,72.2608758130599,7,1,FALSE
"209",9959000,9.15996387333434,0.44237,0.518160066150504,193.636389567897,72.2961057141937,7,1,FALSE
"210",9960000,9.13548846184179,0.44237,0.518160066150504,193.63514671705,72.2804516204502,7,1,FALSE
"211",9963000,9.17715189368247,0.44237,0.518160066150504,193.63710940841,72.3070682884088,7,1,FALSE
"212",9967000,9.15747322574341,0.44237,0.518160066150504,193.636360233501,72.2945311708061,7,1,FALSE
