﻿TERRITORY_ID;BRICK
ITRP701;ITABI 0101
ITRP701;ITABI 0102
ITRP701;ITABI 0201
ITRP701;ITABI 0202
ITRP701;ITABI 0203
ITRP701;ITABI 0204
ITRP701;ITANO 0501
ITRP701;ITANO 0502
ITRP701;ITANO 0503
ITRP701;ITANO 0504
ITRP701;ITANO 0505
ITRP701;ITATO 3903
ITRP701;ITAVB 0101
ITRP701;ITAVB 0102
ITRP701;ITAVB 0103
ITRP701;ITAVB 0105
ITRP701;ITAVB 0201
ITRP701;ITAVB 0202
ITRP701;ITAVB 0203
ITRP701;ITAVB 0204
ITRP701;ITAVB 0205
ITRP701;ITAVB 0206
ITRP701;ITAVB 0301
ITRP701;ITAVB 0302
ITRP701;ITAVB 0303
ITRP701;ITAVC 0201
ITRP701;ITAVC 0202
ITRP701;ITAVC 0203
ITRP701;ITAVC 0301
ITRP701;ITAVC 0302
ITRP701;ITAVC 0303
ITRP701;ITAVC 0401
ITRP702;ITAAO 0101
ITRP702;ITAAO 0102
ITRP702;ITAAO 0103
ITRP702;ITAAO 0104
ITRP702;ITAAO 0105
ITRP702;ITABI 0103
ITRP702;ITABI 0104
ITRP702;ITABI 0105
ITRP702;ITABI 0106
ITRP702;ITATO 2601
ITRP702;ITATO 2602
ITRP702;ITATO 2701
ITRP702;ITATO 2702
ITRP702;ITATO 2703
ITRP702;ITATO 3801
ITRP702;ITATO 3802
ITRP702;ITATO 3803
ITRP702;ITATO 4001
ITRP702;ITATO 4002
ITRP702;ITATO 4003
ITRP702;ITATO 4004
ITRP702;ITATO 4005
ITRP702;ITATO 4101
ITRP702;ITATO 4102
ITRP703;ITATO 1501
ITRP703;ITATO 1502
ITRP703;ITATO 3601
ITRP703;ITATO 3602
ITRP703;ITATO 3603
ITRP703;ITATO 3604
ITRP703;ITATO 3605
ITRP703;ITATO 3701
ITRP703;ITATO 3702
ITRP704;ITATO 0101
ITRP704;ITATO 0102
ITRP704;ITATO 0103
ITRP704;ITATO 0104
ITRP704;ITATO 0105
ITRP704;ITATO 0106
ITRP704;ITATO 0107
ITRP704;ITATO 0201
ITRP704;ITATO 0202
ITRP704;ITATO 0301
ITRP704;ITATO 0302
ITRP704;ITATO 0303
ITRP704;ITATO 0401
ITRP704;ITATO 0501
ITRP704;ITATO 0502
ITRP704;ITATO 0701
ITRP704;ITATO 0702
ITRP704;ITATO 0801
ITRP704;ITATO 0802
ITRP704;ITATO 0901
ITRP704;ITATO 1001
ITRP704;ITATO 1002
ITRP704;ITATO 1003
ITRP704;ITATO 1601
ITRP704;ITATO 1602
ITRP704;ITATO 1701
ITRP704;ITATO 1801
ITRP704;ITATO 1802
ITRP704;ITATO 2101
ITRP704;ITATO 2201
ITRP705;ITATO 0601
ITRP705;ITATO 0602
ITRP705;ITATO 1101
ITRP705;ITATO 1102
ITRP705;ITATO 1103
ITRP705;ITATO 1201
ITRP705;ITATO 1202
ITRP705;ITATO 1301
ITRP705;ITATO 1302
ITRP705;ITATO 1303
ITRP705;ITATO 1401
ITRP705;ITATO 1402
ITRP705;ITATO 1901
ITRP705;ITATO 2001
ITRP705;ITATO 2301
ITRP705;ITATO 2801
ITRP705;ITATO 2802
ITRP705;ITATO 2901
ITRP705;ITATO 3201
ITRP705;ITATO 3901
ITRP705;ITATO 3902
ITRP707;ITAGE 0501
ITRP707;ITAGE 0502
ITRP707;ITAGE 0503
ITRP707;ITAGE 0504
ITRP707;ITAGE 0505
ITRP707;ITAGE 0506
ITRP707;ITAGE 0507
ITRP707;ITAGE 0508
ITRP707;ITAGE 0509
ITRP707;ITAGE 0510
ITRP707;ITAGE 0511
ITRP707;ITAGE 0512
ITRP707;ITAGE 0513
ITRP707;ITAGE 0601
ITRP707;ITAGE 0602
ITRP707;ITAGE 0603
ITRP707;ITAGE 0604
ITRP707;ITAGE 0701
ITRP707;ITAGE 0702
ITRP707;ITAGE 0703
ITRP707;ITAGE 0901
ITRP707;ITAGE 0902
ITRP707;ITAGE 0903
ITRP707;ITAGE 0904
ITRP707;ITAGE 0905
ITRP708;ITATO 2401
ITRP708;ITATO 2402
ITRP708;ITATO 2403
ITRP708;ITATO 2501
ITRP708;ITATO 3001
ITRP708;ITATO 3002
ITRP708;ITATO 3003
ITRP708;ITATO 3101
ITRP708;ITATO 3102
ITRP708;ITATO 3301
ITRP708;ITATO 3302
ITRP708;ITATO 3401
ITRP708;ITATO 3402
ITRP708;ITATO 3501
ITRP708;ITATO 4201
ITRP708;ITATO 4301
ITRP708;ITATO 4401
ITRP708;ITATO 4402
ITRP708;ITATO 4403
ITRP709;ITAAL 0101
ITRP709;ITAAL 0102
ITRP709;ITAAL 0103
ITRP709;ITAAL 0104
ITRP709;ITAAL 0105
ITRP709;ITAAL 0106
ITRP709;ITAAL 0107
ITRP709;ITAAL 0301
ITRP709;ITAAL 0302
ITRP709;ITAAL 0303
ITRP709;ITAAL 0304
ITRP709;ITAAL 0401
ITRP709;ITAAL 0402
ITRP709;ITAAL 0403
ITRP709;ITAAL 0404
ITRP709;ITAAL 0501
ITRP709;ITAAL 0502
ITRP709;ITAAL 0601
ITRP709;ITAAL 0602
ITRP709;ITAAL 0603
ITRP709;ITAAT 0101
ITRP709;ITAAT 0102
ITRP709;ITAAT 0103
ITRP709;ITAAT 0104
ITRP709;ITAAT 0105
ITRP709;ITAAT 0106
ITRP709;ITAAT 0107
ITRP709;ITAAT 0108
ITRP709;ITAAT 0201
ITRP709;ITAAT 0202
ITRP709;ITAAT 0203
ITRP709;ITAAT 0204
ITRP710;ITAGE 0101
ITRP710;ITAGE 0102
ITRP710;ITAGE 0103
ITRP710;ITAGE 0104
ITRP710;ITAGE 0105
ITRP710;ITAGE 0201
ITRP710;ITAGE 0202
ITRP710;ITAGE 0203
ITRP710;ITAGE 0301
ITRP710;ITAGE 0302
ITRP710;ITAGE 0303
ITRP710;ITAGE 0304
ITRP710;ITAGE 0305
ITRP710;ITAGE 0306
ITRP710;ITAGE 0401
ITRP710;ITAGE 0402
ITRP710;ITAGE 0403
ITRP710;ITAGE 0404
ITRP710;ITAGE 0801
ITRP710;ITAGE 0802
ITRP710;ITAGE 0803
ITRP711;ITACN 0101
ITRP711;ITACN 0102
ITRP711;ITACN 0103
ITRP711;ITACN 0201
ITRP711;ITACN 0202
ITRP711;ITACN 0401
ITRP711;ITACN 0402
ITRP711;ITACN 0403
ITRP711;ITACN 0501
ITRP711;ITACN 0601
ITRP711;ITACN 0602
ITRP711;ITACN 0603
ITRP711;ITACN 0604
ITRP711;ITACN 0605
ITRP711;ITACN 0701
ITRP711;ITACN 0702
ITRP711;ITACN 0703
ITRP711;ITACN 0801
ITRP711;ITACN 0802
ITRP711;ITACN 0803
ITRP711;ITACN 0804
ITRP711;ITACN 0805
ITRP711;ITACN 0806
ITRP711;ITASV 0401
ITRP711;ITASV 0402
ITRP711;ITASV 0403
ITRP711;ITASV 0404
ITRP711;ITASV 0405
ITRP711;ITASV 0406
ITRP712;ITACN 0301
ITRP712;ITACN 0302
ITRP712;ITACN 0901
ITRP712;ITACN 0902
ITRP712;ITACN 0903
ITRP712;ITACN 0904
ITRP712;ITACN 1001
ITRP712;ITACN 1002
ITRP712;ITAIM 0101
ITRP712;ITAIM 0102
ITRP712;ITAIM 0103
ITRP712;ITAIM 0104
ITRP712;ITAIM 0201
ITRP712;ITAIM 0202
ITRP712;ITAIM 0301
ITRP712;ITAIM 0302
ITRP712;ITAIM 0303
ITRP712;ITAIM 0304
ITRP712;ITAIM 0305
ITRP712;ITASV 0101
ITRP712;ITASV 0102
ITRP712;ITASV 0103
ITRP712;ITASV 0201
ITRP712;ITASV 0202
ITRP712;ITASV 0203
ITRP712;ITASV 0204
ITRP712;ITASV 0301
ITRP712;ITASV 0302
ITRP712;ITASV 0303
ITRP712;ITASV 0304
ITRP712;ITASV 0407
ITRP712;ITASV 0408
ITRP713;ITAGE 1001
ITRP713;ITAGE 1002
ITRP713;ITAGE 1101
ITRP713;ITAGE 1102
ITRP713;ITAGE 1103
ITRP713;ITAGE 1104
ITRP713;ITAGE 1105
ITRP713;ITAGE 1106
ITRP713;ITASP 0101
ITRP713;ITASP 0102
ITRP713;ITASP 0103
ITRP713;ITASP 0104
ITRP713;ITASP 0201
ITRP713;ITASP 0301
ITRP713;ITASP 0302
ITRP713;ITASP 0303
ITRP713;ITASP 0304
ITRP713;ITASP 0305
ITRP713;ITASP 0306
ITRP713;ITASP 0307
ITRP714;ITACO 0103
ITRP714;ITAVA 0101
ITRP714;ITAVA 0102
ITRP714;ITAVA 0201
ITRP714;ITAVA 0202
ITRP714;ITAVA 0203
ITRP714;ITAVA 0301
ITRP714;ITAVA 0302
ITRP714;ITAVA 0303
ITRP714;ITAVA 0304
ITRP714;ITAVA 0305
ITRP714;ITAVA 0306
ITRP714;ITAVA 0307
ITRP714;ITAVA 0308
ITRP714;ITAVA 0401
ITRP714;ITAVA 0402
ITRP714;ITAVA 0702
ITRP715;ITACO 0101
ITRP715;ITACO 0102
ITRP715;ITACO 0201
ITRP715;ITACO 0202
ITRP715;ITACO 0203
ITRP715;ITACO 0204
ITRP715;ITACO 0205
ITRP715;ITACO 0206
ITRP715;ITACO 0207
ITRP715;ITACO 0208
ITRP715;ITACO 0209
ITRP715;ITACO 0301
ITRP715;ITACO 0302
ITRP715;ITACO 0401
ITRP715;ITACO 0402
ITRP715;ITACO 0501
ITRP715;ITACO 0502
ITRP715;ITACO 0503
ITRP715;ITACO 0601
ITRP715;ITACO 0602
ITRP715;ITACO 0901
ITRP715;ITACO 0902
ITRP716;ITABG 0601
ITRP716;ITABG 0602
ITRP716;ITABG 0603
ITRP716;ITABG 0604
ITRP716;ITABG 0605
ITRP716;ITABG 0606
ITRP716;ITABG 0701
ITRP716;ITABG 0702
ITRP716;ITABG 0703
ITRP716;ITABS 0101
ITRP716;ITABS 0102
ITRP716;ITABS 0103
ITRP716;ITABS 0301
ITRP716;ITABS 0302
ITRP716;ITABS 0303
ITRP716;ITABS 0401
ITRP716;ITABS 0402
ITRP716;ITABS 0403
ITRP716;ITABS 0404
ITRP716;ITABS 0405
ITRP716;ITABS 0406
ITRP717;ITALC 0101
ITRP717;ITALC 0102
ITRP717;ITALC 0103
ITRP717;ITALC 0104
ITRP717;ITALC 0105
ITRP717;ITAMB 0601
ITRP717;ITAMB 0602
ITRP717;ITAMB 0603
ITRP717;ITAMB 0604
ITRP717;ITAMB 0605
ITRP717;ITAMB 0701
ITRP717;ITAMB 0702
ITRP717;ITAMB 0703
ITRP717;ITAMB 0704
ITRP717;ITAMI 1001
ITRP717;ITAMI 1002
ITRP717;ITAMI 1003
ITRP718;ITAAN 0301
ITRP718;ITAAN 0302
ITRP718;ITAAN 0303
ITRP718;ITAAN 0304
ITRP718;ITAAN 0305
ITRP718;ITAAN 0306
ITRP718;ITAPU 0201
ITRP718;ITAPU 0202
ITRP718;ITAPU 0203
ITRP718;ITAPU 0301
ITRP718;ITAPU 0302
ITRP718;ITAPU 0303
ITRP718;ITAPU 0304
ITRP718;ITAPU 0305
ITRP718;ITAPU 0306
ITRP718;ITAPU 0401
ITRP718;ITAPU 0402
ITRP718;ITARN 0101
ITRP718;ITARN 0102
ITRP718;ITARN 0103
ITRP718;ITARN 0104
ITRP718;ITARN 0105
ITRP718;ITARN 0106
ITRP718;ITARN 0107
ITRP718;ITARN 0108
ITRP718;ITARN 0201
ITRP718;ITARN 0202
ITRP718;ITARN 0203
ITRP718;ITARN 0204
ITRP718;ITARN 0205
ITRP718;ITARN 0301
ITRP718;ITARN 0302
ITRP720;ITAMB 0705
ITRP720;ITAMI 1101
ITRP720;ITAMI 1102
ITRP720;ITAMI 1201
ITRP720;ITAMI 1301
ITRP720;ITAMI 1302
ITRP720;ITAMI 2601
ITRP720;ITAMI 2602
ITRP720;ITAMI 2701
ITRP720;ITAMI 2702
ITRP720;ITAMI 3804
ITRP720;ITAMI 3901
ITRP720;ITAMI 3902
ITRP720;ITAMI 3903
ITRP720;ITAMI 3904
ITRP721;ITAMI 2001
ITRP721;ITAMI 2002
ITRP721;ITAMI 2003
ITRP721;ITAMI 2004
ITRP721;ITAMI 2005
ITRP721;ITAMI 2006
ITRP721;ITAMI 2007
ITRP721;ITAMI 2008
ITRP721;ITAMI 2009
ITRP721;ITAMI 2010
ITRP721;ITAMI 2011
ITRP721;ITAMI 2012
ITRP721;ITAMI 2013
ITRP721;ITAMI 2101
ITRP721;ITAMI 2102
ITRP721;ITAMI 2103
ITRP721;ITAMI 2104
ITRP721;ITAMI 2105
ITRP721;ITAMI 2201
ITRP721;ITAMI 2202
ITRP721;ITAMI 2203
ITRP721;ITAMI 2204
ITRP721;ITAMI 2205
ITRP721;ITAMI 2206
ITRP721;ITAMI 2801
ITRP721;ITAMI 2802
ITRP721;ITAMI 2901
ITRP721;ITAMI 2902
ITRP721;ITAMI 2903
ITRP721;ITAMI 2904
ITRP721;ITAMI 3001
ITRP721;ITAMI 3002
ITRP721;ITAMI 3003
ITRP721;ITAMI 3004
ITRP721;ITAMI 3101
ITRP721;ITAMI 3102
ITRP721;ITAMI 3201
ITRP722;ITAMI 1501
ITRP722;ITAMI 1502
ITRP722;ITAVA 0501
ITRP722;ITAVA 0502
ITRP722;ITAVA 0601
ITRP722;ITAVA 0602
ITRP722;ITAVA 0603
ITRP722;ITAVA 0604
ITRP722;ITAVA 0605
ITRP722;ITAVA 0606
ITRP722;ITAVA 0607
ITRP722;ITAVA 0701
ITRP722;ITAVA 0801
ITRP722;ITAVA 0802
ITRP722;ITAVA 0803
ITRP722;ITAVA 0804
ITRP722;ITAVA 0805
ITRP722;ITAVA 0806
ITRP722;ITAVA 1001
ITRP722;ITAVA 1002
ITRP723;ITAMI 1202
ITRP723;ITAMI 1203
ITRP723;ITAMI 1601
ITRP723;ITAMI 1602
ITRP723;ITAMI 1603
ITRP723;ITAMI 1604
ITRP723;ITAMI 1701
ITRP723;ITAMI 1702
ITRP723;ITAMI 1703
ITRP723;ITAMI 1801
ITRP723;ITAMI 1802
ITRP723;ITAMI 1803
ITRP723;ITAMI 1804
ITRP723;ITAMI 2501
ITRP723;ITAMI 2502
ITRP723;ITAMI 2503
ITRP723;ITAMI 2504
ITRP723;ITAMI 2505
ITRP723;ITAMI 2506
ITRP723;ITAMI 3601
ITRP723;ITAMI 3602
ITRP723;ITAMI 3603
ITRP723;ITAMI 3604
ITRP723;ITAMI 3701
ITRP723;ITAMI 3702
ITRP723;ITAMI 3801
ITRP723;ITAMI 3802
ITRP723;ITAMI 3803
ITRP724;ITAPV 0101
ITRP724;ITAPV 0102
ITRP724;ITAPV 0103
ITRP724;ITAPV 0104
ITRP724;ITAPV 0105
ITRP724;ITAPV 0106
ITRP724;ITAPV 0107
ITRP724;ITAPV 0201
ITRP724;ITAPV 0202
ITRP724;ITAPV 0203
ITRP724;ITAPV 0204
ITRP724;ITAPV 0205
ITRP724;ITAPV 0206
ITRP724;ITAPV 0207
ITRP724;ITAPV 0208
ITRP724;ITAPV 0209
ITRP724;ITAPV 0210
ITRP724;ITAPV 0211
ITRP724;ITAPV 0212
ITRP724;ITAPV 0301
ITRP724;ITAPV 0302
ITRP724;ITAPV 0303
ITRP724;ITAPV 0304
ITRP724;ITAPV 0305
ITRP724;ITAPV 0306
ITRP724;ITAPV 0307
ITRP724;ITAPV 0308
ITRP724;ITAPV 0309
ITRP724;ITAPV 0310
ITRP725;ITACO 0701
ITRP725;ITALC 0201
ITRP725;ITALC 0202
ITRP725;ITALC 0203
ITRP725;ITALC 0204
ITRP725;ITALC 0205
ITRP725;ITALC 0206
ITRP725;ITALC 0207
ITRP725;ITALC 0208
ITRP725;ITALC 0301
ITRP725;ITALC 0302
ITRP725;ITALC 0303
ITRP725;ITASO 0101
ITRP725;ITASO 0201
ITRP725;ITASO 0301
ITRP725;ITASO 0302
ITRP725;ITASO 0303
ITRP725;ITASO 0401
ITRP725;ITASO 0501
ITRP726;ITABG 0301
ITRP726;ITABG 0302
ITRP726;ITABG 0401
ITRP726;ITABG 0402
ITRP726;ITABG 0403
ITRP726;ITABG 0404
ITRP726;ITABG 0405
ITRP726;ITABG 0406
ITRP726;ITABG 0801
ITRP726;ITABG 0802
ITRP726;ITABG 0803
ITRP726;ITABG 0804
ITRP726;ITABG 0805
ITRP726;ITABG 0901
ITRP726;ITABG 0902
ITRP726;ITABG 0903
ITRP726;ITACR 0301
ITRP726;ITACR 0302
ITRP726;ITACR 0303
ITRP726;ITACR 0304
ITRP727;ITAMB 0501
ITRP727;ITAMB 0502
ITRP727;ITAMB 0801
ITRP727;ITAMB 0802
ITRP727;ITAMB 0803
ITRP727;ITAMB 0804
ITRP727;ITAMB 0805
ITRP727;ITAMB 0806
ITRP727;ITAMB 0807
ITRP727;ITAMB 0808
ITRP727;ITAMB 0809
ITRP727;ITAMI 0901
ITRP727;ITAMI 0902
ITRP727;ITAMI 0903
ITRP727;ITAMI 0904
ITRP727;ITAMI 0905
ITRP727;ITAMI 1006
ITRP727;ITAMI 1007
ITRP727;ITAMI 1104
ITRP727;ITAMI 1105
ITRP727;ITAMI 1401
ITRP727;ITAMI 1402
ITRP728;ITAMI 0103
ITRP728;ITAMI 0105
ITRP728;ITAMI 0201
ITRP728;ITAMI 0202
ITRP728;ITAMI 0203
ITRP728;ITAMI 2301
ITRP728;ITAMI 2302
ITRP728;ITAMI 2303
ITRP728;ITAMI 2304
ITRP728;ITAMI 2401
ITRP728;ITAMI 2402
ITRP728;ITAMI 2403
ITRP728;ITAMI 2404
ITRP728;ITAMI 3301
ITRP728;ITAMI 3302
ITRP728;ITAMI 3303
ITRP728;ITAMI 3401
ITRP728;ITAMI 3402
ITRP728;ITAMI 3501
ITRP728;ITAMI 3502
ITRP728;ITAMI 4001
ITRP728;ITAMI 4002
ITRP729;ITALO 0101
ITRP729;ITALO 0102
ITRP729;ITALO 0103
ITRP729;ITALO 0104
ITRP729;ITALO 0105
ITRP729;ITALO 0201
ITRP729;ITALO 0202
ITRP729;ITALO 0301
ITRP729;ITALO 0302
ITRP729;ITALO 0303
ITRP729;ITALO 0304
ITRP729;ITAMI 0101
ITRP729;ITAMI 0102
ITRP729;ITAMI 0104
ITRP729;ITAMI 1901
ITRP729;ITAMI 1902
ITRP729;ITAMI 1903
ITRP729;ITAPV 0108
ITRP729;ITAPV 0109
ITRP729;ITAPV 0110
ITRP729;ITAPV 0111
ITRP730;ITABG 0501
ITRP730;ITABG 0502
ITRP730;ITABG 0503
ITRP730;ITABG 0504
ITRP730;ITABG 0505
ITRP730;ITABG 0506
ITRP730;ITABG 0507
ITRP730;ITABG 0508
ITRP730;ITABG 0509
ITRP730;ITABG 0510
ITRP730;ITABG 0511
ITRP730;ITAMB 0401
ITRP730;ITAMB 0402
ITRP730;ITAMB 0403
ITRP730;ITAMB 0404
ITRP730;ITAMB 0405
ITRP730;ITAMI 0301
ITRP730;ITAMI 0302
ITRP730;ITAMI 0303
ITRP731;ITABS 0201
ITRP731;ITABS 0501
ITRP731;ITABS 0502
ITRP731;ITABS 0503
ITRP731;ITABS 0504
ITRP731;ITABS 0505
ITRP731;ITABS 0801
ITRP731;ITABS 0802
ITRP731;ITABS 0803
ITRP731;ITABS 0804
ITRP731;ITABS 1202
ITRP731;ITABS 1203
ITRP731;ITABS 1204
ITRP731;ITABS 1205
ITRP731;ITABS 1301
ITRP732;ITABS 0601
ITRP732;ITABS 0602
ITRP732;ITABS 0603
ITRP732;ITABS 0604
ITRP732;ITABS 0701
ITRP732;ITABS 0702
ITRP732;ITABS 0703
ITRP732;ITABS 0704
ITRP732;ITABS 0705
ITRP732;ITABS 0901
ITRP732;ITABS 0902
ITRP732;ITABS 0903
ITRP732;ITABS 1001
ITRP732;ITABS 1002
ITRP732;ITABS 1003
ITRP732;ITABS 1004
ITRP732;ITABS 1101
ITRP732;ITABS 1102
ITRP732;ITABS 1103
ITRP732;ITABS 1201
ITRP732;ITABS 1302
ITRP732;ITABS 1303
ITRP732;ITABS 1304
ITRP732;ITABS 1305
ITRP733;ITABG 0101
ITRP733;ITABG 0102
ITRP733;ITABG 0103
ITRP733;ITABG 0201
ITRP733;ITABG 0202
ITRP733;ITABG 0203
ITRP733;ITABG 0204
ITRP733;ITACR 0101
ITRP733;ITACR 0102
ITRP733;ITACR 0103
ITRP733;ITACR 0104
ITRP733;ITACR 0105
ITRP733;ITACR 0106
ITRP733;ITACR 0107
ITRP733;ITACR 0108
ITRP733;ITACR 0109
ITRP733;ITACR 0110
ITRP733;ITACR 0111
ITRP733;ITACR 0305
ITRP733;ITACR 0306
ITRP733;ITACR 0307
ITRP734;ITACR 0201
ITRP734;ITACR 0202
ITRP734;ITAMN 0101
ITRP734;ITAMN 0102
ITRP734;ITAMN 0103
ITRP734;ITAMN 0201
ITRP734;ITAMN 0202
ITRP734;ITAMN 0301
ITRP734;ITAMN 0302
ITRP734;ITAMN 0303
ITRP734;ITAMN 0304
ITRP734;ITAMN 0305
ITRP734;ITAMN 0306
ITRP734;ITAMN 0307
ITRP734;ITAMN 0401
ITRP734;ITAMN 0402
ITRP734;ITAMN 0403
ITRP734;ITAMN 0404
ITRP734;ITAMN 0501
ITRP734;ITAMN 0502
ITRP734;ITAMN 0601
ITRP734;ITAMN 0602
ITRP734;ITAMN 0603
ITRP735;ITAPD 0403
ITRP735;ITAPD 0404
ITRP735;ITAPD 0405
ITRP735;ITAPD 0406
ITRP735;ITAPD 0411
ITRP735;ITARO 0101
ITRP735;ITARO 0102
ITRP735;ITARO 0103
ITRP735;ITARO 0104
ITRP735;ITARO 0105
ITRP735;ITARO 0201
ITRP735;ITARO 0202
ITRP735;ITARO 0203
ITRP735;ITARO 0204
ITRP735;ITARO 0205
ITRP735;ITARO 0206
ITRP735;ITARO 0301
ITRP735;ITARO 0303
ITRP735;ITARO 0304
ITRP735;ITAVE 0501
ITRP735;ITAVE 0502
ITRP735;ITAVE 0503
ITRP736;ITAPD 0301
ITRP736;ITAPD 0302
ITRP736;ITAPD 0303
ITRP736;ITAPD 0304
ITRP736;ITAPD 0305
ITRP736;ITAPD 0306
ITRP736;ITAPD 0401
ITRP736;ITAPD 0402
ITRP736;ITAPD 0407
ITRP736;ITAPD 0408
ITRP736;ITAPD 0409
ITRP736;ITAPD 0410
ITRP736;ITAPD 0601
ITRP736;ITAPD 0602
ITRP736;ITAPD 0603
ITRP736;ITAPD 0604
ITRP736;ITAPD 0605
ITRP736;ITAPD 0606
ITRP736;ITAPD 0607
ITRP736;ITAVI 0501
ITRP736;ITAVI 0502
ITRP736;ITAVI 0801
ITRP736;ITAVI 0802
ITRP736;ITAVI 0803
ITRP736;ITAVI 0804
ITRP736;ITAVI 0805
ITRP736;ITAVI 0806
ITRP737;ITAVI 0101
ITRP737;ITAVI 0102
ITRP737;ITAVI 0103
ITRP737;ITAVI 0104
ITRP737;ITAVI 0105
ITRP737;ITAVI 0106
ITRP737;ITAVI 0201
ITRP737;ITAVI 0202
ITRP737;ITAVI 0203
ITRP737;ITAVI 0204
ITRP737;ITAVI 0205
ITRP737;ITAVI 0206
ITRP737;ITAVI 0207
ITRP737;ITAVI 0208
ITRP737;ITAVI 0301
ITRP737;ITAVI 0302
ITRP737;ITAVI 0401
ITRP737;ITAVI 0402
ITRP737;ITAVI 0403
ITRP737;ITAVI 0404
ITRP737;ITAVI 0405
ITRP737;ITAVI 0601
ITRP737;ITAVI 0602
ITRP737;ITAVI 0603
ITRP737;ITAVI 0604
ITRP737;ITAVI 0605
ITRP737;ITAVI 0701
ITRP738;ITAPD 0101
ITRP738;ITAPD 0102
ITRP738;ITAPD 0103
ITRP738;ITAPD 0104
ITRP738;ITATV 0301
ITRP738;ITATV 0302
ITRP738;ITATV 0303
ITRP738;ITATV 0401
ITRP738;ITATV 0402
ITRP738;ITATV 0403
ITRP738;ITATV 0404
ITRP738;ITATV 0601
ITRP738;ITATV 0602
ITRP738;ITATV 0603
ITRP739;ITAPD 0201
ITRP739;ITAPD 0202
ITRP739;ITAPD 0203
ITRP739;ITAPD 0204
ITRP739;ITAPD 0501
ITRP739;ITAPD 0502
ITRP739;ITAPD 0503
ITRP739;ITAPD 0701
ITRP739;ITAPD 0702
ITRP739;ITAPD 0703
ITRP739;ITAPD 0704
ITRP739;ITAVE 0301
ITRP739;ITAVE 0302
ITRP739;ITAVE 0303
ITRP739;ITAVE 0304
ITRP739;ITAVE 0401
ITRP739;ITAVE 0402
ITRP739;ITAVE 0403
ITRP740;ITATV 0101
ITRP740;ITATV 0102
ITRP740;ITATV 0103
ITRP740;ITATV 0104
ITRP740;ITATV 0105
ITRP740;ITATV 0106
ITRP740;ITATV 0107
ITRP740;ITATV 0108
ITRP740;ITATV 0109
ITRP740;ITATV 0110
ITRP740;ITATV 0111
ITRP740;ITATV 0112
ITRP740;ITATV 0201
ITRP740;ITATV 0202
ITRP740;ITATV 0203
ITRP740;ITATV 0501
ITRP740;ITATV 0502
ITRP740;ITATV 0503
ITRP740;ITATV 0504
ITRP741;ITAVE 0101
ITRP741;ITAVE 0102
ITRP741;ITAVE 0103
ITRP741;ITAVE 0104
ITRP741;ITAVE 0201
ITRP741;ITAVE 0202
ITRP741;ITAVE 0203
ITRP741;ITAVE 0204
ITRP741;ITAVE 0601
ITRP741;ITAVE 0602
ITRP741;ITAVE 0603
ITRP741;ITAVE 0604
ITRP741;ITAVE 0605
ITRP741;ITAVE 0606
ITRP741;ITAVE 0608
ITRP741;ITAVE 0701
ITRP741;ITAVE 0702
ITRP741;ITAVE 0703
ITRP741;ITAVE 0704
ITRP741;ITAVE 0705
ITRP741;ITAVE 0801
ITRP741;ITAVE 0802
ITRP741;ITAVE 0803
ITRP741;ITAVE 0804
ITRP741;ITAVE 0805
ITRP742;ITAVR 0101
ITRP742;ITAVR 0102
ITRP742;ITAVR 0103
ITRP742;ITAVR 0104
ITRP742;ITAVR 0105
ITRP742;ITAVR 0106
ITRP742;ITAVR 0201
ITRP742;ITAVR 0203
ITRP742;ITAVR 0204
ITRP742;ITAVR 0205
ITRP742;ITAVR 0206
ITRP742;ITAVR 0207
ITRP742;ITAVR 0208
ITRP742;ITAVR 0209
ITRP742;ITAVR 0210
ITRP742;ITAVR 0211
ITRP742;ITAVR 0215
ITRP742;ITAVR 0216
ITRP742;ITAVR 0401
ITRP742;ITAVR 0402
ITRP742;ITAVR 0501
ITRP742;ITAVR 0502
ITRP742;ITAVR 0503
ITRP742;ITAVR 0505
ITRP742;ITAVR 0506
ITRP742;ITAVR 0601
ITRP742;ITAVR 0602
ITRP742;ITAVR 0603
ITRP743;ITATN 0801
ITRP743;ITATN 0802
ITRP743;ITATN 0901
ITRP743;ITATN 1001
ITRP743;ITATN 1002
ITRP743;ITATN 1003
ITRP743;ITAVR 0202
ITRP743;ITAVR 0212
ITRP743;ITAVR 0213
ITRP743;ITAVR 0214
ITRP743;ITAVR 0301
ITRP743;ITAVR 0302
ITRP743;ITAVR 0303
ITRP743;ITAVR 0304
ITRP743;ITAVR 0305
ITRP743;ITAVR 0306
ITRP743;ITAVR 0307
ITRP744;ITABZ 0101
ITRP744;ITABZ 0102
ITRP744;ITABZ 0103
ITRP744;ITABZ 0104
ITRP744;ITABZ 0105
ITRP744;ITABZ 0106
ITRP744;ITABZ 0107
ITRP744;ITABZ 0108
ITRP744;ITABZ 0109
ITRP744;ITABZ 0201
ITRP744;ITABZ 0202
ITRP744;ITABZ 0203
ITRP744;ITABZ 0301
ITRP744;ITABZ 0401
ITRP744;ITABZ 0402
ITRP744;ITABZ 0403
ITRP744;ITATN 0101
ITRP744;ITATN 0501
ITRP744;ITATN 0502
ITRP744;ITATN 0503
ITRP744;ITATN 0504
ITRP744;ITATN 0505
ITRP744;ITATN 0506
ITRP744;ITATN 0507
ITRP744;ITATN 0601
ITRP744;ITATN 0701
ITRP744;ITATN 1101
ITRP746;ITABL 0101
ITRP746;ITABL 0102
ITRP746;ITABL 0103
ITRP746;ITABL 0201
ITRP746;ITABL 0202
ITRP746;ITABL 0302
ITRP746;ITABL 0303
ITRP746;ITABL 0304
ITRP746;ITABL 0401
ITRP746;ITABL 0402
ITRP746;ITABL 0403
ITRP746;ITATN 0201
ITRP746;ITATN 0301
ITRP746;ITATN 0401
ITRP746;ITATN 0402
ITRP747;ITAGO 0101
ITRP747;ITAGO 0102
ITRP747;ITAGO 0103
ITRP747;ITAGO 0104
ITRP747;ITAGO 0105
ITRP747;ITAGO 0106
ITRP747;ITAGO 0107
ITRP747;ITAPN 0101
ITRP747;ITAPN 0102
ITRP747;ITAPN 0201
ITRP747;ITAPN 0202
ITRP747;ITAPN 0203
ITRP747;ITAPN 0301
ITRP747;ITAPN 0302
ITRP747;ITAPN 0303
ITRP747;ITAPN 0304
ITRP747;ITAPN 0305
ITRP747;ITAPN 0306
ITRP747;ITAPN 0307
ITRP747;ITAPN 0401
ITRP747;ITAUD 0601
ITRP747;ITAUD 0602
ITRP747;ITAUD 0603
ITRP747;ITAUD 0604
ITRP747;ITAUD 0605
ITRP747;ITAUD 0606
ITRP747;ITAUD 0607
ITRP748;ITATS 0101
ITRP748;ITATS 0102
ITRP748;ITATS 0103
ITRP748;ITATS 0104
ITRP748;ITATS 0201
ITRP748;ITATS 0202
ITRP748;ITATS 0203
ITRP748;ITATS 0204
ITRP748;ITATS 0301
ITRP748;ITATS 0302
ITRP748;ITATS 0303
ITRP748;ITATS 0304
ITRP748;ITAUD 0101
ITRP748;ITAUD 0102
ITRP748;ITAUD 0103
ITRP748;ITAUD 0104
ITRP748;ITAUD 0201
ITRP748;ITAUD 0202
ITRP748;ITAUD 0301
ITRP748;ITAUD 0302
ITRP748;ITAUD 0303
ITRP748;ITAUD 0401
ITRP748;ITAUD 0402
ITRP748;ITAUD 0403
ITRP748;ITAUD 0404
ITRP748;ITAUD 0405
ITRP748;ITAUD 0501
ITRP748;ITAUD 0502
ITRP748;ITAUD 0503
ITRP748;ITAUD 0504
ITRP748;ITAUD 0505
ITRP748;ITAUD 0506
ITRP748;ITAUD 0507
ITRP748;ITAUD 0508
ITRP748;ITAUD 0509
ITRP748;ITAUD 0510
ITRP750;ITAPC 0101
ITRP750;ITAPC 0102
ITRP750;ITAPC 0103
ITRP750;ITAPC 0201
ITRP750;ITAPC 0202
ITRP750;ITAPC 0203
ITRP750;ITAPC 0204
ITRP750;ITAPC 0301
ITRP750;ITAPC 0302
ITRP750;ITAPC 0303
ITRP750;ITAPC 0304
ITRP750;ITAPC 0401
ITRP750;ITAPC 0402
ITRP750;ITAPC 0403
ITRP750;ITAPC 0404
ITRP750;ITAPR 0102
ITRP750;ITAPR 0103
ITRP750;ITAPR 0104
ITRP750;ITAPR 0105
ITRP750;ITAPR 0106
ITRP750;ITAPR 0107
ITRP750;ITAPR 0108
ITRP750;ITAPR 0109
ITRP750;ITAPR 0111
ITRP750;ITAPR 0201
ITRP750;ITAPR 0202
ITRP750;ITAPR 0203
ITRP750;ITAPR 0204
ITRP750;ITAPR 0205
ITRP750;ITAPR 0301
ITRP750;ITAPR 0302
ITRP750;ITAPR 0303
ITRP750;ITAPR 0304
ITRP751;ITAPR 0101
ITRP751;ITAPR 0110
ITRP751;ITAPR 0401
ITRP751;ITAPR 0402
ITRP751;ITARE 0201
ITRP751;ITARE 0202
ITRP751;ITARE 0203
ITRP751;ITARE 0204
ITRP751;ITARE 0205
ITRP751;ITARE 0206
ITRP751;ITARE 0207
ITRP751;ITARE 0208
ITRP751;ITARE 0501
ITRP751;ITARE 0502
ITRP751;ITARE 0601
ITRP751;ITARE 0602
ITRP751;ITARE 0603
ITRP752;ITAMO 0101
ITRP752;ITAMO 0201
ITRP752;ITAMO 0202
ITRP752;ITAMO 0203
ITRP752;ITARE 0101
ITRP752;ITARE 0102
ITRP752;ITARE 0301
ITRP752;ITARE 0302
ITRP752;ITARE 0303
ITRP752;ITARE 0401
ITRP753;ITABO 0701
ITRP753;ITAMO 0301
ITRP753;ITAMO 0302
ITRP753;ITAMO 0303
ITRP753;ITAMO 0304
ITRP753;ITAMO 0305
ITRP753;ITAMO 0306
ITRP753;ITAMO 0307
ITRP753;ITAMO 0308
ITRP753;ITAMO 0309
ITRP753;ITAMO 0310
ITRP753;ITAMO 0311
ITRP754;ITABO 0101
ITRP754;ITABO 0102
ITRP754;ITABO 0103
ITRP754;ITABO 0104
ITRP754;ITABO 0201
ITRP754;ITABO 0202
ITRP754;ITABO 0203
ITRP754;ITABO 0204
ITRP754;ITABO 0801
ITRP754;ITABO 0802
ITRP754;ITABO 0803
ITRP754;ITABO 0804
ITRP754;ITABO 0805
ITRP754;ITABO 0806
ITRP754;ITAMO 0401
ITRP754;ITAMO 0402
ITRP754;ITAMO 0501
ITRP754;ITAMO 0502
ITRP754;ITAMO 0601
ITRP754;ITAMO 0602
ITRP755;ITABO 0301
ITRP755;ITABO 0302
ITRP755;ITABO 0501
ITRP755;ITABO 0502
ITRP755;ITABO 0901
ITRP755;ITABO 0902
ITRP755;ITABO 0903
ITRP755;ITABO 0904
ITRP755;ITABO 0905
ITRP755;ITABO 0906
ITRP755;ITABO 0907
ITRP755;ITABO 0908
ITRP755;ITABO 0909
ITRP755;ITABO 1001
ITRP755;ITABO 1002
ITRP755;ITABO 1003
ITRP755;ITABO 1004
ITRP755;ITABO 1005
ITRP755;ITABO 1006
ITRP755;ITABO 1101
ITRP755;ITABO 1102
ITRP755;ITABO 1103
ITRP756;ITABO 0601
ITRP756;ITABO 0602
ITRP756;ITAFE 0101
ITRP756;ITAFE 0201
ITRP756;ITAFE 0202
ITRP756;ITAFE 0203
ITRP756;ITAFE 0204
ITRP756;ITAFE 0205
ITRP756;ITAFE 0206
ITRP756;ITAFE 0207
ITRP756;ITAFE 0208
ITRP756;ITAFE 0209
ITRP756;ITAFE 0301
ITRP756;ITAFE 0302
ITRP756;ITAFE 0401
ITRP756;ITAFE 0402
ITRP756;ITAFE 0403
ITRP756;ITAFE 0404
ITRP756;ITAFE 0501
ITRP756;ITAFE 0502
ITRP756;ITAFE 0503
ITRP758;ITABO 0401
ITRP758;ITABO 0402
ITRP758;ITABO 0403
ITRP758;ITAFC 0101
ITRP758;ITAFC 0102
ITRP758;ITAFC 0103
ITRP758;ITAFC 0104
ITRP758;ITAFC 0105
ITRP758;ITAFC 0106
ITRP758;ITAFC 0107
ITRP758;ITAFC 0108
ITRP758;ITAFC 0109
ITRP758;ITAFC 0201
ITRP758;ITAFC 0202
ITRP758;ITAFC 0203
ITRP758;ITAFC 0204
ITRP758;ITAFC 0205
ITRP758;ITAFC 0206
ITRP758;ITAFC 0207
ITRP758;ITAFC 0208
ITRP758;ITAFC 0209
ITRP758;ITARA 0101
ITRP758;ITARA 0102
ITRP758;ITARA 0103
ITRP758;ITARA 0104
ITRP758;ITARA 0105
ITRP758;ITARA 0106
ITRP758;ITARA 0107
ITRP758;ITARA 0108
ITRP758;ITARA 0109
ITRP758;ITARA 0201
ITRP758;ITARA 0202
ITRP758;ITARA 0203
ITRP758;ITARA 0204
ITRP758;ITARA 0301
ITRP758;ITARA 0302
ITRP758;ITARA 0303
ITRP758;ITARA 0304
ITRP760;ITALU 0101
ITRP760;ITALU 0102
ITRP760;ITALU 0103
ITRP760;ITALU 0201
ITRP760;ITALU 0202
ITRP760;ITALU 0301
ITRP760;ITALU 0302
ITRP760;ITALU 0401
ITRP760;ITALU 0402
ITRP760;ITALU 0403
ITRP760;ITALU 0404
ITRP760;ITALU 0405
ITRP760;ITALU 0501
ITRP760;ITALU 0502
ITRP760;ITALU 0503
ITRP760;ITALU 0504
ITRP760;ITAMS 0101
ITRP760;ITAMS 0102
ITRP760;ITAMS 0103
ITRP760;ITAMS 0104
ITRP760;ITAMS 0201
ITRP760;ITAMS 0202
ITRP760;ITAMS 0203
ITRP760;ITAMS 0204
ITRP760;ITAMS 0205
ITRP760;ITAMS 0206
ITRP760;ITAMS 0207
ITRP762;ITALU 0406
ITRP762;ITAPI 0101
ITRP762;ITAPI 0102
ITRP762;ITAPI 0103
ITRP762;ITAPI 0104
ITRP762;ITAPI 0105
ITRP762;ITAPI 0106
ITRP762;ITAPI 0107
ITRP762;ITAPI 0108
ITRP762;ITAPI 0201
ITRP762;ITAPI 0202
ITRP762;ITAPI 0301
ITRP762;ITAPI 0302
ITRP762;ITAPI 0303
ITRP762;ITAPI 0304
ITRP762;ITAPI 0305
ITRP762;ITAPI 0401
ITRP762;ITAPI 0402
ITRP762;ITAPI 0404
ITRP763;ITAFI 0301
ITRP763;ITAFI 0302
ITRP763;ITAFI 0601
ITRP763;ITAFI 0602
ITRP763;ITAFI 0603
ITRP763;ITAPO 0101
ITRP763;ITAPO 0102
ITRP763;ITAPO 0201
ITRP763;ITAPO 0202
ITRP763;ITAPO 0203
ITRP763;ITAPO 0301
ITRP763;ITAPO 0302
ITRP763;ITAPT 0101
ITRP763;ITAPT 0102
ITRP763;ITAPT 0103
ITRP763;ITAPT 0104
ITRP763;ITAPT 0301
ITRP763;ITAPT 0302
ITRP763;ITAPT 0303
ITRP763;ITAPT 0304
ITRP763;ITAPT 0305
ITRP764;ITAFI 0101
ITRP764;ITAFI 0102
ITRP764;ITAFI 0103
ITRP764;ITAFI 0104
ITRP764;ITAFI 0105
ITRP764;ITAFI 0106
ITRP764;ITAFI 0107
ITRP764;ITAFI 0108
ITRP764;ITAFI 0201
ITRP764;ITAFI 0202
ITRP764;ITAFI 0203
ITRP764;ITAFI 0204
ITRP764;ITAFI 0401
ITRP764;ITAFI 0402
ITRP764;ITAFI 0403
ITRP764;ITAFI 0501
ITRP764;ITAFI 0502
ITRP764;ITAFI 0503
ITRP764;ITAFI 0504
ITRP764;ITAFI 0505
ITRP764;ITAFI 0701
ITRP764;ITAFI 0702
ITRP764;ITAFI 0703
ITRP764;ITAFI 0704
ITRP764;ITAFI 0705
ITRP764;ITAFI 0901
ITRP764;ITAFI 0902
ITRP764;ITAFI 0903
ITRP764;ITAFI 0904
ITRP764;ITAFI 0905
ITRP765;ITAAR 0101
ITRP765;ITAAR 0102
ITRP765;ITAAR 0103
ITRP765;ITAAR 0104
ITRP765;ITAAR 0201
ITRP765;ITAAR 0202
ITRP765;ITAAR 0203
ITRP765;ITAAR 0301
ITRP765;ITAAR 0302
ITRP765;ITAFI 0801
ITRP765;ITAFI 0802
ITRP765;ITAFI 1001
ITRP765;ITAFI 1002
ITRP765;ITAFI 1003
ITRP765;ITAFI 1004
ITRP765;ITAFI 1101
ITRP765;ITAPT 0201
ITRP765;ITAPT 0202
ITRP765;ITAPT 0203
ITRP766;ITAAR 0401
ITRP766;ITAAR 0402
ITRP766;ITAAR 0403
ITRP766;ITAAR 0404
ITRP766;ITAAR 0405
ITRP766;ITAAR 0406
ITRP766;ITAAR 0501
ITRP766;ITAAR 0502
ITRP766;ITAFI 1005
ITRP766;ITAFI 1006
ITRP766;ITAGR 0402
ITRP766;ITASI 0101
ITRP766;ITASI 0102
ITRP766;ITASI 0201
ITRP766;ITASI 0202
ITRP766;ITASI 0203
ITRP766;ITASI 0204
ITRP766;ITASI 0205
ITRP766;ITASI 0206
ITRP766;ITASI 0207
ITRP766;ITASI 0301
ITRP766;ITASI 0302
ITRP766;ITASI 0303
ITRP766;ITASI 0304
ITRP766;ITASI 0305
ITRP767;ITAGR 0101
ITRP767;ITAGR 0102
ITRP767;ITAGR 0201
ITRP767;ITAGR 0202
ITRP767;ITAGR 0203
ITRP767;ITAGR 0204
ITRP767;ITAGR 0205
ITRP767;ITAGR 0301
ITRP767;ITAGR 0302
ITRP767;ITAGR 0303
ITRP767;ITALI 0201
ITRP767;ITALI 0202
ITRP767;ITALI 0203
ITRP767;ITALI 0204
ITRP767;ITALI 0301
ITRP767;ITALI 0302
ITRP767;ITALI 0303
ITRP767;ITALI 0401
ITRP767;ITALI 0402
ITRP768;ITAAN 0101
ITRP768;ITAAN 0102
ITRP768;ITAAN 0103
ITRP768;ITAAN 0104
ITRP768;ITAAN 0401
ITRP768;ITAAN 0402
ITRP768;ITAAN 0403
ITRP768;ITAMC 0201
ITRP768;ITAMC 0202
ITRP768;ITAMC 0203
ITRP768;ITAMC 0204
ITRP768;ITAMC 0401
ITRP768;ITAMC 0501
ITRP768;ITAMC 0502
ITRP768;ITAMC 0503
ITRP768;ITAMC 0601
ITRP768;ITAMC 0602
ITRP768;ITAPU 0501
ITRP768;ITAPU 0502
ITRP768;ITAPU 0601
ITRP768;ITAPU 0602
ITRP768;ITAPU 0603
ITRP768;ITAPU 0701
ITRP768;ITAPU 0702
ITRP769;ITAAN 0201
ITRP769;ITAAN 0202
ITRP769;ITAAN 0501
ITRP769;ITAAN 0502
ITRP769;ITAAN 0503
ITRP769;ITAAN 0504
ITRP769;ITAAN 0505
ITRP769;ITAAN 0506
ITRP769;ITAAN 0601
ITRP769;ITAMC 0101
ITRP769;ITAMC 0102
ITRP769;ITAMC 0301
ITRP769;ITAMC 0302
ITRP769;ITAMC 0303
ITRP770;ITAPG 0101
ITRP770;ITAPG 0102
ITRP770;ITAPG 0103
ITRP770;ITAPG 0201
ITRP770;ITAPG 0202
ITRP770;ITAPG 0301
ITRP770;ITAPG 0302
ITRP770;ITAPG 0303
ITRP770;ITAPG 0304
ITRP770;ITAPG 0305
ITRP770;ITAPG 0306
ITRP770;ITAPG 0307
ITRP770;ITAPG 0308
ITRP770;ITAPG 0401
ITRP770;ITAPG 0402
ITRP770;ITAPG 0601
ITRP770;ITAPG 0602
ITRP770;ITAPG 0603
ITRP771;ITAPG 0501
ITRP771;ITAPG 0502
ITRP771;ITAPG 0503
ITRP771;ITAPG 0504
ITRP771;ITAPG 0701
ITRP771;ITAPG 0702
ITRP771;ITAPG 0801
ITRP771;ITAPG 0901
ITRP771;ITATR 0101
ITRP771;ITATR 0102
ITRP771;ITATR 0201
ITRP771;ITATR 0202
ITRP771;ITATR 0203
ITRP771;ITATR 0301
ITRP771;ITATR 0302
ITRP771;ITATR 0303
ITRP771;ITATR 0304
ITRP771;ITATR 0305
ITRP771;ITATR 0306
ITRP771;ITATR 0307
ITRP772;ITAAP 0301
ITRP772;ITAAP 0302
ITRP772;ITAAP 0303
ITRP772;ITAAP 0304
ITRP772;ITAAP 0305
ITRP772;ITAAP 0501
ITRP772;ITAAP 0502
ITRP772;ITAAP 0503
ITRP772;ITAAP 0504
ITRP772;ITAAP 0505
ITRP772;ITAFM 0101
ITRP772;ITAFM 0102
ITRP772;ITAFM 0103
ITRP772;ITAFM 0201
ITRP772;ITAFM 0202
ITRP772;ITAFM 0203
ITRP772;ITAFM 0204
ITRP772;ITAFM 0205
ITRP772;ITAFM 0401
ITRP772;ITAFM 0402
ITRP773;ITARI 0101
ITRP773;ITARI 0102
ITRP773;ITARI 0103
ITRP773;ITARI 0104
ITRP773;ITARI 0105
ITRP773;ITARI 0106
ITRP773;ITARI 0107
ITRP773;ITARI 0201
ITRP773;ITARI 0202
ITRP773;ITARI 0203
ITRP773;ITARI 0204
ITRP773;ITARI 0301
ITRP773;ITARM 2101
ITRP773;ITARM 2102
ITRP773;ITARM 2103
ITRP773;ITARM 2301
ITRP773;ITARM 2302
ITRP773;ITARM 2303
ITRP773;ITAVT 0101
ITRP773;ITAVT 0102
ITRP773;ITAVT 0103
ITRP773;ITAVT 0104
ITRP773;ITAVT 0201
ITRP773;ITAVT 0202
ITRP773;ITAVT 0301
ITRP773;ITAVT 0302
ITRP773;ITAVT 0303
ITRP773;ITAVT 0304
ITRP773;ITAVT 0401
ITRP773;ITAVT 0402
ITRP773;ITAVT 0403
ITRP773;ITAVT 0501
ITRP773;ITAVT 0502
ITRP773;ITAVT 0503
ITRP774;ITARM 1101
ITRP774;ITARM 1102
ITRP774;ITARM 1103
ITRP774;ITARM 1104
ITRP774;ITARM 1105
ITRP774;ITARM 1106
ITRP774;ITARM 1301
ITRP774;ITARM 1302
ITRP774;ITARM 1303
ITRP774;ITARM 1304
ITRP774;ITARM 1305
ITRP774;ITARM 1401
ITRP774;ITARM 1501
ITRP774;ITARM 1502
ITRP774;ITARM 1503
ITRP774;ITARM 1504
ITRP774;ITARM 1505
ITRP774;ITARM 1506
ITRP774;ITARM 2201
ITRP774;ITARM 2202
ITRP775;ITARM 0101
ITRP775;ITARM 0103
ITRP775;ITARM 0104
ITRP775;ITARM 0105
ITRP775;ITARM 0106
ITRP775;ITARM 0108
ITRP775;ITARM 0109
ITRP775;ITARM 0110
ITRP775;ITARM 0111
ITRP775;ITARM 0112
ITRP775;ITARM 0114
ITRP775;ITARM 0115
ITRP775;ITARM 0201
ITRP775;ITARM 0202
ITRP775;ITARM 0203
ITRP775;ITARM 0204
ITRP775;ITARM 0205
ITRP775;ITARM 0206
ITRP775;ITARM 0207
ITRP775;ITARM 0208
ITRP775;ITARM 0209
ITRP775;ITARM 1601
ITRP775;ITARM 1602
ITRP775;ITARM 1603
ITRP775;ITARM 1604
ITRP775;ITARM 1605
ITRP775;ITARM 1606
ITRP775;ITARM 1607
ITRP775;ITARM 1701
ITRP775;ITARM 1702
ITRP775;ITARM 1703
ITRP775;ITARM 1704
ITRP775;ITARM 1705
ITRP775;ITARM 1706
ITRP775;ITARM 1707
ITRP777;ITALT 0101
ITRP777;ITARM 1201
ITRP777;ITARM 1202
ITRP777;ITARM 1203
ITRP777;ITARM 1204
ITRP777;ITARM 1205
ITRP777;ITARM 3301
ITRP777;ITARM 3401
ITRP777;ITARM 3402
ITRP777;ITARM 3501
ITRP777;ITARM 3502
ITRP778;ITALT 0201
ITRP778;ITALT 0301
ITRP778;ITALT 0302
ITRP778;ITALT 0303
ITRP778;ITALT 0304
ITRP778;ITALT 0305
ITRP778;ITALT 0401
ITRP778;ITALT 0402
ITRP778;ITALT 0403
ITRP778;ITALT 0501
ITRP778;ITALT 0502
ITRP778;ITALT 0601
ITRP778;ITALT 0602
ITRP778;ITALT 0603
ITRP779;ITARM 0401
ITRP779;ITARM 0402
ITRP779;ITARM 0403
ITRP779;ITARM 0404
ITRP779;ITARM 0405
ITRP779;ITARM 0406
ITRP779;ITARM 0407
ITRP779;ITARM 0408
ITRP779;ITARM 0409
ITRP779;ITARM 1801
ITRP779;ITARM 1802
ITRP779;ITARM 1803
ITRP779;ITARM 1804
ITRP779;ITARM 1805
ITRP779;ITARM 1901
ITRP779;ITARM 1902
ITRP779;ITARM 1903
ITRP779;ITARM 1904
ITRP779;ITARM 1905
ITRP779;ITARM 1906
ITRP779;ITARM 1907
ITRP779;ITARM 2001
ITRP779;ITARM 2002
ITRP779;ITARM 2003
ITRP780;ITAFR 0101
ITRP780;ITAFR 0102
ITRP780;ITAFR 0201
ITRP780;ITAFR 0202
ITRP780;ITAFR 0301
ITRP780;ITAFR 0401
ITRP780;ITAFR 0402
ITRP780;ITAFR 0403
ITRP780;ITAFR 0404
ITRP780;ITAFR 0501
ITRP780;ITAFR 0502
ITRP780;ITAFR 0601
ITRP780;ITAFR 0701
ITRP780;ITAFR 0702
ITRP780;ITAFR 0703
ITRP780;ITAFR 0704
ITRP780;ITAFR 0705
ITRP780;ITAFR 0801
ITRP780;ITAFR 0802
ITRP780;ITAFR 0901
ITRP780;ITAFR 0902
ITRP780;ITAFR 1001
ITRP780;ITAFR 1002
ITRP780;ITAFR 1003
ITRP780;ITAFR 1004
ITRP780;ITARM 2701
ITRP780;ITARM 2702
ITRP780;ITARM 2703
ITRP780;ITARM 2704
ITRP780;ITARM 2705
ITRP780;ITARM 3001
ITRP780;ITARM 3002
ITRP780;ITARM 3003
ITRP781;ITARM 0301
ITRP781;ITARM 0302
ITRP781;ITARM 0303
ITRP781;ITARM 0304
ITRP781;ITARM 0501
ITRP781;ITARM 0502
ITRP781;ITARM 0503
ITRP781;ITARM 0504
ITRP781;ITARM 0505
ITRP781;ITARM 0506
ITRP781;ITARM 0507
ITRP781;ITARM 0508
ITRP781;ITARM 2401
ITRP781;ITARM 2402
ITRP781;ITARM 2501
ITRP781;ITARM 2502
ITRP781;ITARM 2601
ITRP781;ITARM 2602
ITRP782;ITARM 0102
ITRP782;ITARM 0107
ITRP782;ITARM 0113
ITRP782;ITARM 0601
ITRP782;ITARM 0602
ITRP782;ITARM 0603
ITRP782;ITARM 0604
ITRP782;ITARM 0605
ITRP782;ITARM 0606
ITRP782;ITARM 0607
ITRP782;ITARM 0608
ITRP782;ITARM 0901
ITRP782;ITARM 0902
ITRP782;ITARM 0903
ITRP782;ITARM 0904
ITRP782;ITARM 0905
ITRP782;ITARM 1001
ITRP782;ITARM 1002
ITRP782;ITARM 1003
ITRP782;ITARM 1004
ITRP782;ITARM 1005
ITRP782;ITARM 1006
ITRP782;ITARM 1007
ITRP782;ITARM 3201
ITRP782;ITARM 3202
ITRP782;ITARM 3601
ITRP782;ITARM 3602
ITRP782;ITARM 3603
ITRP782;ITARM 3604
ITRP784;ITARM 0701
ITRP784;ITARM 0702
ITRP784;ITARM 0703
ITRP784;ITARM 0704
ITRP784;ITARM 0705
ITRP784;ITARM 0706
ITRP784;ITARM 0801
ITRP784;ITARM 0802
ITRP784;ITARM 0803
ITRP784;ITARM 0804
ITRP784;ITARM 0805
ITRP784;ITARM 2801
ITRP784;ITARM 2802
ITRP784;ITARM 2901
ITRP784;ITARM 2902
ITRP784;ITARM 2903
ITRP784;ITARM 3101
ITRP785;ITAOR 0101
ITRP785;ITAOR 0105
ITRP785;ITASS 0101
ITRP785;ITASS 0102
ITRP785;ITASS 0103
ITRP785;ITASS 0104
ITRP785;ITASS 0105
ITRP785;ITASS 0106
ITRP785;ITASS 0107
ITRP785;ITASS 0108
ITRP785;ITASS 0109
ITRP785;ITASS 0201
ITRP785;ITASS 0202
ITRP785;ITASS 0203
ITRP785;ITASS 0204
ITRP785;ITASS 0205
ITRP785;ITASS 0303
ITRP785;ITASS 0304
ITRP785;ITASS 0401
ITRP785;ITASS 0404
ITRP785;ITASS 0405
ITRP785;ITASS 0406
ITRP785;ITASS 0502
ITRP785;ITASS 0503
ITRP785;ITASS 0504
ITRP786;ITANU 0101
ITRP786;ITANU 0102
ITRP786;ITANU 0201
ITRP786;ITANU 0202
ITRP786;ITANU 0203
ITRP786;ITANU 0204
ITRP786;ITANU 0205
ITRP786;ITANU 0301
ITRP786;ITANU 0302
ITRP786;ITANU 0401
ITRP786;ITANU 0402
ITRP786;ITANU 0403
ITRP786;ITANU 0404
ITRP786;ITANU 0405
ITRP786;ITANU 0501
ITRP786;ITANU 0502
ITRP786;ITAOR 0102
ITRP786;ITAOR 0103
ITRP786;ITAOR 0104
ITRP786;ITAOR 0201
ITRP786;ITAOR 0202
ITRP786;ITAOR 0203
ITRP786;ITAOR 0204
ITRP786;ITAOR 0205
ITRP786;ITAOR 0206
ITRP786;ITASS 0402
ITRP786;ITASS 0403
ITRP787;ITACA 0601
ITRP787;ITACA 0602
ITRP787;ITACA 0603
ITRP787;ITACA 0604
ITRP787;ITACA 0605
ITRP787;ITACA 0606
ITRP787;ITACA 0705
ITRP787;ITACA 0707
ITRP787;ITAOR 0301
ITRP787;ITAOR 0302
ITRP787;ITAOR 0303
ITRP787;ITASU 0401
ITRP787;ITASU 0402
ITRP787;ITASU 0403
ITRP787;ITASU 0404
ITRP787;ITASU 0501
ITRP787;ITASU 0502
ITRP787;ITASU 0503
ITRP787;ITASU 0504
ITRP787;ITASU 0802
ITRP787;ITASU 0901
ITRP787;ITASU 0902
ITRP787;ITASU 0903
ITRP788;ITACA 0607
ITRP788;ITACA 0608
ITRP788;ITACA 0701
ITRP788;ITACA 0702
ITRP788;ITACA 0703
ITRP788;ITACA 0704
ITRP788;ITACA 0706
ITRP788;ITASU 0101
ITRP788;ITASU 0102
ITRP788;ITASU 0201
ITRP788;ITASU 0202
ITRP788;ITASU 0301
ITRP788;ITASU 0302
ITRP788;ITASU 0303
ITRP788;ITASU 0304
ITRP791;ITACE 1101
ITRP791;ITACE 1102
ITRP791;ITACE 1103
ITRP791;ITANA 0201
ITRP791;ITANA 0202
ITRP791;ITANA 0301
ITRP791;ITANA 0302
ITRP791;ITANA 0303
ITRP791;ITANA 0304
ITRP791;ITANA 0401
ITRP791;ITANA 0402
ITRP792;ITANA 0501
ITRP792;ITANA 0502
ITRP792;ITANA 0503
ITRP792;ITANA 0504
ITRP792;ITANA 2001
ITRP792;ITANA 2002
ITRP792;ITANA 2003
ITRP792;ITANA 2004
ITRP792;ITANA 2005
ITRP792;ITANA 2006
ITRP792;ITANA 2007
ITRP792;ITANA 2101
ITRP792;ITANA 2201
ITRP792;ITANA 2202
ITRP792;ITANA 2203
ITRP792;ITANA 2204
ITRP792;ITANA 2205
ITRP792;ITANA 2206
ITRP792;ITANA 2301
ITRP792;ITANA 2302
ITRP792;ITANA 2303
ITRP792;ITANA 2304
ITRP792;ITANA 2305
ITRP793;ITACE 0901
ITRP793;ITANA 0601
ITRP793;ITANA 0602
ITRP793;ITANA 0603
ITRP793;ITANA 2401
ITRP793;ITANA 2402
ITRP793;ITANA 2403
ITRP793;ITANA 2404
ITRP793;ITANA 2405
ITRP793;ITANA 2406
ITRP793;ITANA 2407
ITRP793;ITANA 2408
ITRP793;ITANA 2409
ITRP793;ITANA 2501
ITRP793;ITANA 2502
ITRP793;ITANA 2503
ITRP793;ITANA 2504
ITRP793;ITANA 2601
ITRP793;ITANA 2602
ITRP793;ITANA 2603
ITRP793;ITANA 2604
ITRP793;ITANA 2605
ITRP793;ITANA 2606
ITRP793;ITANA 2607
ITRP793;ITANA 2608
ITRP794;ITACE 0101
ITRP794;ITACE 0102
ITRP794;ITACE 0201
ITRP794;ITACE 0202
ITRP794;ITACE 0203
ITRP794;ITACE 0401
ITRP794;ITACE 0402
ITRP794;ITACE 0501
ITRP794;ITACE 0502
ITRP794;ITACE 0503
ITRP794;ITACE 1001
ITRP794;ITACE 1002
ITRP794;ITANA 0101
ITRP794;ITANA 0102
ITRP794;ITANA 1701
ITRP794;ITANA 1702
ITRP794;ITANA 1703
ITRP794;ITANA 1704
ITRP794;ITANA 1705
ITRP794;ITANA 1706
ITRP794;ITANA 1707
ITRP794;ITANA 1708
ITRP794;ITANA 1709
ITRP794;ITANA 1710
ITRP794;ITANA 1711
ITRP794;ITANA 1801
ITRP794;ITANA 1802
ITRP794;ITANA 1803
ITRP794;ITANA 1901
ITRP794;ITANA 1902
ITRP795;ITAAL 0201
ITRP795;ITAAL 0701
ITRP795;ITAAL 0702
ITRP795;ITAAL 0703
ITRP795;ITAAL 0704
ITRP795;ITAAL 0705
ITRP795;ITAAL 0706
ITRP795;ITAAL 0707
ITRP795;ITAAL 0708
ITRP795;ITANO 0201
ITRP795;ITANO 0202
ITRP795;ITANO 0203
ITRP795;ITANO 0204
ITRP795;ITANO 0205
ITRP795;ITANO 0206
ITRP795;ITANO 0207
ITRP795;ITANO 0208
ITRP795;ITANO 0301
ITRP795;ITANO 0302
ITRP795;ITANO 0401
ITRP795;ITANO 0402
ITRP795;ITANO 0403
ITRP795;ITANO 0404
ITRP795;ITAVC 0101
ITRP795;ITAVC 0102
ITRP795;ITAVC 0103
ITRP795;ITAVC 0104
ITRP795;ITAVC 0105
ITRP795;ITAVC 0106
ITRP796;ITAAV 0101
ITRP796;ITAAV 0102
ITRP796;ITAAV 0103
ITRP796;ITAAV 0104
ITRP796;ITAAV 0105
ITRP796;ITAAV 0106
ITRP796;ITAAV 0201
ITRP796;ITAAV 0202
ITRP796;ITAAV 0203
ITRP796;ITAAV 0204
ITRP796;ITAAV 0205
ITRP796;ITAAV 0301
ITRP796;ITAAV 0302
ITRP796;ITAAV 0303
ITRP796;ITAAV 0304
ITRP796;ITAAV 0305
ITRP796;ITAAV 0401
ITRP796;ITAAV 0402
ITRP796;ITAAV 0403
ITRP796;ITAAV 0404
ITRP796;ITAAV 0405
ITRP796;ITAAV 0406
ITRP796;ITAAV 0407
ITRP796;ITAAV 0408
ITRP796;ITAAV 0409
ITRP796;ITAAV 0410
ITRP796;ITABN 0101
ITRP796;ITABN 0102
ITRP796;ITABN 0103
ITRP796;ITABN 0104
ITRP796;ITABN 0105
ITRP796;ITABN 0106
ITRP796;ITABN 0107
ITRP796;ITABN 0201
ITRP796;ITABN 0202
ITRP796;ITABN 0203
ITRP796;ITABN 0204
ITRP796;ITABN 0301
ITRP796;ITABN 0302
ITRP796;ITABN 0303
ITRP796;ITABN 0401
ITRP796;ITABN 0402
ITRP796;ITABN 0501
ITRP796;ITABN 0502
ITRP797;ITACE 0301
ITRP797;ITACE 0302
ITRP797;ITACE 0303
ITRP797;ITACE 0601
ITRP797;ITACE 0602
ITRP797;ITACE 0603
ITRP797;ITACE 0604
ITRP797;ITACE 0605
ITRP797;ITACE 0606
ITRP797;ITACE 0801
ITRP797;ITACE 0802
ITRP797;ITANA 0702
ITRP797;ITANA 0703
ITRP797;ITANA 0801
ITRP797;ITANA 0802
ITRP797;ITANA 0901
ITRP797;ITANA 0902
ITRP797;ITANA 1301
ITRP797;ITANA 1302
ITRP798;ITANA 1601
ITRP798;ITANA 1602
ITRP798;ITANA 1603
ITRP798;ITASA 0301
ITRP798;ITASA 0302
ITRP798;ITASA 0901
ITRP798;ITASA 0902
ITRP798;ITASA 1001
ITRP798;ITASA 1002
ITRP798;ITASA 1101
ITRP798;ITASA 1102
ITRP798;ITASA 1103
ITRP798;ITASA 1104
ITRP798;ITASA 1105
ITRP798;ITASA 1201
ITRP798;ITASA 1202
ITRP798;ITASA 1203
ITRP798;ITASA 1301
ITRP798;ITASA 1302
ITRP798;ITASA 1303
ITRP798;ITASA 1304
ITRP798;ITASA 1305
ITRP798;ITASA 1401
ITRP798;ITASA 1402
ITRP798;ITASA 1403
ITRP798;ITASA 1501
ITRP798;ITASA 1502
ITRP798;ITASA 1503
ITRP798;ITASA 1504
ITRP799;ITASA 0101
ITRP799;ITASA 0102
ITRP799;ITASA 0401
ITRP799;ITASA 0402
ITRP799;ITASA 0501
ITRP799;ITASA 0601
ITRP800;ITASA 0201
ITRP800;ITASA 0701
ITRP800;ITASA 0702
ITRP800;ITASA 0703
ITRP800;ITASA 0704
ITRP800;ITASA 0705
ITRP800;ITASA 0706
ITRP800;ITASA 0707
ITRP800;ITASA 0708
ITRP800;ITASA 0801
ITRP800;ITASA 0802
ITRP800;ITASA 0803
ITRP802;ITAAQ 0101
ITRP802;ITAAQ 0102
ITRP802;ITAAQ 0103
ITRP802;ITAAQ 0104
ITRP802;ITAAQ 0105
ITRP802;ITAAQ 0106
ITRP802;ITAAQ 0107
ITRP802;ITAAQ 0108
ITRP802;ITAAQ 0301
ITRP802;ITAAQ 0302
ITRP802;ITAAQ 0303
ITRP802;ITAAQ 0304
ITRP802;ITAAQ 0305
ITRP802;ITAAQ 0306
ITRP802;ITAAQ 0307
ITRP802;ITAAQ 0401
ITRP802;ITAAQ 0402
ITRP802;ITAAQ 0403
ITRP802;ITAAQ 0404
ITRP802;ITAAQ 0405
ITRP802;ITAPE 0301
ITRP802;ITAPE 0302
ITRP802;ITAPE 0303
ITRP802;ITAPE 0304
ITRP802;ITATE 0101
ITRP802;ITATE 0102
ITRP802;ITATE 0103
ITRP802;ITATE 0201
ITRP802;ITATE 0202
ITRP802;ITATE 0301
ITRP802;ITATE 0302
ITRP802;ITATE 0303
ITRP802;ITATE 0401
ITRP802;ITATE 0402
ITRP802;ITATE 0403
ITRP802;ITATE 0404
ITRP802;ITATE 0405
ITRP802;ITATE 0406
ITRP803;ITACH 0101
ITRP803;ITACH 0102
ITRP803;ITACH 0103
ITRP803;ITACH 0104
ITRP803;ITACH 0105
ITRP803;ITACH 0106
ITRP803;ITACH 0107
ITRP803;ITACH 0201
ITRP803;ITACH 0202
ITRP803;ITACH 0203
ITRP803;ITACH 0301
ITRP803;ITACH 0302
ITRP803;ITAPE 0101
ITRP803;ITAPE 0102
ITRP803;ITAPE 0103
ITRP803;ITAPE 0201
ITRP803;ITAPE 0202
ITRP803;ITAPE 0203
ITRP803;ITAPE 0204
ITRP803;ITAPE 0205
ITRP803;ITAPE 0206
ITRP803;ITAPE 0207
ITRP803;ITAPE 0208
ITRP803;ITAPE 0209
ITRP804;ITAAQ 0201
ITRP804;ITAAQ 0202
ITRP804;ITACB 0101
ITRP804;ITACB 0102
ITRP804;ITACB 0201
ITRP804;ITACB 0202
ITRP804;ITACB 0203
ITRP804;ITACB 0204
ITRP804;ITACB 0205
ITRP804;ITACB 0206
ITRP804;ITACB 0207
ITRP804;ITACB 0208
ITRP804;ITACB 0209
ITRP804;ITACB 0301
ITRP804;ITACB 0302
ITRP804;ITACB 0303
ITRP804;ITACB 0401
ITRP804;ITACB 0402
ITRP804;ITACB 0403
ITRP804;ITACB 0404
ITRP804;ITACB 0405
ITRP804;ITACH 0204
ITRP804;ITACH 0205
ITRP804;ITACH 0206
ITRP804;ITACH 0207
ITRP804;ITACH 0208
ITRP804;ITACH 0209
ITRP804;ITACH 0210
ITRP804;ITACH 0401
ITRP804;ITACH 0402
ITRP804;ITACH 0403
ITRP804;ITACH 0404
ITRP804;ITACH 0405
ITRP804;ITAIS 0101
ITRP804;ITAIS 0102
ITRP804;ITAIS 0201
ITRP804;ITAIS 0202
ITRP804;ITAIS 0301
ITRP804;ITAIS 0302
ITRP804;ITAIS 0303
ITRP804;ITAIS 0304
ITRP805;ITAFG 0101
ITRP805;ITAFG 0102
ITRP805;ITAFG 0201
ITRP805;ITAFG 0202
ITRP805;ITAFG 0203
ITRP805;ITAFG 0204
ITRP805;ITAFG 0301
ITRP805;ITAFG 0401
ITRP805;ITAFG 0402
ITRP805;ITAFG 0501
ITRP805;ITAFG 0502
ITRP805;ITAFG 0503
ITRP805;ITAFG 0601
ITRP805;ITAFG 0602
ITRP805;ITAFG 0701
ITRP805;ITAFG 0801
ITRP805;ITAFG 0802
ITRP805;ITAFG 0803
ITRP805;ITAFG 0804
ITRP805;ITAFG 0805
ITRP805;ITAFG 0806
ITRP805;ITAFG 0807
ITRP805;ITAFG 0808
ITRP805;ITAFG 0901
ITRP805;ITAFG 0902
ITRP805;ITAFG 1001
ITRP805;ITAFG 1002
ITRP805;ITAFG 1003
ITRP806;ITABA 0501
ITRP806;ITABA 0502
ITRP806;ITABA 0503
ITRP806;ITABT 0101
ITRP806;ITABT 0102
ITRP806;ITABT 0103
ITRP806;ITABT 0104
ITRP806;ITABT 0201
ITRP806;ITABT 0202
ITRP806;ITABT 0301
ITRP806;ITABT 0302
ITRP806;ITABT 0303
ITRP806;ITABT 0304
ITRP806;ITABT 0401
ITRP806;ITABT 0402
ITRP806;ITABT 0403
ITRP806;ITABT 0404
ITRP806;ITABT 1101
ITRP807;ITABA 0601
ITRP807;ITABA 0801
ITRP807;ITABA 0901
ITRP807;ITABA 0902
ITRP807;ITABA 1001
ITRP807;ITABA 1002
ITRP807;ITABA 1003
ITRP807;ITABA 1004
ITRP807;ITABA 1005
ITRP807;ITABA 1006
ITRP807;ITABA 1007
ITRP807;ITABA 1008
ITRP807;ITABA 1201
ITRP807;ITABA 1202
ITRP807;ITABA 1203
ITRP808;ITABA 0701
ITRP808;ITABA 0702
ITRP808;ITABA 0703
ITRP808;ITABA 0903
ITRP808;ITABA 1101
ITRP808;ITABA 1102
ITRP808;ITABA 1103
ITRP808;ITABA 1104
ITRP808;ITABA 1105
ITRP808;ITABA 1106
ITRP808;ITABA 1107
ITRP808;ITABA 1301
ITRP808;ITABA 1302
ITRP808;ITABA 1401
ITRP808;ITABA 1402
ITRP808;ITABA 1501
ITRP808;ITABA 1502
ITRP808;ITABA 1601
ITRP808;ITABA 1701
ITRP808;ITABA 1702
ITRP810;ITABA 1801
ITRP810;ITABA 1802
ITRP810;ITATA 0101
ITRP810;ITATA 0102
ITRP810;ITATA 0201
ITRP810;ITATA 0202
ITRP810;ITATA 0301
ITRP810;ITATA 0401
ITRP810;ITATA 0402
ITRP810;ITATA 0501
ITRP810;ITATA 0502
ITRP810;ITATA 0503
ITRP810;ITATA 0504
ITRP810;ITATA 0505
ITRP810;ITATA 0506
ITRP810;ITATA 0507
ITRP810;ITATA 0508
ITRP810;ITATA 0509
ITRP810;ITATA 0601
ITRP810;ITATA 0602
ITRP810;ITATA 0603
ITRP811;ITABR 0101
ITRP811;ITABR 0201
ITRP811;ITABR 0202
ITRP811;ITABR 0203
ITRP811;ITABR 0301
ITRP811;ITABR 0302
ITRP811;ITABR 0401
ITRP811;ITABR 0402
ITRP811;ITABR 0403
ITRP811;ITABR 0404
ITRP811;ITABR 0501
ITRP811;ITABR 0601
ITRP811;ITALE 0302
ITRP811;ITATA 0701
ITRP811;ITATA 0702
ITRP811;ITATA 0703
ITRP812;ITALE 0101
ITRP812;ITALE 0102
ITRP812;ITALE 0103
ITRP812;ITALE 0104
ITRP812;ITALE 0105
ITRP812;ITALE 0201
ITRP812;ITALE 0202
ITRP812;ITALE 0301
ITRP812;ITALE 0401
ITRP812;ITALE 0402
ITRP812;ITALE 0501
ITRP812;ITALE 0502
ITRP812;ITALE 0503
ITRP812;ITALE 0701
ITRP812;ITALE 0702
ITRP813;ITALE 0601
ITRP813;ITALE 0602
ITRP813;ITALE 0801
ITRP813;ITALE 0802
ITRP813;ITALE 0803
ITRP813;ITALE 0901
ITRP813;ITALE 0902
ITRP813;ITALE 0903
ITRP813;ITALE 1001
ITRP813;ITALE 1002
ITRP813;ITALE 1101
ITRP813;ITALE 1102
ITRP813;ITALE 1201
ITRP813;ITALE 1202
ITRP813;ITALE 1203
ITRP813;ITALE 1301
ITRP813;ITALE 1302
ITRP814;ITACS 0101
ITRP814;ITACS 0102
ITRP814;ITACS 0103
ITRP814;ITACS 0104
ITRP814;ITACS 0201
ITRP814;ITACS 0202
ITRP814;ITACS 0203
ITRP814;ITACS 0301
ITRP814;ITACS 0302
ITRP814;ITACS 0303
ITRP814;ITACS 0304
ITRP814;ITACS 0305
ITRP814;ITACS 0501
ITRP814;ITACS 0502
ITRP814;ITACS 0601
ITRP814;ITACS 0602
ITRP814;ITACS 0701
ITRP814;ITACS 0702
ITRP814;ITACS 0703
ITRP814;ITACS 0704
ITRP814;ITACS 0904
ITRP814;ITACS 0905
ITRP814;ITAMT 0201
ITRP814;ITAMT 0202
ITRP814;ITAMT 0203
ITRP814;ITAMT 0204
ITRP814;ITAMT 0205
ITRP814;ITAPZ 0501
ITRP814;ITAPZ 0502
ITRP814;ITAPZ 0503
ITRP815;ITAMT 0101
ITRP815;ITAMT 0102
ITRP815;ITAMT 0103
ITRP815;ITAMT 0104
ITRP815;ITAMT 0105
ITRP815;ITAMT 0106
ITRP815;ITAPZ 0101
ITRP815;ITAPZ 0102
ITRP815;ITAPZ 0103
ITRP815;ITAPZ 0104
ITRP815;ITAPZ 0105
ITRP815;ITAPZ 0201
ITRP815;ITAPZ 0202
ITRP815;ITAPZ 0203
ITRP815;ITAPZ 0204
ITRP815;ITAPZ 0205
ITRP815;ITAPZ 0206
ITRP815;ITAPZ 0207
ITRP815;ITAPZ 0208
ITRP815;ITAPZ 0209
ITRP815;ITAPZ 0210
ITRP815;ITAPZ 0301
ITRP815;ITAPZ 0302
ITRP815;ITAPZ 0303
ITRP815;ITAPZ 0304
ITRP815;ITAPZ 0401
ITRP815;ITAPZ 0402
ITRP815;ITAPZ 0403
ITRP816;ITACS 0401
ITRP816;ITACS 0402
ITRP816;ITACS 0403
ITRP816;ITACS 0801
ITRP816;ITACS 0802
ITRP816;ITACS 0803
ITRP816;ITACS 0901
ITRP816;ITACS 0902
ITRP816;ITACS 0903
ITRP816;ITACS 0906
ITRP816;ITACS 0907
ITRP816;ITACS 0908
ITRP816;ITACS 0909
ITRP816;ITACS 1001
ITRP816;ITACS 1002
ITRP816;ITACS 1101
ITRP816;ITACS 1102
ITRP816;ITACS 1201
ITRP816;ITACS 1202
ITRP816;ITACS 1203
ITRP816;ITACZ 0201
ITRP816;ITACZ 0202
ITRP816;ITACZ 0203
ITRP816;ITACZ 0204
ITRP816;ITACZ 0206
ITRP816;ITACZ 0207
ITRP816;ITACZ 0208
ITRP816;ITAKR 0201
ITRP817;ITACZ 0205
ITRP817;ITACZ 0209
ITRP817;ITACZ 0210
ITRP817;ITACZ 0301
ITRP817;ITACZ 0302
ITRP817;ITACZ 0303
ITRP817;ITACZ 0304
ITRP817;ITACZ 0401
ITRP817;ITACZ 0402
ITRP817;ITACZ 0403
ITRP817;ITACZ 0404
ITRP817;ITAKR 0101
ITRP817;ITAKR 0102
ITRP817;ITAKR 0103
ITRP817;ITAKR 0301
ITRP817;ITAKR 0302
ITRP817;ITAKR 0303
ITRP817;ITAKR 0401
ITRP817;ITARC 0101
ITRP817;ITARC 0102
ITRP817;ITARC 0103
ITRP817;ITARC 0104
ITRP817;ITARC 0105
ITRP817;ITAVV 0101
ITRP817;ITAVV 0102
ITRP817;ITAVV 0103
ITRP817;ITAVV 0104
ITRP818;ITACZ 0101
ITRP818;ITACZ 0104
ITRP818;ITACZ 0105
ITRP818;ITARC 0201
ITRP818;ITARC 0202
ITRP818;ITARC 0203
ITRP818;ITARC 0301
ITRP818;ITARC 0302
ITRP818;ITARC 0303
ITRP818;ITARC 0401
ITRP818;ITARC 0402
ITRP818;ITARC 0403
ITRP818;ITARC 0601
ITRP818;ITARC 0602
ITRP818;ITARC 0603
ITRP818;ITARC 0604
ITRP818;ITARC 0801
ITRP818;ITARC 0802
ITRP818;ITARC 0803
ITRP818;ITARC 0804
ITRP819;ITACZ 0102
ITRP819;ITACZ 0103
ITRP819;ITACZ 0106
ITRP819;ITARC 0501
ITRP819;ITARC 0502
ITRP819;ITARC 0503
ITRP819;ITARC 0504
ITRP819;ITARC 0505
ITRP819;ITARC 0506
ITRP819;ITARC 0701
ITRP819;ITARC 0702
ITRP819;ITARC 0703
ITRP819;ITARC 0901
ITRP819;ITARC 0902
ITRP819;ITARC 0903
ITRP819;ITARC 0904
ITRP819;ITAVV 0201
ITRP819;ITAVV 0202
ITRP819;ITAVV 0203
ITRP819;ITAVV 0204
ITRP819;ITAVV 0205
ITRP819;ITAVV 0206
ITRP819;ITAVV 0301
ITRP819;ITAVV 0302
ITRP819;ITAVV 0303
ITRP819;ITAVV 0304
ITRP820;ITAME 0101
ITRP820;ITAME 0102
ITRP820;ITAME 0103
ITRP820;ITAME 0104
ITRP820;ITAME 0105
ITRP820;ITAME 0201
ITRP820;ITAME 0202
ITRP820;ITAME 0203
ITRP820;ITAME 0204
ITRP820;ITAME 1001
ITRP820;ITAME 1002
ITRP820;ITAME 1003
ITRP820;ITAME 1004
ITRP820;ITAME 1005
ITRP820;ITAME 1006
ITRP821;ITACT 0301
ITRP821;ITACT 0401
ITRP821;ITACT 0402
ITRP821;ITACT 0801
ITRP821;ITACT 0802
ITRP821;ITACT 0803
ITRP821;ITACT 0804
ITRP821;ITACT 0805
ITRP821;ITACT 0806
ITRP821;ITACT 0807
ITRP821;ITACT 0901
ITRP821;ITACT 0902
ITRP821;ITACT 0903
ITRP821;ITACT 0904
ITRP821;ITACT 1001
ITRP821;ITACT 1002
ITRP821;ITACT 1003
ITRP821;ITACT 1004
ITRP821;ITACT 1101
ITRP822;ITACT 0201
ITRP822;ITACT 0202
ITRP822;ITAEN 0101
ITRP822;ITAEN 0102
ITRP822;ITAEN 0201
ITRP822;ITAEN 0202
ITRP822;ITAEN 0203
ITRP822;ITAEN 0301
ITRP822;ITAEN 0302
ITRP822;ITAEN 0401
ITRP822;ITAEN 0402
ITRP822;ITAME 0301
ITRP822;ITAME 0302
ITRP822;ITAME 0303
ITRP822;ITAME 0304
ITRP822;ITAME 0305
ITRP822;ITAME 0306
ITRP822;ITASR 0201
ITRP822;ITASR 0202
ITRP822;ITASR 0203
ITRP822;ITASR 0301
ITRP822;ITASR 0401
ITRP822;ITASR 0402
ITRP822;ITASR 0501
ITRP822;ITASR 0502
ITRP822;ITASR 0503
ITRP822;ITASR 0504
ITRP822;ITASR 0505
ITRP822;ITASR 0506
ITRP823;ITACT 0501
ITRP823;ITACT 0502
ITRP823;ITACT 0503
ITRP823;ITACT 0504
ITRP823;ITACT 0601
ITRP823;ITACT 0602
ITRP823;ITACT 0603
ITRP823;ITACT 0604
ITRP823;ITACT 0605
ITRP823;ITACT 0701
ITRP823;ITACT 0702
ITRP823;ITACT 0703
ITRP823;ITACT 1201
ITRP823;ITACT 1202
ITRP823;ITACT 1203
ITRP823;ITACT 1204
ITRP824;ITAME 0401
ITRP824;ITAME 0402
ITRP824;ITAME 0403
ITRP824;ITAME 0404
ITRP824;ITAME 0501
ITRP824;ITAME 0601
ITRP824;ITAME 0602
ITRP824;ITAME 0603
ITRP824;ITAME 0604
ITRP824;ITAME 0701
ITRP824;ITAME 0702
ITRP824;ITAME 0703
ITRP824;ITAME 0704
ITRP824;ITAME 0801
ITRP824;ITAME 0802
ITRP824;ITAME 0901
ITRP824;ITAME 0902
ITRP824;ITAME 0903
ITRP824;ITAME 0904
ITRP824;ITAME 0905
ITRP825;ITACL 0401
ITRP825;ITACL 0402
ITRP825;ITACL 0403
ITRP825;ITACL 0404
ITRP825;ITACL 0405
ITRP825;ITACT 0101
ITRP825;ITACT 0102
ITRP825;ITACT 0103
ITRP825;ITARG 0101
ITRP825;ITARG 0102
ITRP825;ITARG 0201
ITRP825;ITARG 0202
ITRP825;ITARG 0203
ITRP825;ITARG 0204
ITRP825;ITARG 0301
ITRP825;ITARG 0302
ITRP825;ITARG 0303
ITRP825;ITARG 0304
ITRP825;ITASR 0101
ITRP825;ITASR 0102
ITRP825;ITASR 0103
ITRP826;ITACL 0301
ITRP826;ITACL 0302
ITRP826;ITACL 0303
ITRP827;ITAAG 0501
ITRP827;ITAAG 0502
ITRP827;ITAAG 0503
ITRP827;ITAAG 0505
ITRP827;ITAAG 0506
ITRP827;ITAAG 0601
ITRP827;ITAAG 0602
ITRP827;ITAAG 0603
ITRP827;ITAAG 0604
ITRP827;ITAAG 0701
ITRP827;ITAAG 0702
ITRP827;ITAAG 0703
ITRP827;ITACL 0101
ITRP827;ITACL 0102
ITRP827;ITACL 0305
ITRP828;ITAPA 0501
ITRP828;ITAPA 0502
ITRP828;ITAPA 0801
ITRP828;ITAPA 1201
ITRP828;ITAPA 1202
ITRP828;ITAPA 1203
ITRP828;ITAPA 1204
ITRP828;ITAPA 1301
ITRP828;ITAPA 1302
ITRP828;ITAPA 1303
ITRP828;ITAPA 1304
ITRP828;ITAPA 1305
ITRP828;ITAPA 1306
ITRP828;ITAPA 1307
ITRP829;ITAPA 0401
ITRP829;ITAPA 0402
ITRP829;ITAPA 0701
ITRP829;ITAPA 1101
ITRP829;ITAPA 1102
ITRP829;ITAPA 1103
ITRP829;ITAPA 1104
ITRP829;ITAPA 1105
ITRP829;ITAPA 1106
ITRP829;ITAPA 1401
ITRP829;ITAPA 1402
ITRP829;ITAPA 1403
ITRP829;ITAPA 1404
ITRP829;ITAPA 1405
ITRP830;ITAAG 0101
ITRP830;ITAAG 0102
ITRP830;ITAAG 0103
ITRP830;ITAAG 0201
ITRP830;ITAAG 0301
ITRP830;ITAAG 0401
ITRP830;ITAAG 0504
ITRP830;ITACL 0201
ITRP830;ITATP 0401
ITRP830;ITATP 0402
ITRP830;ITATP 0403
ITRP830;ITATP 0501
ITRP830;ITATP 0502
ITRP831;ITAPA 0702
ITRP831;ITAPA 0703
ITRP831;ITATP 0102
ITRP831;ITATP 0103
ITRP831;ITATP 0104
ITRP831;ITATP 0105
ITRP831;ITATP 0106
ITRP831;ITATP 0107
ITRP831;ITATP 0201
ITRP831;ITATP 0301
ITRP831;ITATP 0601
ITRP831;ITATP 0602
ITRP831;ITATP 0603
ITRP832;ITACL 0304
ITRP832;ITAPA 0101
ITRP832;ITAPA 0102
ITRP832;ITAPA 0201
ITRP832;ITAPA 0202
ITRP832;ITAPA 0203
ITRP832;ITAPA 0301
ITRP832;ITAPA 0302
ITRP832;ITAPA 0303
ITRP832;ITAPA 0601
ITRP832;ITAPA 0602
ITRP832;ITAPA 0901
ITRP832;ITAPA 0902
ITRP832;ITAPA 1001
ITRP832;ITAPA 1002
ITRP832;ITAPA 1004
ITRP832;ITAPA 1005
ITRP832;ITAPA 1006
ITRP832;ITAPA 1007
ITRP832;ITAPA 1501
ITRP832;ITAPA 1502
ITRP832;ITAPA 1503
ITRP832;ITAPA 1504
ITRP832;ITAPA 1505
ITRP832;ITAPA 1506
ITRP833;ITALI 0101
ITRP833;ITALI 0102
ITRP833;ITALI 0103
ITRP833;ITALI 0501
ITRP833;ITALI 0502
ITRP833;ITALI 0503
ITRP833;ITALI 0601
ITRP833;ITALI 0602
ITRP833;ITALI 0603
ITRP834;ITACE 0701
ITRP834;ITACE 0702
ITRP834;ITANA 1003
ITRP834;ITANA 1004
ITRP834;ITANA 1005
ITRP834;ITANA 1101
ITRP834;ITANA 1102
ITRP834;ITANA 1103
ITRP834;ITANA 1201
ITRP834;ITANA 1202
ITRP834;ITANA 1203
ITRP834;ITANA 1204
ITRP834;ITANA 1401
ITRP834;ITANA 1402
ITRP834;ITANA 1403
ITRP834;ITANA 1404
ITRP834;ITANA 1501
ITRP834;ITANA 1502
ITRP834;ITANA 1503
ITRP834;ITANA 1504
ITRP834;ITANA 1505
ITRS702;ITAAL 0101
ITRS702;ITAAL 0102
ITRS702;ITAAL 0103
ITRS702;ITAAL 0104
ITRS702;ITAAL 0105
ITRS702;ITAAL 0106
ITRS702;ITAAL 0107
ITRS702;ITAAL 0201
ITRS702;ITAAL 0301
ITRS702;ITAAL 0302
ITRS702;ITAAL 0303
ITRS702;ITAAL 0304
ITRS702;ITAAL 0401
ITRS702;ITAAL 0402
ITRS702;ITAAL 0403
ITRS702;ITAAL 0404
ITRS702;ITAAL 0501
ITRS702;ITAAL 0502
ITRS702;ITAAL 0601
ITRS702;ITAAL 0602
ITRS702;ITAAL 0603
ITRS702;ITAAL 0701
ITRS702;ITAAL 0702
ITRS702;ITAAL 0703
ITRS702;ITAAL 0704
ITRS702;ITAAL 0705
ITRS702;ITAAL 0706
ITRS702;ITAAL 0707
ITRS702;ITAAL 0708
ITRS702;ITAAT 0101
ITRS702;ITAAT 0102
ITRS702;ITAAT 0103
ITRS702;ITAAT 0104
ITRS702;ITAAT 0105
ITRS702;ITAAT 0106
ITRS702;ITAAT 0107
ITRS702;ITAAT 0108
ITRS702;ITAAT 0201
ITRS702;ITAAT 0202
ITRS702;ITAAT 0203
ITRS702;ITAAT 0204
ITRS702;ITABI 0101
ITRS702;ITABI 0102
ITRS702;ITABI 0103
ITRS702;ITABI 0104
ITRS702;ITABI 0105
ITRS702;ITABI 0106
ITRS702;ITABI 0201
ITRS702;ITABI 0202
ITRS702;ITABI 0203
ITRS702;ITABI 0204
ITRS702;ITATO 0501
ITRS702;ITATO 0502
ITRS702;ITATO 0601
ITRS702;ITATO 0602
ITRS702;ITATO 0701
ITRS702;ITATO 0702
ITRS702;ITATO 0801
ITRS702;ITATO 0802
ITRS702;ITATO 1501
ITRS702;ITATO 1502
ITRS702;ITATO 1601
ITRS702;ITATO 1602
ITRS702;ITATO 1701
ITRS702;ITATO 1801
ITRS702;ITATO 1802
ITRS702;ITATO 1901
ITRS702;ITATO 2001
ITRS702;ITATO 2701
ITRS702;ITATO 2702
ITRS702;ITATO 2703
ITRS702;ITATO 2801
ITRS702;ITATO 2802
ITRS702;ITATO 2901
ITRS702;ITATO 3001
ITRS702;ITATO 3002
ITRS702;ITATO 3003
ITRS702;ITATO 3101
ITRS702;ITATO 3102
ITRS702;ITATO 3201
ITRS702;ITATO 3301
ITRS702;ITATO 3302
ITRS702;ITATO 3701
ITRS702;ITATO 3702
ITRS702;ITATO 3801
ITRS702;ITATO 3802
ITRS702;ITATO 3803
ITRS702;ITATO 3901
ITRS702;ITATO 3902
ITRS702;ITATO 3903
ITRS702;ITATO 4001
ITRS702;ITATO 4002
ITRS702;ITATO 4003
ITRS702;ITATO 4004
ITRS702;ITATO 4005
ITRS702;ITATO 4101
ITRS702;ITATO 4102
ITRS702;ITAVC 0101
ITRS702;ITAVC 0102
ITRS702;ITAVC 0103
ITRS702;ITAVC 0104
ITRS702;ITAVC 0105
ITRS702;ITAVC 0106
ITRS702;ITAVC 0201
ITRS702;ITAVC 0202
ITRS702;ITAVC 0203
ITRS702;ITAVC 0301
ITRS702;ITAVC 0302
ITRS702;ITAVC 0303
ITRS702;ITAVC 0401
ITRS703;ITANO 0201
ITRS703;ITANO 0202
ITRS703;ITANO 0203
ITRS703;ITANO 0204
ITRS703;ITANO 0205
ITRS703;ITANO 0206
ITRS703;ITANO 0207
ITRS703;ITANO 0208
ITRS703;ITANO 0301
ITRS703;ITANO 0302
ITRS703;ITANO 0401
ITRS703;ITANO 0402
ITRS703;ITANO 0403
ITRS703;ITANO 0404
ITRS703;ITATO 0101
ITRS703;ITATO 0102
ITRS703;ITATO 0103
ITRS703;ITATO 0104
ITRS703;ITATO 0105
ITRS703;ITATO 0106
ITRS703;ITATO 0107
ITRS703;ITATO 0201
ITRS703;ITATO 0202
ITRS703;ITATO 0301
ITRS703;ITATO 0302
ITRS703;ITATO 0303
ITRS703;ITATO 0401
ITRS703;ITATO 0901
ITRS703;ITATO 1001
ITRS703;ITATO 1002
ITRS703;ITATO 1003
ITRS703;ITATO 1101
ITRS703;ITATO 1102
ITRS703;ITATO 1103
ITRS703;ITATO 1201
ITRS703;ITATO 1202
ITRS703;ITATO 1301
ITRS703;ITATO 1302
ITRS703;ITATO 1303
ITRS703;ITATO 1401
ITRS703;ITATO 1402
ITRS703;ITATO 2101
ITRS703;ITATO 2201
ITRS703;ITATO 2301
ITRS703;ITATO 2401
ITRS703;ITATO 2402
ITRS703;ITATO 2403
ITRS703;ITATO 2501
ITRS703;ITATO 2601
ITRS703;ITATO 2602
ITRS703;ITATO 3401
ITRS703;ITATO 3402
ITRS703;ITATO 3501
ITRS703;ITATO 3601
ITRS703;ITATO 3602
ITRS703;ITATO 3603
ITRS703;ITATO 3604
ITRS703;ITATO 3605
ITRS703;ITATO 4201
ITRS703;ITATO 4301
ITRS703;ITATO 4401
ITRS703;ITATO 4402
ITRS703;ITATO 4403
ITRS704;ITACN 0101
ITRS704;ITACN 0102
ITRS704;ITACN 0103
ITRS704;ITACN 0201
ITRS704;ITACN 0202
ITRS704;ITACN 0301
ITRS704;ITACN 0302
ITRS704;ITACN 0401
ITRS704;ITACN 0402
ITRS704;ITACN 0403
ITRS704;ITACN 0501
ITRS704;ITACN 0601
ITRS704;ITACN 0602
ITRS704;ITACN 0603
ITRS704;ITACN 0604
ITRS704;ITACN 0605
ITRS704;ITACN 0701
ITRS704;ITACN 0702
ITRS704;ITACN 0703
ITRS704;ITACN 0801
ITRS704;ITACN 0802
ITRS704;ITACN 0803
ITRS704;ITACN 0804
ITRS704;ITACN 0805
ITRS704;ITACN 0806
ITRS704;ITACN 0901
ITRS704;ITACN 0902
ITRS704;ITACN 0903
ITRS704;ITACN 0904
ITRS704;ITACN 1001
ITRS704;ITACN 1002
ITRS704;ITAGE 0101
ITRS704;ITAGE 0102
ITRS704;ITAGE 0103
ITRS704;ITAGE 0104
ITRS704;ITAGE 0105
ITRS704;ITAGE 0201
ITRS704;ITAGE 0202
ITRS704;ITAGE 0203
ITRS704;ITAGE 0301
ITRS704;ITAGE 0302
ITRS704;ITAGE 0303
ITRS704;ITAGE 0304
ITRS704;ITAGE 0305
ITRS704;ITAGE 0306
ITRS704;ITAGE 0401
ITRS704;ITAGE 0402
ITRS704;ITAGE 0403
ITRS704;ITAGE 0404
ITRS704;ITAGE 0501
ITRS704;ITAGE 0502
ITRS704;ITAGE 0503
ITRS704;ITAGE 0504
ITRS704;ITAGE 0505
ITRS704;ITAGE 0506
ITRS704;ITAGE 0507
ITRS704;ITAGE 0508
ITRS704;ITAGE 0509
ITRS704;ITAGE 0510
ITRS704;ITAGE 0511
ITRS704;ITAGE 0512
ITRS704;ITAGE 0513
ITRS704;ITAGE 0601
ITRS704;ITAGE 0602
ITRS704;ITAGE 0603
ITRS704;ITAGE 0604
ITRS704;ITAGE 0701
ITRS704;ITAGE 0702
ITRS704;ITAGE 0703
ITRS704;ITAGE 0801
ITRS704;ITAGE 0802
ITRS704;ITAGE 0803
ITRS704;ITAGE 0901
ITRS704;ITAGE 0902
ITRS704;ITAGE 0903
ITRS704;ITAGE 0904
ITRS704;ITAGE 0905
ITRS704;ITAGE 1001
ITRS704;ITAGE 1002
ITRS704;ITAGE 1101
ITRS704;ITAGE 1102
ITRS704;ITAGE 1103
ITRS704;ITAGE 1104
ITRS704;ITAGE 1105
ITRS704;ITAGE 1106
ITRS704;ITAIM 0101
ITRS704;ITAIM 0102
ITRS704;ITAIM 0103
ITRS704;ITAIM 0104
ITRS704;ITAIM 0201
ITRS704;ITAIM 0202
ITRS704;ITAIM 0301
ITRS704;ITAIM 0302
ITRS704;ITAIM 0303
ITRS704;ITAIM 0304
ITRS704;ITAIM 0305
ITRS704;ITASP 0101
ITRS704;ITASP 0102
ITRS704;ITASP 0103
ITRS704;ITASP 0104
ITRS704;ITASP 0201
ITRS704;ITASP 0301
ITRS704;ITASP 0302
ITRS704;ITASP 0303
ITRS704;ITASP 0304
ITRS704;ITASP 0305
ITRS704;ITASP 0306
ITRS704;ITASP 0307
ITRS704;ITASV 0101
ITRS704;ITASV 0102
ITRS704;ITASV 0103
ITRS704;ITASV 0201
ITRS704;ITASV 0202
ITRS704;ITASV 0203
ITRS704;ITASV 0204
ITRS704;ITASV 0301
ITRS704;ITASV 0302
ITRS704;ITASV 0303
ITRS704;ITASV 0304
ITRS704;ITASV 0401
ITRS704;ITASV 0402
ITRS704;ITASV 0403
ITRS704;ITASV 0404
ITRS704;ITASV 0405
ITRS704;ITASV 0406
ITRS704;ITASV 0407
ITRS704;ITASV 0408
ITRS707;ITACO 0103
ITRS707;ITALC 0101
ITRS707;ITALC 0102
ITRS707;ITALC 0103
ITRS707;ITALC 0104
ITRS707;ITALC 0105
ITRS707;ITAMB 0501
ITRS707;ITAMB 0502
ITRS707;ITAMB 0601
ITRS707;ITAMB 0602
ITRS707;ITAMB 0603
ITRS707;ITAMB 0604
ITRS707;ITAMB 0605
ITRS707;ITAMB 0701
ITRS707;ITAMB 0702
ITRS707;ITAMB 0703
ITRS707;ITAMB 0704
ITRS707;ITAMB 0705
ITRS707;ITAMI 1001
ITRS707;ITAMI 1002
ITRS707;ITAMI 1003
ITRS707;ITAMI 1006
ITRS707;ITAMI 1007
ITRS707;ITAMI 1101
ITRS707;ITAMI 1102
ITRS707;ITAMI 1104
ITRS707;ITAMI 1105
ITRS707;ITAMI 1201
ITRS707;ITAMI 1202
ITRS707;ITAMI 1203
ITRS707;ITAMI 3901
ITRS707;ITAMI 3902
ITRS707;ITAMI 3903
ITRS707;ITAMI 3904
ITRS707;ITAVA 0101
ITRS707;ITAVA 0102
ITRS707;ITAVA 0201
ITRS707;ITAVA 0202
ITRS707;ITAVA 0203
ITRS707;ITAVA 0301
ITRS707;ITAVA 0302
ITRS707;ITAVA 0303
ITRS707;ITAVA 0304
ITRS707;ITAVA 0305
ITRS707;ITAVA 0306
ITRS707;ITAVA 0307
ITRS707;ITAVA 0308
ITRS707;ITAVA 0401
ITRS707;ITAVA 0402
ITRS707;ITAVA 0501
ITRS707;ITAVA 0502
ITRS707;ITAVA 0601
ITRS707;ITAVA 0602
ITRS707;ITAVA 0603
ITRS707;ITAVA 0604
ITRS707;ITAVA 0605
ITRS707;ITAVA 0606
ITRS707;ITAVA 0607
ITRS707;ITAVA 0701
ITRS707;ITAVA 0702
ITRS707;ITAVA 0801
ITRS707;ITAVA 0802
ITRS707;ITAVA 0803
ITRS707;ITAVA 0804
ITRS707;ITAVA 0805
ITRS707;ITAVA 0806
ITRS707;ITAVA 1001
ITRS707;ITAVA 1002
ITRS708;ITAMB 0801
ITRS708;ITAMB 0802
ITRS708;ITAMB 0803
ITRS708;ITAMB 0804
ITRS708;ITAMB 0805
ITRS708;ITAMB 0806
ITRS708;ITAMB 0807
ITRS708;ITAMB 0808
ITRS708;ITAMB 0809
ITRS708;ITAMI 0901
ITRS708;ITAMI 0902
ITRS708;ITAMI 0903
ITRS708;ITAMI 0904
ITRS708;ITAMI 0905
ITRS708;ITAMI 2001
ITRS708;ITAMI 2002
ITRS708;ITAMI 2003
ITRS708;ITAMI 2004
ITRS708;ITAMI 2005
ITRS708;ITAMI 2006
ITRS708;ITAMI 2007
ITRS708;ITAMI 2008
ITRS708;ITAMI 2009
ITRS708;ITAMI 2010
ITRS708;ITAMI 2011
ITRS708;ITAMI 2012
ITRS708;ITAMI 2013
ITRS708;ITAMI 2101
ITRS708;ITAMI 2102
ITRS708;ITAMI 2103
ITRS708;ITAMI 2104
ITRS708;ITAMI 2105
ITRS708;ITAMI 2201
ITRS708;ITAMI 2202
ITRS708;ITAMI 2203
ITRS708;ITAMI 2204
ITRS708;ITAMI 2205
ITRS708;ITAMI 2206
ITRS708;ITAMI 2502
ITRS708;ITAMI 2601
ITRS708;ITAMI 2602
ITRS708;ITAMI 2701
ITRS708;ITAMI 2702
ITRS708;ITAMI 2801
ITRS708;ITAMI 2802
ITRS708;ITAMI 2901
ITRS708;ITAMI 2902
ITRS708;ITAMI 2903
ITRS708;ITAMI 2904
ITRS708;ITAMI 3001
ITRS708;ITAMI 3002
ITRS708;ITAMI 3003
ITRS708;ITAMI 3004
ITRS708;ITAMI 3101
ITRS708;ITAMI 3102
ITRS708;ITAMI 3201
ITRS709;ITAMI 1301
ITRS709;ITAMI 1302
ITRS709;ITAMI 1401
ITRS709;ITAMI 1402
ITRS709;ITAMI 1501
ITRS709;ITAMI 1502
ITRS709;ITAMI 1601
ITRS709;ITAMI 1602
ITRS709;ITAMI 1603
ITRS709;ITAMI 1604
ITRS709;ITAMI 1701
ITRS709;ITAMI 1702
ITRS709;ITAMI 1703
ITRS709;ITAMI 1801
ITRS709;ITAMI 1802
ITRS709;ITAMI 1803
ITRS709;ITAMI 1804
ITRS709;ITAMI 2506
ITRS709;ITAMI 3601
ITRS709;ITAMI 3602
ITRS709;ITAMI 3603
ITRS709;ITAMI 3604
ITRS709;ITAMI 3701
ITRS709;ITAMI 3702
ITRS709;ITAMI 3801
ITRS709;ITAMI 3802
ITRS709;ITAMI 3803
ITRS709;ITAMI 3804
ITRS709;ITAPV 0101
ITRS709;ITAPV 0102
ITRS709;ITAPV 0103
ITRS709;ITAPV 0104
ITRS709;ITAPV 0105
ITRS709;ITAPV 0106
ITRS709;ITAPV 0107
ITRS709;ITAPV 0201
ITRS709;ITAPV 0202
ITRS709;ITAPV 0203
ITRS709;ITAPV 0204
ITRS709;ITAPV 0205
ITRS709;ITAPV 0206
ITRS709;ITAPV 0207
ITRS709;ITAPV 0208
ITRS709;ITAPV 0209
ITRS709;ITAPV 0210
ITRS709;ITAPV 0211
ITRS709;ITAPV 0212
ITRS709;ITAPV 0301
ITRS709;ITAPV 0302
ITRS709;ITAPV 0303
ITRS709;ITAPV 0304
ITRS709;ITAPV 0305
ITRS709;ITAPV 0306
ITRS709;ITAPV 0307
ITRS709;ITAPV 0308
ITRS709;ITAPV 0309
ITRS709;ITAPV 0310
ITRS710;ITACR 0301
ITRS710;ITALO 0101
ITRS710;ITALO 0102
ITRS710;ITALO 0103
ITRS710;ITALO 0104
ITRS710;ITALO 0105
ITRS710;ITALO 0201
ITRS710;ITALO 0202
ITRS710;ITALO 0301
ITRS710;ITALO 0302
ITRS710;ITALO 0303
ITRS710;ITALO 0304
ITRS710;ITAMI 0101
ITRS710;ITAMI 0102
ITRS710;ITAMI 0103
ITRS710;ITAMI 0104
ITRS710;ITAMI 0105
ITRS710;ITAMI 0201
ITRS710;ITAMI 0202
ITRS710;ITAMI 0203
ITRS710;ITAMI 0301
ITRS710;ITAMI 0302
ITRS710;ITAMI 0303
ITRS710;ITAMI 1901
ITRS710;ITAMI 1902
ITRS710;ITAMI 1903
ITRS710;ITAMI 2301
ITRS710;ITAMI 2302
ITRS710;ITAMI 2303
ITRS710;ITAMI 2304
ITRS710;ITAMI 2401
ITRS710;ITAMI 2402
ITRS710;ITAMI 2403
ITRS710;ITAMI 2404
ITRS710;ITAMI 3301
ITRS710;ITAMI 3302
ITRS710;ITAMI 3303
ITRS710;ITAMI 3401
ITRS710;ITAMI 3402
ITRS710;ITAMI 3501
ITRS710;ITAMI 3502
ITRS710;ITAMI 4001
ITRS710;ITAMI 4002
ITRS710;ITAPV 0108
ITRS710;ITAPV 0109
ITRS710;ITAPV 0110
ITRS710;ITAPV 0111
ITRS712;ITABG 0101
ITRS712;ITABG 0102
ITRS712;ITABG 0103
ITRS712;ITABG 0201
ITRS712;ITABG 0202
ITRS712;ITABG 0203
ITRS712;ITABG 0204
ITRS712;ITABG 0301
ITRS712;ITABG 0302
ITRS712;ITABG 0401
ITRS712;ITABG 0402
ITRS712;ITABG 0403
ITRS712;ITABG 0404
ITRS712;ITABG 0405
ITRS712;ITABG 0406
ITRS712;ITABG 0501
ITRS712;ITABG 0502
ITRS712;ITABG 0503
ITRS712;ITABG 0504
ITRS712;ITABG 0505
ITRS712;ITABG 0506
ITRS712;ITABG 0507
ITRS712;ITABG 0508
ITRS712;ITABG 0509
ITRS712;ITABG 0510
ITRS712;ITABG 0511
ITRS712;ITABG 0801
ITRS712;ITABG 0802
ITRS712;ITABG 0803
ITRS712;ITABG 0804
ITRS712;ITABG 0805
ITRS712;ITABG 0901
ITRS712;ITABG 0902
ITRS712;ITABG 0903
ITRS712;ITABS 0201
ITRS712;ITABS 0501
ITRS712;ITABS 0502
ITRS712;ITABS 0503
ITRS712;ITABS 0504
ITRS712;ITABS 0505
ITRS712;ITABS 0801
ITRS712;ITABS 0802
ITRS712;ITABS 0803
ITRS712;ITABS 0804
ITRS712;ITABS 0901
ITRS712;ITABS 0902
ITRS712;ITABS 0903
ITRS712;ITABS 1001
ITRS712;ITABS 1002
ITRS712;ITABS 1003
ITRS712;ITABS 1004
ITRS712;ITABS 1201
ITRS712;ITABS 1202
ITRS712;ITABS 1203
ITRS712;ITABS 1204
ITRS712;ITABS 1205
ITRS712;ITABS 1301
ITRS712;ITABS 1302
ITRS712;ITABS 1303
ITRS712;ITABS 1304
ITRS712;ITABS 1305
ITRS712;ITALC 0201
ITRS712;ITALC 0202
ITRS712;ITALC 0203
ITRS712;ITALC 0204
ITRS712;ITALC 0205
ITRS712;ITALC 0206
ITRS712;ITALC 0207
ITRS712;ITALC 0208
ITRS712;ITALC 0301
ITRS712;ITALC 0302
ITRS712;ITALC 0303
ITRS712;ITAMB 0401
ITRS712;ITAMB 0402
ITRS712;ITAMB 0403
ITRS712;ITAMB 0404
ITRS712;ITAMB 0405
ITRS714;ITABS 0601
ITRS714;ITABS 0602
ITRS714;ITABS 0603
ITRS714;ITABS 0604
ITRS714;ITABS 0701
ITRS714;ITABS 0702
ITRS714;ITABS 0703
ITRS714;ITABS 0704
ITRS714;ITABS 0705
ITRS714;ITABS 1101
ITRS714;ITABS 1102
ITRS714;ITABS 1103
ITRS714;ITACR 0101
ITRS714;ITACR 0102
ITRS714;ITACR 0103
ITRS714;ITACR 0104
ITRS714;ITACR 0105
ITRS714;ITACR 0106
ITRS714;ITACR 0107
ITRS714;ITACR 0108
ITRS714;ITACR 0109
ITRS714;ITACR 0110
ITRS714;ITACR 0111
ITRS714;ITACR 0201
ITRS714;ITACR 0202
ITRS714;ITACR 0302
ITRS714;ITACR 0303
ITRS714;ITACR 0304
ITRS714;ITACR 0305
ITRS714;ITACR 0306
ITRS714;ITACR 0307
ITRS714;ITAMN 0101
ITRS714;ITAMN 0102
ITRS714;ITAMN 0103
ITRS714;ITAMN 0201
ITRS714;ITAMN 0202
ITRS714;ITAMN 0301
ITRS714;ITAMN 0302
ITRS714;ITAMN 0303
ITRS714;ITAMN 0304
ITRS714;ITAMN 0305
ITRS714;ITAMN 0306
ITRS714;ITAMN 0307
ITRS714;ITAMN 0401
ITRS714;ITAMN 0402
ITRS714;ITAMN 0403
ITRS714;ITAMN 0404
ITRS714;ITAMN 0501
ITRS714;ITAMN 0502
ITRS714;ITAMN 0601
ITRS714;ITAMN 0602
ITRS714;ITAMN 0603
ITRS715;ITAPD 0101
ITRS715;ITAPD 0102
ITRS715;ITAPD 0103
ITRS715;ITAPD 0104
ITRS715;ITAPD 0201
ITRS715;ITAPD 0202
ITRS715;ITAPD 0203
ITRS715;ITAPD 0204
ITRS715;ITAPD 0301
ITRS715;ITAPD 0302
ITRS715;ITAPD 0303
ITRS715;ITAPD 0304
ITRS715;ITAPD 0305
ITRS715;ITAPD 0306
ITRS715;ITAPD 0401
ITRS715;ITAPD 0402
ITRS715;ITAPD 0403
ITRS715;ITAPD 0404
ITRS715;ITAPD 0405
ITRS715;ITAPD 0406
ITRS715;ITAPD 0407
ITRS715;ITAPD 0408
ITRS715;ITAPD 0409
ITRS715;ITAPD 0410
ITRS715;ITAPD 0411
ITRS715;ITAPD 0501
ITRS715;ITAPD 0502
ITRS715;ITAPD 0503
ITRS715;ITAPD 0601
ITRS715;ITAPD 0602
ITRS715;ITAPD 0603
ITRS715;ITAPD 0604
ITRS715;ITAPD 0605
ITRS715;ITAPD 0606
ITRS715;ITAPD 0607
ITRS715;ITAPD 0701
ITRS715;ITAPD 0702
ITRS715;ITAPD 0703
ITRS715;ITAPD 0704
ITRS715;ITAVI 0101
ITRS715;ITAVI 0102
ITRS715;ITAVI 0103
ITRS715;ITAVI 0104
ITRS715;ITAVI 0105
ITRS715;ITAVI 0106
ITRS715;ITAVI 0201
ITRS715;ITAVI 0202
ITRS715;ITAVI 0203
ITRS715;ITAVI 0204
ITRS715;ITAVI 0205
ITRS715;ITAVI 0206
ITRS715;ITAVI 0207
ITRS715;ITAVI 0208
ITRS715;ITAVI 0301
ITRS715;ITAVI 0302
ITRS715;ITAVI 0401
ITRS715;ITAVI 0402
ITRS715;ITAVI 0403
ITRS715;ITAVI 0404
ITRS715;ITAVI 0405
ITRS715;ITAVI 0501
ITRS715;ITAVI 0502
ITRS715;ITAVI 0601
ITRS715;ITAVI 0602
ITRS715;ITAVI 0603
ITRS715;ITAVI 0604
ITRS715;ITAVI 0605
ITRS715;ITAVI 0701
ITRS715;ITAVI 0801
ITRS715;ITAVI 0802
ITRS715;ITAVI 0803
ITRS715;ITAVI 0804
ITRS715;ITAVI 0805
ITRS715;ITAVI 0806
ITRS717;ITABZ 0101
ITRS717;ITABZ 0102
ITRS717;ITABZ 0103
ITRS717;ITABZ 0104
ITRS717;ITABZ 0105
ITRS717;ITABZ 0106
ITRS717;ITABZ 0107
ITRS717;ITABZ 0108
ITRS717;ITABZ 0109
ITRS717;ITATN 0101
ITRS717;ITATN 0301
ITRS717;ITATN 0401
ITRS717;ITATN 0402
ITRS717;ITATN 0501
ITRS717;ITATN 0502
ITRS717;ITATN 0503
ITRS717;ITATN 0504
ITRS717;ITATN 0505
ITRS717;ITATN 0506
ITRS717;ITATN 0507
ITRS717;ITATN 0601
ITRS717;ITATN 0701
ITRS717;ITATN 0801
ITRS717;ITATN 0802
ITRS717;ITATN 0901
ITRS717;ITATN 1001
ITRS717;ITATN 1002
ITRS717;ITATN 1003
ITRS717;ITATN 1101
ITRS717;ITAVR 0101
ITRS717;ITAVR 0102
ITRS717;ITAVR 0103
ITRS717;ITAVR 0104
ITRS717;ITAVR 0105
ITRS717;ITAVR 0106
ITRS717;ITAVR 0201
ITRS717;ITAVR 0202
ITRS717;ITAVR 0203
ITRS717;ITAVR 0204
ITRS717;ITAVR 0205
ITRS717;ITAVR 0206
ITRS717;ITAVR 0207
ITRS717;ITAVR 0208
ITRS717;ITAVR 0209
ITRS717;ITAVR 0210
ITRS717;ITAVR 0211
ITRS717;ITAVR 0212
ITRS717;ITAVR 0213
ITRS717;ITAVR 0214
ITRS717;ITAVR 0215
ITRS717;ITAVR 0216
ITRS717;ITAVR 0301
ITRS717;ITAVR 0302
ITRS717;ITAVR 0303
ITRS717;ITAVR 0304
ITRS717;ITAVR 0305
ITRS717;ITAVR 0306
ITRS717;ITAVR 0307
ITRS717;ITAVR 0401
ITRS717;ITAVR 0402
ITRS717;ITAVR 0501
ITRS717;ITAVR 0502
ITRS717;ITAVR 0503
ITRS717;ITAVR 0505
ITRS717;ITAVR 0506
ITRS717;ITAVR 0601
ITRS717;ITAVR 0602
ITRS717;ITAVR 0603
ITRS719;ITABO 0701
ITRS719;ITAMO 0101
ITRS719;ITAMO 0201
ITRS719;ITAMO 0202
ITRS719;ITAMO 0203
ITRS719;ITAMO 0301
ITRS719;ITAMO 0302
ITRS719;ITAMO 0303
ITRS719;ITAMO 0304
ITRS719;ITAMO 0305
ITRS719;ITAMO 0306
ITRS719;ITAMO 0307
ITRS719;ITAMO 0308
ITRS719;ITAMO 0309
ITRS719;ITAMO 0310
ITRS719;ITAMO 0311
ITRS719;ITAPC 0101
ITRS719;ITAPC 0102
ITRS719;ITAPC 0103
ITRS719;ITAPC 0201
ITRS719;ITAPC 0202
ITRS719;ITAPC 0203
ITRS719;ITAPC 0204
ITRS719;ITAPC 0301
ITRS719;ITAPC 0302
ITRS719;ITAPC 0303
ITRS719;ITAPC 0304
ITRS719;ITAPC 0401
ITRS719;ITAPC 0402
ITRS719;ITAPC 0403
ITRS719;ITAPC 0404
ITRS719;ITAPR 0101
ITRS719;ITAPR 0102
ITRS719;ITAPR 0103
ITRS719;ITAPR 0104
ITRS719;ITAPR 0105
ITRS719;ITAPR 0106
ITRS719;ITAPR 0107
ITRS719;ITAPR 0108
ITRS719;ITAPR 0109
ITRS719;ITAPR 0110
ITRS719;ITAPR 0111
ITRS719;ITAPR 0201
ITRS719;ITAPR 0202
ITRS719;ITAPR 0203
ITRS719;ITAPR 0204
ITRS719;ITAPR 0205
ITRS719;ITAPR 0301
ITRS719;ITAPR 0302
ITRS719;ITAPR 0303
ITRS719;ITAPR 0304
ITRS719;ITAPR 0401
ITRS719;ITAPR 0402
ITRS719;ITARE 0101
ITRS719;ITARE 0102
ITRS719;ITARE 0201
ITRS719;ITARE 0202
ITRS719;ITARE 0203
ITRS719;ITARE 0204
ITRS719;ITARE 0205
ITRS719;ITARE 0206
ITRS719;ITARE 0207
ITRS719;ITARE 0208
ITRS719;ITARE 0301
ITRS719;ITARE 0302
ITRS719;ITARE 0303
ITRS719;ITARE 0401
ITRS719;ITARE 0501
ITRS719;ITARE 0502
ITRS719;ITARE 0601
ITRS719;ITARE 0602
ITRS719;ITARE 0603
ITRS720;ITABO 0101
ITRS720;ITABO 0102
ITRS720;ITABO 0103
ITRS720;ITABO 0104
ITRS720;ITABO 0201
ITRS720;ITABO 0202
ITRS720;ITABO 0203
ITRS720;ITABO 0204
ITRS720;ITABO 0301
ITRS720;ITABO 0302
ITRS720;ITABO 0501
ITRS720;ITABO 0502
ITRS720;ITABO 0601
ITRS720;ITABO 0602
ITRS720;ITABO 0801
ITRS720;ITABO 0802
ITRS720;ITABO 0803
ITRS720;ITABO 0804
ITRS720;ITABO 0805
ITRS720;ITABO 0806
ITRS720;ITABO 0901
ITRS720;ITABO 0902
ITRS720;ITABO 0903
ITRS720;ITABO 0904
ITRS720;ITABO 0905
ITRS720;ITABO 0906
ITRS720;ITABO 0907
ITRS720;ITABO 0908
ITRS720;ITABO 0909
ITRS720;ITABO 1001
ITRS720;ITABO 1002
ITRS720;ITABO 1003
ITRS720;ITABO 1004
ITRS720;ITABO 1005
ITRS720;ITABO 1006
ITRS720;ITABO 1101
ITRS720;ITABO 1102
ITRS720;ITABO 1103
ITRS720;ITAFE 0101
ITRS720;ITAFE 0201
ITRS720;ITAFE 0202
ITRS720;ITAFE 0203
ITRS720;ITAFE 0204
ITRS720;ITAFE 0205
ITRS720;ITAFE 0206
ITRS720;ITAFE 0207
ITRS720;ITAFE 0208
ITRS720;ITAFE 0209
ITRS720;ITAFE 0301
ITRS720;ITAFE 0302
ITRS720;ITAFE 0401
ITRS720;ITAFE 0402
ITRS720;ITAFE 0403
ITRS720;ITAFE 0404
ITRS720;ITAFE 0501
ITRS720;ITAFE 0502
ITRS720;ITAFE 0503
ITRS720;ITAMO 0401
ITRS720;ITAMO 0402
ITRS720;ITAMO 0501
ITRS720;ITAMO 0502
ITRS720;ITAMO 0601
ITRS720;ITAMO 0602
ITRS721;ITABO 0401
ITRS721;ITABO 0402
ITRS721;ITABO 0403
ITRS721;ITAFC 0101
ITRS721;ITAFC 0102
ITRS721;ITAFC 0103
ITRS721;ITAFC 0104
ITRS721;ITAFC 0105
ITRS721;ITAFC 0106
ITRS721;ITAFC 0107
ITRS721;ITAFC 0108
ITRS721;ITAFC 0109
ITRS721;ITAFC 0201
ITRS721;ITAFC 0202
ITRS721;ITAFC 0203
ITRS721;ITAFC 0204
ITRS721;ITAFC 0205
ITRS721;ITAFC 0206
ITRS721;ITAFC 0207
ITRS721;ITAFC 0208
ITRS721;ITAFC 0209
ITRS721;ITAPU 0201
ITRS721;ITAPU 0202
ITRS721;ITAPU 0203
ITRS721;ITAPU 0301
ITRS721;ITAPU 0302
ITRS721;ITAPU 0303
ITRS721;ITAPU 0304
ITRS721;ITAPU 0305
ITRS721;ITAPU 0306
ITRS721;ITAPU 0401
ITRS721;ITAPU 0402
ITRS721;ITAPU 0501
ITRS721;ITAPU 0502
ITRS721;ITAPU 0601
ITRS721;ITAPU 0602
ITRS721;ITAPU 0603
ITRS721;ITAPU 0701
ITRS721;ITAPU 0702
ITRS721;ITARA 0101
ITRS721;ITARA 0102
ITRS721;ITARA 0103
ITRS721;ITARA 0104
ITRS721;ITARA 0105
ITRS721;ITARA 0106
ITRS721;ITARA 0107
ITRS721;ITARA 0108
ITRS721;ITARA 0109
ITRS721;ITARA 0201
ITRS721;ITARA 0202
ITRS721;ITARA 0203
ITRS721;ITARA 0204
ITRS721;ITARA 0301
ITRS721;ITARA 0302
ITRS721;ITARA 0303
ITRS721;ITARA 0304
ITRS721;ITARN 0101
ITRS721;ITARN 0102
ITRS721;ITARN 0103
ITRS721;ITARN 0104
ITRS721;ITARN 0105
ITRS721;ITARN 0106
ITRS721;ITARN 0107
ITRS721;ITARN 0108
ITRS721;ITARN 0201
ITRS721;ITARN 0202
ITRS721;ITARN 0203
ITRS721;ITARN 0204
ITRS721;ITARN 0205
ITRS721;ITARN 0301
ITRS721;ITARN 0302
ITRS722;ITAAR 0101
ITRS722;ITAAR 0102
ITRS722;ITAAR 0103
ITRS722;ITAAR 0104
ITRS722;ITAAR 0301
ITRS722;ITAAR 0302
ITRS722;ITAAR 0401
ITRS722;ITAAR 0402
ITRS722;ITAAR 0403
ITRS722;ITAAR 0404
ITRS722;ITAAR 0405
ITRS722;ITAAR 0406
ITRS722;ITAAR 0501
ITRS722;ITAAR 0502
ITRS722;ITAFI 0301
ITRS722;ITAFI 0302
ITRS722;ITAFI 0401
ITRS722;ITAFI 0402
ITRS722;ITAFI 0403
ITRS722;ITAFI 0601
ITRS722;ITAFI 0602
ITRS722;ITAFI 0603
ITRS722;ITAFI 0701
ITRS722;ITAFI 0702
ITRS722;ITAFI 0703
ITRS722;ITAFI 0704
ITRS722;ITAFI 0705
ITRS722;ITALU 0101
ITRS722;ITALU 0102
ITRS722;ITALU 0103
ITRS722;ITALU 0201
ITRS722;ITALU 0202
ITRS722;ITALU 0301
ITRS722;ITALU 0302
ITRS722;ITALU 0401
ITRS722;ITALU 0402
ITRS722;ITALU 0403
ITRS722;ITALU 0404
ITRS722;ITALU 0405
ITRS722;ITALU 0406
ITRS722;ITALU 0501
ITRS722;ITALU 0502
ITRS722;ITALU 0503
ITRS722;ITALU 0504
ITRS722;ITAMS 0101
ITRS722;ITAMS 0102
ITRS722;ITAMS 0103
ITRS722;ITAMS 0104
ITRS722;ITAMS 0201
ITRS722;ITAMS 0202
ITRS722;ITAMS 0203
ITRS722;ITAMS 0204
ITRS722;ITAMS 0205
ITRS722;ITAMS 0206
ITRS722;ITAMS 0207
ITRS722;ITAPO 0101
ITRS722;ITAPO 0102
ITRS722;ITAPO 0201
ITRS722;ITAPO 0202
ITRS722;ITAPO 0203
ITRS722;ITAPO 0301
ITRS722;ITAPO 0302
ITRS722;ITAPT 0101
ITRS722;ITAPT 0102
ITRS722;ITAPT 0103
ITRS722;ITAPT 0104
ITRS722;ITAPT 0201
ITRS722;ITAPT 0202
ITRS722;ITAPT 0203
ITRS722;ITAPT 0301
ITRS722;ITAPT 0302
ITRS722;ITAPT 0303
ITRS722;ITAPT 0304
ITRS722;ITAPT 0305
ITRS723;ITAFI 1001
ITRS723;ITAFI 1002
ITRS723;ITAFI 1003
ITRS723;ITAFI 1004
ITRS723;ITAFI 1005
ITRS723;ITAFI 1006
ITRS723;ITAGR 0101
ITRS723;ITAGR 0102
ITRS723;ITAGR 0201
ITRS723;ITAGR 0202
ITRS723;ITAGR 0203
ITRS723;ITAGR 0204
ITRS723;ITAGR 0205
ITRS723;ITAGR 0301
ITRS723;ITAGR 0302
ITRS723;ITAGR 0303
ITRS723;ITAGR 0402
ITRS723;ITALI 0101
ITRS723;ITALI 0102
ITRS723;ITALI 0103
ITRS723;ITALI 0201
ITRS723;ITALI 0202
ITRS723;ITALI 0203
ITRS723;ITALI 0204
ITRS723;ITALI 0301
ITRS723;ITALI 0302
ITRS723;ITALI 0303
ITRS723;ITALI 0401
ITRS723;ITALI 0402
ITRS723;ITALI 0501
ITRS723;ITALI 0502
ITRS723;ITALI 0503
ITRS723;ITALI 0601
ITRS723;ITALI 0602
ITRS723;ITALI 0603
ITRS723;ITAPI 0101
ITRS723;ITAPI 0102
ITRS723;ITAPI 0103
ITRS723;ITAPI 0104
ITRS723;ITAPI 0105
ITRS723;ITAPI 0106
ITRS723;ITAPI 0107
ITRS723;ITAPI 0108
ITRS723;ITAPI 0201
ITRS723;ITAPI 0202
ITRS723;ITAPI 0301
ITRS723;ITAPI 0302
ITRS723;ITAPI 0303
ITRS723;ITAPI 0304
ITRS723;ITAPI 0305
ITRS723;ITAPI 0401
ITRS723;ITAPI 0402
ITRS723;ITAPI 0404
ITRS725;ITAAN 0101
ITRS725;ITAAN 0102
ITRS725;ITAAN 0103
ITRS725;ITAAN 0104
ITRS725;ITAAN 0201
ITRS725;ITAAN 0202
ITRS725;ITAAN 0301
ITRS725;ITAAN 0302
ITRS725;ITAAN 0303
ITRS725;ITAAN 0304
ITRS725;ITAAN 0305
ITRS725;ITAAN 0306
ITRS725;ITAAN 0401
ITRS725;ITAAN 0402
ITRS725;ITAAN 0403
ITRS725;ITAAN 0501
ITRS725;ITAAN 0502
ITRS725;ITAAN 0503
ITRS725;ITAAN 0504
ITRS725;ITAAN 0505
ITRS725;ITAAN 0506
ITRS725;ITAAN 0601
ITRS725;ITAAP 0301
ITRS725;ITAAP 0302
ITRS725;ITAAP 0303
ITRS725;ITAAP 0304
ITRS725;ITAAP 0305
ITRS725;ITAAP 0501
ITRS725;ITAAP 0502
ITRS725;ITAAP 0503
ITRS725;ITAAP 0504
ITRS725;ITAAP 0505
ITRS725;ITAFM 0101
ITRS725;ITAFM 0102
ITRS725;ITAFM 0103
ITRS725;ITAFM 0201
ITRS725;ITAFM 0202
ITRS725;ITAFM 0203
ITRS725;ITAFM 0204
ITRS725;ITAFM 0205
ITRS725;ITAFM 0401
ITRS725;ITAFM 0402
ITRS725;ITAMC 0101
ITRS725;ITAMC 0102
ITRS725;ITAMC 0201
ITRS725;ITAMC 0202
ITRS725;ITAMC 0203
ITRS725;ITAMC 0204
ITRS725;ITAMC 0301
ITRS725;ITAMC 0302
ITRS725;ITAMC 0303
ITRS725;ITAMC 0401
ITRS725;ITAMC 0501
ITRS725;ITAMC 0502
ITRS725;ITAMC 0503
ITRS725;ITAMC 0601
ITRS725;ITAMC 0602
ITRS728;ITARM 0101
ITRS728;ITARM 0103
ITRS728;ITARM 0104
ITRS728;ITARM 0105
ITRS728;ITARM 0106
ITRS728;ITARM 0108
ITRS728;ITARM 0109
ITRS728;ITARM 0110
ITRS728;ITARM 0111
ITRS728;ITARM 0112
ITRS728;ITARM 0114
ITRS728;ITARM 0115
ITRS728;ITARM 0201
ITRS728;ITARM 0202
ITRS728;ITARM 0203
ITRS728;ITARM 0204
ITRS728;ITARM 0205
ITRS728;ITARM 0206
ITRS728;ITARM 0207
ITRS728;ITARM 0208
ITRS728;ITARM 0209
ITRS728;ITARM 0401
ITRS728;ITARM 0402
ITRS728;ITARM 0403
ITRS728;ITARM 0404
ITRS728;ITARM 0405
ITRS728;ITARM 0406
ITRS728;ITARM 0407
ITRS728;ITARM 0408
ITRS728;ITARM 0409
ITRS728;ITARM 1301
ITRS728;ITARM 1302
ITRS728;ITARM 1303
ITRS728;ITARM 1304
ITRS728;ITARM 1305
ITRS728;ITARM 1401
ITRS728;ITARM 1601
ITRS728;ITARM 1602
ITRS728;ITARM 1603
ITRS728;ITARM 1604
ITRS728;ITARM 1605
ITRS728;ITARM 1606
ITRS728;ITARM 1607
ITRS728;ITARM 1801
ITRS728;ITARM 1802
ITRS728;ITARM 1803
ITRS728;ITARM 1804
ITRS728;ITARM 1805
ITRS728;ITARM 3301
ITRS729;ITALT 0101
ITRS729;ITALT 0201
ITRS729;ITALT 0301
ITRS729;ITALT 0302
ITRS729;ITALT 0303
ITRS729;ITALT 0304
ITRS729;ITALT 0305
ITRS729;ITALT 0401
ITRS729;ITALT 0402
ITRS729;ITALT 0403
ITRS729;ITALT 0501
ITRS729;ITALT 0502
ITRS729;ITALT 0601
ITRS729;ITALT 0602
ITRS729;ITALT 0603
ITRS729;ITARM 1101
ITRS729;ITARM 1102
ITRS729;ITARM 1103
ITRS729;ITARM 1104
ITRS729;ITARM 1105
ITRS729;ITARM 1106
ITRS729;ITARM 1201
ITRS729;ITARM 1202
ITRS729;ITARM 1203
ITRS729;ITARM 1204
ITRS729;ITARM 1205
ITRS729;ITARM 1501
ITRS729;ITARM 1502
ITRS729;ITARM 1503
ITRS729;ITARM 1504
ITRS729;ITARM 1505
ITRS729;ITARM 1506
ITRS729;ITARM 1701
ITRS729;ITARM 1702
ITRS729;ITARM 1703
ITRS729;ITARM 1704
ITRS729;ITARM 1705
ITRS729;ITARM 1706
ITRS729;ITARM 1707
ITRS729;ITARM 1907
ITRS729;ITARM 3401
ITRS729;ITARM 3402
ITRS729;ITARM 3501
ITRS729;ITARM 3502
ITRS730;ITARM 0301
ITRS730;ITARM 0302
ITRS730;ITARM 0303
ITRS730;ITARM 0304
ITRS730;ITARM 0501
ITRS730;ITARM 0502
ITRS730;ITARM 0503
ITRS730;ITARM 0504
ITRS730;ITARM 0505
ITRS730;ITARM 0506
ITRS730;ITARM 0507
ITRS730;ITARM 0508
ITRS730;ITARM 0601
ITRS730;ITARM 0602
ITRS730;ITARM 0603
ITRS730;ITARM 0604
ITRS730;ITARM 0605
ITRS730;ITARM 0606
ITRS730;ITARM 0607
ITRS730;ITARM 0608
ITRS730;ITARM 0701
ITRS730;ITARM 0702
ITRS730;ITARM 0703
ITRS730;ITARM 0704
ITRS730;ITARM 0705
ITRS730;ITARM 0706
ITRS730;ITARM 2401
ITRS730;ITARM 2402
ITRS730;ITARM 2501
ITRS730;ITARM 2502
ITRS730;ITARM 2601
ITRS730;ITARM 2602
ITRS730;ITARM 2701
ITRS730;ITARM 2702
ITRS730;ITARM 2703
ITRS730;ITARM 2704
ITRS730;ITARM 2705
ITRS731;ITAFR 0101
ITRS731;ITAFR 0102
ITRS731;ITAFR 0201
ITRS731;ITAFR 0202
ITRS731;ITAFR 0301
ITRS731;ITAFR 0401
ITRS731;ITAFR 0402
ITRS731;ITAFR 0403
ITRS731;ITAFR 0404
ITRS731;ITAFR 0501
ITRS731;ITAFR 0502
ITRS731;ITAFR 0601
ITRS731;ITAFR 0701
ITRS731;ITAFR 0702
ITRS731;ITAFR 0703
ITRS731;ITAFR 0704
ITRS731;ITAFR 0705
ITRS731;ITAFR 0801
ITRS731;ITAFR 0802
ITRS731;ITAFR 0901
ITRS731;ITAFR 0902
ITRS731;ITAFR 1001
ITRS731;ITAFR 1002
ITRS731;ITAFR 1003
ITRS731;ITAFR 1004
ITRS731;ITARM 0102
ITRS731;ITARM 0107
ITRS731;ITARM 0113
ITRS731;ITARM 0801
ITRS731;ITARM 0802
ITRS731;ITARM 0803
ITRS731;ITARM 0804
ITRS731;ITARM 0805
ITRS731;ITARM 0901
ITRS731;ITARM 0902
ITRS731;ITARM 0903
ITRS731;ITARM 0904
ITRS731;ITARM 0905
ITRS731;ITARM 1001
ITRS731;ITARM 1002
ITRS731;ITARM 1003
ITRS731;ITARM 1004
ITRS731;ITARM 1005
ITRS731;ITARM 1006
ITRS731;ITARM 1007
ITRS731;ITARM 2801
ITRS731;ITARM 2802
ITRS731;ITARM 2901
ITRS731;ITARM 2902
ITRS731;ITARM 2903
ITRS731;ITARM 3001
ITRS731;ITARM 3002
ITRS731;ITARM 3003
ITRS731;ITARM 3101
ITRS731;ITARM 3201
ITRS731;ITARM 3202
ITRS731;ITARM 3601
ITRS731;ITARM 3602
ITRS731;ITARM 3603
ITRS731;ITARM 3604
ITRS733;ITACA 0601
ITRS733;ITACA 0602
ITRS733;ITACA 0603
ITRS733;ITACA 0604
ITRS733;ITACA 0605
ITRS733;ITACA 0606
ITRS733;ITACA 0607
ITRS733;ITACA 0608
ITRS733;ITACA 0701
ITRS733;ITACA 0702
ITRS733;ITACA 0703
ITRS733;ITACA 0704
ITRS733;ITACA 0705
ITRS733;ITACA 0706
ITRS733;ITACA 0707
ITRS733;ITANU 0101
ITRS733;ITANU 0102
ITRS733;ITANU 0201
ITRS733;ITANU 0202
ITRS733;ITANU 0203
ITRS733;ITANU 0204
ITRS733;ITANU 0205
ITRS733;ITANU 0301
ITRS733;ITANU 0302
ITRS733;ITANU 0401
ITRS733;ITANU 0402
ITRS733;ITANU 0403
ITRS733;ITANU 0404
ITRS733;ITANU 0405
ITRS733;ITANU 0501
ITRS733;ITANU 0502
ITRS733;ITAOR 0101
ITRS733;ITAOR 0102
ITRS733;ITAOR 0103
ITRS733;ITAOR 0104
ITRS733;ITAOR 0105
ITRS733;ITAOR 0201
ITRS733;ITAOR 0202
ITRS733;ITAOR 0203
ITRS733;ITAOR 0204
ITRS733;ITAOR 0205
ITRS733;ITAOR 0206
ITRS733;ITAOR 0301
ITRS733;ITAOR 0302
ITRS733;ITAOR 0303
ITRS733;ITASS 0101
ITRS733;ITASS 0102
ITRS733;ITASS 0103
ITRS733;ITASS 0104
ITRS733;ITASS 0105
ITRS733;ITASS 0106
ITRS733;ITASS 0107
ITRS733;ITASS 0108
ITRS733;ITASS 0109
ITRS733;ITASS 0201
ITRS733;ITASS 0202
ITRS733;ITASS 0203
ITRS733;ITASS 0204
ITRS733;ITASS 0205
ITRS733;ITASS 0303
ITRS733;ITASS 0304
ITRS733;ITASS 0401
ITRS733;ITASS 0402
ITRS733;ITASS 0403
ITRS733;ITASS 0404
ITRS733;ITASS 0405
ITRS733;ITASS 0406
ITRS733;ITASS 0502
ITRS733;ITASS 0503
ITRS733;ITASS 0504
ITRS733;ITASU 0101
ITRS733;ITASU 0102
ITRS733;ITASU 0201
ITRS733;ITASU 0202
ITRS733;ITASU 0301
ITRS733;ITASU 0302
ITRS733;ITASU 0303
ITRS733;ITASU 0304
ITRS733;ITASU 0401
ITRS733;ITASU 0402
ITRS733;ITASU 0403
ITRS733;ITASU 0404
ITRS733;ITASU 0501
ITRS733;ITASU 0502
ITRS733;ITASU 0503
ITRS733;ITASU 0504
ITRS733;ITASU 0802
ITRS733;ITASU 0901
ITRS733;ITASU 0902
ITRS733;ITASU 0903
ITRS734;ITACE 0401
ITRS734;ITACE 0402
ITRS734;ITACE 0501
ITRS734;ITACE 0502
ITRS734;ITACE 0503
ITRS734;ITACE 0901
ITRS734;ITACE 1001
ITRS734;ITACE 1002
ITRS734;ITACE 1101
ITRS734;ITACE 1102
ITRS734;ITACE 1103
ITRS734;ITANA 0101
ITRS734;ITANA 0102
ITRS734;ITANA 0201
ITRS734;ITANA 0202
ITRS734;ITANA 0301
ITRS734;ITANA 0302
ITRS734;ITANA 0303
ITRS734;ITANA 0304
ITRS734;ITANA 0401
ITRS734;ITANA 0402
ITRS734;ITANA 0501
ITRS734;ITANA 0502
ITRS734;ITANA 0503
ITRS734;ITANA 0504
ITRS734;ITANA 0601
ITRS734;ITANA 0602
ITRS734;ITANA 0603
ITRS735;ITACE 0101
ITRS735;ITACE 0102
ITRS735;ITACE 0201
ITRS735;ITACE 0202
ITRS735;ITACE 0203
ITRS735;ITANA 1701
ITRS735;ITANA 1702
ITRS735;ITANA 1703
ITRS735;ITANA 1704
ITRS735;ITANA 1705
ITRS735;ITANA 1706
ITRS735;ITANA 1707
ITRS735;ITANA 1708
ITRS735;ITANA 1709
ITRS735;ITANA 1710
ITRS735;ITANA 1711
ITRS735;ITANA 1801
ITRS735;ITANA 1802
ITRS735;ITANA 1803
ITRS735;ITANA 1901
ITRS735;ITANA 1902
ITRS735;ITANA 2001
ITRS735;ITANA 2002
ITRS735;ITANA 2003
ITRS735;ITANA 2004
ITRS735;ITANA 2005
ITRS735;ITANA 2006
ITRS735;ITANA 2007
ITRS735;ITANA 2101
ITRS735;ITANA 2201
ITRS735;ITANA 2202
ITRS735;ITANA 2203
ITRS735;ITANA 2204
ITRS735;ITANA 2205
ITRS735;ITANA 2206
ITRS735;ITANA 2301
ITRS735;ITANA 2302
ITRS735;ITANA 2303
ITRS735;ITANA 2304
ITRS735;ITANA 2305
ITRS735;ITANA 2401
ITRS735;ITANA 2402
ITRS735;ITANA 2403
ITRS735;ITANA 2404
ITRS735;ITANA 2405
ITRS735;ITANA 2406
ITRS735;ITANA 2407
ITRS735;ITANA 2408
ITRS735;ITANA 2409
ITRS735;ITANA 2501
ITRS735;ITANA 2502
ITRS735;ITANA 2503
ITRS735;ITANA 2504
ITRS735;ITANA 2601
ITRS735;ITANA 2602
ITRS735;ITANA 2603
ITRS735;ITANA 2604
ITRS735;ITANA 2605
ITRS735;ITANA 2606
ITRS735;ITANA 2607
ITRS735;ITANA 2608
ITRS740;ITABA 0701
ITRS740;ITABA 0702
ITRS740;ITABA 0703
ITRS740;ITABA 0903
ITRS740;ITABA 1101
ITRS740;ITABA 1102
ITRS740;ITABA 1103
ITRS740;ITABA 1104
ITRS740;ITABA 1105
ITRS740;ITABA 1106
ITRS740;ITABA 1107
ITRS740;ITABA 1601
ITRS740;ITABA 1701
ITRS740;ITABA 1702
ITRS740;ITABR 0101
ITRS740;ITATA 0101
ITRS740;ITATA 0102
ITRS742;ITABA 1301
ITRS742;ITABA 1302
ITRS742;ITABA 1401
ITRS742;ITABA 1402
ITRS742;ITABA 1501
ITRS742;ITABA 1502
ITRS742;ITABA 1801
ITRS742;ITABA 1802
ITRS742;ITATA 0201
ITRS742;ITATA 0202
ITRS742;ITATA 0301
ITRS742;ITATA 0401
ITRS742;ITATA 0402
ITRS742;ITATA 0501
ITRS742;ITATA 0502
ITRS742;ITATA 0503
ITRS742;ITATA 0504
ITRS742;ITATA 0505
ITRS742;ITATA 0506
ITRS742;ITATA 0507
ITRS742;ITATA 0508
ITRS742;ITATA 0509
ITRS742;ITATA 0601
ITRS742;ITATA 0602
ITRS742;ITATA 0603
ITRS742;ITATA 0701
ITRS742;ITATA 0702
ITRS742;ITATA 0703
ITRS747;ITAAG 0101
ITRS747;ITAAG 0102
ITRS747;ITAAG 0103
ITRS747;ITAAG 0201
ITRS747;ITAAG 0301
ITRS747;ITAAG 0401
ITRS747;ITAAG 0501
ITRS747;ITAAG 0502
ITRS747;ITAAG 0503
ITRS747;ITAAG 0504
ITRS747;ITAAG 0505
ITRS747;ITAAG 0506
ITRS747;ITAAG 0601
ITRS747;ITAAG 0602
ITRS747;ITAAG 0603
ITRS747;ITAAG 0604
ITRS747;ITAAG 0701
ITRS747;ITAAG 0702
ITRS747;ITAAG 0703
ITRS747;ITACL 0101
ITRS747;ITACL 0102
ITRS747;ITACL 0201
ITRS747;ITACL 0301
ITRS747;ITACL 0302
ITRS747;ITACL 0303
ITRS747;ITACL 0304
ITRS747;ITACL 0305
ITRS747;ITAPA 0101
ITRS747;ITAPA 0102
ITRS747;ITAPA 0201
ITRS747;ITAPA 0202
ITRS747;ITAPA 0203
ITRS747;ITAPA 0301
ITRS747;ITAPA 0302
ITRS747;ITAPA 0303
ITRS747;ITAPA 0401
ITRS747;ITAPA 0402
ITRS747;ITAPA 0501
ITRS747;ITAPA 0502
ITRS747;ITAPA 0601
ITRS747;ITAPA 0602
ITRS747;ITAPA 0701
ITRS747;ITAPA 0702
ITRS747;ITAPA 0703
ITRS747;ITAPA 0801
ITRS747;ITAPA 0901
ITRS747;ITAPA 0902
ITRS747;ITAPA 1001
ITRS747;ITAPA 1002
ITRS747;ITAPA 1004
ITRS747;ITAPA 1005
ITRS747;ITAPA 1006
ITRS747;ITAPA 1007
ITRS747;ITAPA 1101
ITRS747;ITAPA 1102
ITRS747;ITAPA 1103
ITRS747;ITAPA 1104
ITRS747;ITAPA 1105
ITRS747;ITAPA 1106
ITRS747;ITAPA 1201
ITRS747;ITAPA 1202
ITRS747;ITAPA 1203
ITRS747;ITAPA 1204
ITRS747;ITAPA 1301
ITRS747;ITAPA 1302
ITRS747;ITAPA 1303
ITRS747;ITAPA 1304
ITRS747;ITAPA 1305
ITRS747;ITAPA 1306
ITRS747;ITAPA 1307
ITRS747;ITAPA 1401
ITRS747;ITAPA 1402
ITRS747;ITAPA 1403
ITRS747;ITAPA 1404
ITRS747;ITAPA 1405
ITRS747;ITAPA 1501
ITRS747;ITAPA 1502
ITRS747;ITAPA 1503
ITRS747;ITAPA 1504
ITRS747;ITAPA 1505
ITRS747;ITAPA 1506
ITRS747;ITATP 0102
ITRS747;ITATP 0103
ITRS747;ITATP 0104
ITRS747;ITATP 0105
ITRS747;ITATP 0106
ITRS747;ITATP 0107
ITRS747;ITATP 0201
ITRS747;ITATP 0301
ITRS747;ITATP 0401
ITRS747;ITATP 0402
ITRS747;ITATP 0403
ITRS747;ITATP 0501
ITRS747;ITATP 0502
ITRS747;ITATP 0601
ITRS747;ITATP 0602
ITRS747;ITATP 0603
ITRS756;ITARO 0101
ITRS756;ITARO 0102
ITRS756;ITARO 0103
ITRS756;ITARO 0104
ITRS756;ITARO 0105
ITRS756;ITARO 0201
ITRS756;ITARO 0202
ITRS756;ITARO 0203
ITRS756;ITARO 0204
ITRS756;ITARO 0205
ITRS756;ITARO 0206
ITRS756;ITARO 0301
ITRS756;ITARO 0303
ITRS756;ITARO 0304
ITRS756;ITATV 0101
ITRS756;ITATV 0102
ITRS756;ITATV 0103
ITRS756;ITATV 0104
ITRS756;ITATV 0105
ITRS756;ITATV 0106
ITRS756;ITATV 0107
ITRS756;ITATV 0108
ITRS756;ITATV 0109
ITRS756;ITATV 0110
ITRS756;ITATV 0111
ITRS756;ITATV 0112
ITRS756;ITATV 0201
ITRS756;ITATV 0202
ITRS756;ITATV 0203
ITRS756;ITATV 0301
ITRS756;ITATV 0302
ITRS756;ITATV 0303
ITRS756;ITATV 0401
ITRS756;ITATV 0402
ITRS756;ITATV 0403
ITRS756;ITATV 0404
ITRS756;ITATV 0501
ITRS756;ITATV 0502
ITRS756;ITATV 0503
ITRS756;ITATV 0504
ITRS756;ITATV 0601
ITRS756;ITATV 0602
ITRS756;ITATV 0603
ITRS756;ITAVE 0101
ITRS756;ITAVE 0102
ITRS756;ITAVE 0103
ITRS756;ITAVE 0104
ITRS756;ITAVE 0201
ITRS756;ITAVE 0202
ITRS756;ITAVE 0203
ITRS756;ITAVE 0204
ITRS756;ITAVE 0301
ITRS756;ITAVE 0302
ITRS756;ITAVE 0303
ITRS756;ITAVE 0304
ITRS756;ITAVE 0401
ITRS756;ITAVE 0402
ITRS756;ITAVE 0403
ITRS756;ITAVE 0501
ITRS756;ITAVE 0502
ITRS756;ITAVE 0503
ITRS756;ITAVE 0601
ITRS756;ITAVE 0602
ITRS756;ITAVE 0603
ITRS756;ITAVE 0604
ITRS756;ITAVE 0605
ITRS756;ITAVE 0606
ITRS756;ITAVE 0608
ITRS756;ITAVE 0701
ITRS756;ITAVE 0702
ITRS756;ITAVE 0703
ITRS756;ITAVE 0704
ITRS756;ITAVE 0705
ITRS756;ITAVE 0801
ITRS756;ITAVE 0802
ITRS756;ITAVE 0803
ITRS756;ITAVE 0804
ITRS756;ITAVE 0805
