Brick,intercept,Sales_DDD_1,Sales_DDD_2,Total_PDE_exp,N_attendees_exp,Covid_variable,Growth_variable
9010000,29.07918879,0.44,0.32,8.391130193,3.53829713,1636.876045,116.3961351
9012000,29.57223538,0.44,0.32,8.828265548,3.53829713,1636.876045,116.3961351
9014000,28.82923337,0.44,0.32,8.169750795,3.53829713,1636.876045,116.3961351
9015000,30.5583706,0.44,0.32,9.702177579,3.53829713,1636.876045,116.3961351
9016000,29.40438558,0.44,0.32,8.679469996,3.53829713,1636.876045,116.3961351
9017000,28.87553394,0.44,0.32,8.210980275,3.53829713,1636.876045,116.3961351
9019000,30.40392053,0.44,0.32,9.565286798,3.53829713,1636.876045,116.3961351
9020000,28.80162654,0.44,0.32,8.144976777,3.53829713,1636.876045,116.3961351
9022000,29.58390263,0.44,0.32,8.838401555,3.53829713,1636.876045,116.3961351
9025000,27.65208485,0.44,0.32,7.125962911,3.53829713,1636.876045,116.3961351
9027000,30.7573723,0.44,0.32,9.87858883,3.53829713,1636.876045,116.3961351
9029000,31.93869495,0.44,0.32,10.92599636,3.53829713,1636.876045,116.3961351
9030000,26.5644191,0.44,0.32,6.162667325,3.53829713,1636.876045,116.3961351
9033000,26.93412247,0.44,0.32,6.490049959,3.53829713,1636.876045,116.3961351
9060000,30.97278912,0.44,0.32,10.06952836,3.53829713,1636.876045,116.3961351
9070000,29.48619834,0.44,0.32,8.751885611,3.53829713,1636.876045,116.3961351
9072000,28.82438901,0.44,0.32,8.165189862,3.53829713,1636.876045,116.3961351
9074000,28.60021504,0.44,0.32,7.966671664,3.53829713,1636.876045,116.3961351
9080000,29.15557477,0.44,0.32,8.458729894,3.53829713,1636.876045,116.3961351
9090000,29.60512517,0.44,0.32,8.857368045,3.53829713,1636.876045,116.3961351
9092000,30.90691681,0.44,0.32,10.01109321,3.53829713,1636.876045,116.3961351
9096000,30.48743996,0.44,0.32,9.639340543,3.53829713,1636.876045,116.3961351
9098000,30.64071207,0.44,0.32,9.775255512,3.53829713,1636.876045,116.3961351
9100000,30.29441969,0.44,0.32,9.468083691,3.53829713,1636.876045,116.3961351
9110000,29.62628492,0.44,0.32,8.875947721,3.53829713,1636.876045,116.3961351
9120000,27.58186923,0.44,0.32,7.06385648,3.53829713,1636.876045,116.3961351
9123000,29.54272856,0.44,0.32,8.801796955,3.53829713,1636.876045,116.3961351
9130000,29.67059291,0.44,0.32,8.91522862,3.53829713,1636.876045,116.3961351
9135000,30.49563892,0.44,0.32,9.646348143,3.53829713,1636.876045,116.3961351
9140000,29.27809869,0.44,0.32,8.567364396,3.53829713,1636.876045,116.3961351
9150000,29.09742638,0.44,0.32,8.407169845,3.53829713,1636.876045,116.3961351
9155000,29.07427859,0.44,0.32,8.386598165,3.53829713,1636.876045,116.3961351
9160000,29.98601934,0.44,0.32,9.194773896,3.53829713,1636.876045,116.3961351
9181000,34.58985389,0.44,0.32,13.2762705,3.53829713,1636.876045,116.3961351
9182000,32.90791976,0.44,0.32,11.78470014,3.53829713,1636.876045,116.3961351
9183000,29.95361479,0.44,0.32,9.166236022,3.53829713,1636.876045,116.3961351
9184500,33.92449074,0.44,0.32,12.68661681,3.53829713,1636.876045,116.3961351
9185000,31.42613354,0.44,0.32,10.47153422,3.53829713,1636.876045,116.3961351
9185500,30.42660388,0.44,0.32,9.58531576,3.53829713,1636.876045,116.3961351
9187000,29.00263028,0.44,0.32,8.323089969,3.53829713,1636.876045,116.3961351
9187500,29.44882103,0.44,0.32,8.718602221,3.53829713,1636.876045,116.3961351
9188000,30.15589004,0.44,0.32,9.345502147,3.53829713,1636.876045,116.3961351
9189000,31.85319694,0.44,0.32,10.84971005,3.53829713,1636.876045,116.3961351
9190000,30.38494705,0.44,0.32,9.548154911,3.53829713,1636.876045,116.3961351
9191000,29.4955454,0.44,0.32,8.760019454,3.53829713,1636.876045,116.3961351
9191500,29.26160128,0.44,0.32,8.552673874,3.53829713,1636.876045,116.3961351
9192000,29.27481281,0.44,0.32,8.564362096,3.53829713,1636.876045,116.3961351
9193000,31.91439775,0.44,0.32,10.90430317,3.53829713,1636.876045,116.3961351
9193500,29.89473026,0.44,0.32,9.113903495,3.53829713,1636.876045,116.3961351
9194500,29.25462077,0.44,0.32,8.54655016,3.53829713,1636.876045,116.3961351
9195000,30.58256585,0.44,0.32,9.723576587,3.53829713,1636.876045,116.3961351
9196000,32.10383426,0.44,0.32,11.0720626,3.53829713,1636.876045,116.3961351
9197000,30.32420171,0.44,0.32,9.494644022,3.53829713,1636.876045,116.3961351
9198000,29.9385011,0.44,0.32,9.152772046,3.53829713,1636.876045,116.3961351
9199000,29.50739978,0.44,0.32,8.77046832,3.53829713,1636.876045,116.3961351
9199500,27.77433591,0.44,0.32,7.234411238,3.53829713,1636.876045,116.3961351
9210000,28.9462935,0.44,0.32,8.273391163,3.53829713,1636.876045,116.3961351
9213000,30.92527109,0.44,0.32,10.02702555,3.53829713,1636.876045,116.3961351
9215000,29.69455035,0.44,0.32,8.936251143,3.53829713,1636.876045,116.3961351
9240000,29.50006903,0.44,0.32,8.763994295,3.53829713,1636.876045,116.3961351
9244000,28.89414729,0.44,0.32,8.226976811,3.53829713,1636.876045,116.3961351
9246000,29.44263476,0.44,0.32,8.713256855,3.53829713,1636.876045,116.3961351
9248000,30.53776177,0.44,0.32,9.683899674,3.53829713,1636.876045,116.3961351
9250000,33.61697905,0.44,0.32,12.4136368,3.53829713,1636.876045,116.3961351
9254000,32.70072755,0.44,0.32,11.60147471,3.53829713,1636.876045,116.3961351
9256000,31.6125656,0.44,0.32,10.63679482,3.53829713,1636.876045,116.3961351
9270000,30.11481521,0.44,0.32,9.308966151,3.53829713,1636.876045,116.3961351
9272000,30.6027839,0.44,0.32,9.741450309,3.53829713,1636.876045,116.3961351
9272500,31.47627003,0.44,0.32,10.51552847,3.53829713,1636.876045,116.3961351
9273000,30.13087481,0.44,0.32,9.323335257,3.53829713,1636.876045,116.3961351
9274000,31.1117816,0.44,0.32,10.19280499,3.53829713,1636.876045,116.3961351
9276000,32.28168523,0.44,0.32,11.22920293,3.53829713,1636.876045,116.3961351
9277000,29.30368099,0.44,0.32,8.590045649,3.53829713,1636.876045,116.3961351
9278000,31.29351286,0.44,0.32,10.35380543,3.53829713,1636.876045,116.3961351
9279000,29.31512631,0.44,0.32,8.60008885,3.53829713,1636.876045,116.3961351
9280000,30.00186516,0.44,0.32,9.208952144,3.53829713,1636.876045,116.3961351
9285000,30.02855973,0.44,0.32,9.232652713,3.53829713,1636.876045,116.3961351
9310000,30.25637654,0.44,0.32,9.434518555,3.53829713,1636.876045,116.3961351
9316000,31.28050675,0.44,0.32,10.34236894,3.53829713,1636.876045,116.3961351
9370000,28.89307394,0.44,0.32,8.226423705,3.53829713,1636.876045,116.3961351
9390000,30.63572954,0.44,0.32,9.770664606,3.53829713,1636.876045,116.3961351
9394000,31.91843602,0.44,0.32,10.90754217,3.53829713,1636.876045,116.3961351
9396000,33.08992992,0.44,0.32,11.94573719,3.53829713,1636.876045,116.3961351
9401000,30.27710151,0.44,0.32,9.452773961,3.53829713,1636.876045,116.3961351
9402000,30.32429787,0.44,0.32,9.494687845,3.53829713,1636.876045,116.3961351
9404000,30.24994786,0.44,0.32,9.42866034,3.53829713,1636.876045,116.3961351
9406000,31.2701823,0.44,0.32,10.33313349,3.53829713,1636.876045,116.3961351
9409000,29.68893278,0.44,0.32,8.931413185,3.53829713,1636.876045,116.3961351
9410000,31.58912583,0.44,0.32,10.61522287,3.53829713,1636.876045,116.3961351
9413000,34.48034224,0.44,0.32,13.17806881,3.53829713,1636.876045,116.3961351
9415000,31.10459309,0.44,0.32,10.18617506,3.53829713,1636.876045,116.3961351
9420000,29.62438101,0.44,0.32,8.874249786,3.53829713,1636.876045,116.3961351
9422000,28.24821384,0.44,0.32,7.654535966,3.53829713,1636.876045,116.3961351
9425000,32.52686314,0.44,0.32,11.44731079,3.53829713,1636.876045,116.3961351
9430000,32.096813,0.44,0.32,11.06488939,3.53829713,1636.876045,116.3961351
9440000,31.55920267,0.44,0.32,10.58919115,3.53829713,1636.876045,116.3961351
9450000,30.32326606,0.44,0.32,9.493223736,3.53829713,1636.876045,116.3961351
9470000,31.70107915,0.44,0.32,10.71507614,3.53829713,1636.876045,116.3961351
9473000,33.57257778,0.44,0.32,12.3735767,3.53829713,1636.876045,116.3961351
9474000,32.13773381,0.44,0.32,11.1020912,3.53829713,1636.876045,116.3961351
9478000,30.75445562,0.44,0.32,9.876000834,3.53829713,1636.876045,116.3961351
9480000,30.25694655,0.44,0.32,9.434973074,3.53829713,1636.876045,116.3961351
9490000,31.28536057,0.44,0.32,10.34664923,3.53829713,1636.876045,116.3961351
9494000,31.79747586,0.44,0.32,10.80051983,3.53829713,1636.876045,116.3961351
9496000,29.64231602,0.44,0.32,8.890213772,3.53829713,1636.876045,116.3961351
9498000,29.56737978,0.44,0.32,8.823768538,3.53829713,1636.876045,116.3961351
9500000,32.22391825,0.44,0.32,11.17884276,3.53829713,1636.876045,116.3961351
9520000,30.36891766,0.44,0.32,9.534422059,3.53829713,1636.876045,116.3961351
9524000,28.76711323,0.44,0.32,8.114641575,3.53829713,1636.876045,116.3961351
9530000,29.18756628,0.44,0.32,8.487332889,3.53829713,1636.876045,116.3961351
9532000,28.2869911,0.44,0.32,7.689265457,3.53829713,1636.876045,116.3961351
9538000,30.3885075,0.44,0.32,9.551596676,3.53829713,1636.876045,116.3961351
9540000,28.93238386,0.44,0.32,8.260970627,3.53829713,1636.876045,116.3961351
9560000,31.7553035,0.44,0.32,10.76329717,3.53829713,1636.876045,116.3961351
9570000,29.45309916,0.44,0.32,8.722614945,3.53829713,1636.876045,116.3961351
9575000,30.02075093,0.44,0.32,9.225776057,3.53829713,1636.876045,116.3961351
9580000,29.81875402,0.44,0.32,9.046734345,3.53829713,1636.876045,116.3961351
9584000,30.1097691,0.44,0.32,9.304675509,3.53829713,1636.876045,116.3961351
9590000,30.33154794,0.44,0.32,9.50123056,3.53829713,1636.876045,116.3961351
9610000,30.58890585,0.44,0.32,9.729185808,3.53829713,1636.876045,116.3961351
9611000,29.85039272,0.44,0.32,9.075009864,3.53829713,1636.876045,116.3961351
9612000,29.15791269,0.44,0.32,8.460786625,3.53829713,1636.876045,116.3961351
9613000,31.45150371,0.44,0.32,10.49397951,3.53829713,1636.876045,116.3961351
9613500,29.44760112,0.44,0.32,8.717647845,3.53829713,1636.876045,116.3961351
9614000,29.86283016,0.44,0.32,9.085834938,3.53829713,1636.876045,116.3961351
9615000,30.36926752,0.44,0.32,9.534446283,3.53829713,1636.876045,116.3961351
9617500,30.25698433,0.44,0.32,9.435227008,3.53829713,1636.876045,116.3961351
9618000,30.59602361,0.44,0.32,9.735695135,3.53829713,1636.876045,116.3961351
9619000,30.1106773,0.44,0.32,9.305486556,3.53829713,1636.876045,116.3961351
9620000,31.58416738,0.44,0.32,10.61167497,3.53829713,1636.876045,116.3961351
9621000,30.6014432,0.44,0.32,9.74044121,3.53829713,1636.876045,116.3961351
9622000,31.88723978,0.44,0.32,10.88033335,3.53829713,1636.876045,116.3961351
9623000,31.3543282,0.44,0.32,10.40772908,3.53829713,1636.876045,116.3961351
9625000,31.13518314,0.44,0.32,10.21341305,3.53829713,1636.876045,116.3961351
9630000,29.50249709,0.44,0.32,8.766362295,3.53829713,1636.876045,116.3961351
9633000,28.45598889,0.44,0.32,7.839031617,3.53829713,1636.876045,116.3961351
9634000,28.75337084,0.44,0.32,8.102560651,3.53829713,1636.876045,116.3961351
9635000,28.22473168,0.44,0.32,7.633707941,3.53829713,1636.876045,116.3961351
9638000,28.31933929,0.44,0.32,7.717852725,3.53829713,1636.876045,116.3961351
9640000,28.50441429,0.44,0.32,7.88152944,3.53829713,1636.876045,116.3961351
9641000,28.50259677,0.44,0.32,7.88016755,3.53829713,1636.876045,116.3961351
9643000,28.44104183,0.44,0.32,7.825745794,3.53829713,1636.876045,116.3961351
9644000,28.54056424,0.44,0.32,7.913816845,3.53829713,1636.876045,116.3961351
9646000,28.47791491,0.44,0.32,7.858278306,3.53829713,1636.876045,116.3961351
9648000,28.55982029,0.44,0.32,7.931089934,3.53829713,1636.876045,116.3961351
9649000,27.61996855,0.44,0.32,7.097810687,3.53829713,1636.876045,116.3961351
9650000,28.82054678,0.44,0.32,8.162130579,3.53829713,1636.876045,116.3961351
9652000,28.84865256,0.44,0.32,8.186855172,3.53829713,1636.876045,116.3961351
9654000,29.54318299,0.44,0.32,8.802455329,3.53829713,1636.876045,116.3961351
9660000,29.99845917,0.44,0.32,9.205934843,3.53829713,1636.876045,116.3961351
9662000,28.39438125,0.44,0.32,7.783981486,3.53829713,1636.876045,116.3961351
9664000,28.98648006,0.44,0.32,8.30894348,3.53829713,1636.876045,116.3961351
9668000,33.18451677,0.44,0.32,12.0304903,3.53829713,1636.876045,116.3961351
9670000,28.68772216,0.44,0.32,8.043885462,3.53829713,1636.876045,116.3961351
9672000,30.42428195,0.44,0.32,9.583425817,3.53829713,1636.876045,116.3961351
9678000,28.14513493,0.44,0.32,7.563537542,3.53829713,1636.876045,116.3961351
9680000,29.24126926,0.44,0.32,8.534711068,3.53829713,1636.876045,116.3961351
9682000,29.7017882,0.44,0.32,8.942828224,3.53829713,1636.876045,116.3961351
9686000,29.36880626,0.44,0.32,8.647759123,3.53829713,1636.876045,116.3961351
9690000,29.74726819,0.44,0.32,8.983371297,3.53829713,1636.876045,116.3961351
9694000,30.65637068,0.44,0.32,9.789143274,3.53829713,1636.876045,116.3961351
9698000,29.96558975,0.44,0.32,9.176898427,3.53829713,1636.876045,116.3961351
9700000,33.22782088,0.44,0.32,12.06760611,3.53829713,1636.876045,116.3961351
9703000,28.4575257,0.44,0.32,7.84038824,3.53829713,1636.876045,116.3961351
9704000,29.91740037,0.44,0.32,9.133893338,3.53829713,1636.876045,116.3961351
9705000,28.82551777,0.44,0.32,8.166589501,3.53829713,1636.876045,116.3961351
9706000,28.64143903,0.44,0.32,8.00418034,3.53829713,1636.876045,116.3961351
9720000,29.22230263,0.44,0.32,8.518195574,3.53829713,1636.876045,116.3961351
9721000,29.59196115,0.44,0.32,8.845769164,3.53829713,1636.876045,116.3961351
9722000,29.68674603,0.44,0.32,8.929663245,3.53829713,1636.876045,116.3961351
9723000,27.8265023,0.44,0.32,7.28167434,3.53829713,1636.876045,116.3961351
9724000,29.0698009,0.44,0.32,8.382787958,3.53829713,1636.876045,116.3961351
9725000,29.74560892,0.44,0.32,8.981894695,3.53829713,1636.876045,116.3961351
9725500,28.74194831,0.44,0.32,8.092172242,3.53829713,1636.876045,116.3961351
9726000,28.40702853,0.44,0.32,7.795362901,3.53829713,1636.876045,116.3961351
9727000,28.09961839,0.44,0.32,7.5226401,3.53829713,1636.876045,116.3961351
9727500,28.70087647,0.44,0.32,8.055970286,3.53829713,1636.876045,116.3961351
9730000,30.34974715,0.44,0.32,9.517292564,3.53829713,1636.876045,116.3961351
9734000,28.6993423,0.44,0.32,8.05411402,3.53829713,1636.876045,116.3961351
9738000,30.03036631,0.44,0.32,9.2341198,3.53829713,1636.876045,116.3961351
9780000,32.71445986,0.44,0.32,11.61379223,3.53829713,1636.876045,116.3961351
9782000,33.52497747,0.44,0.32,12.33219669,3.53829713,1636.876045,116.3961351
9784000,30.76696568,0.44,0.32,9.887196165,3.53829713,1636.876045,116.3961351
9785000,32.32935502,0.44,0.32,11.27229354,3.53829713,1636.876045,116.3961351
9790000,32.82981387,0.44,0.32,11.7148327,3.53829713,1636.876045,116.3961351
9792000,31.84493592,0.44,0.32,10.84215564,3.53829713,1636.876045,116.3961351
9796000,33.82925445,0.44,0.32,12.60104211,3.53829713,1636.876045,116.3961351
9800000,30.26171526,0.44,0.32,9.43918064,3.53829713,1636.876045,116.3961351
9810000,29.74285128,0.44,0.32,8.979505699,3.53829713,1636.876045,116.3961351
9815000,29.68049872,0.44,0.32,8.924101719,3.53829713,1636.876045,116.3961351
9850000,34.09816848,0.44,0.32,12.84027031,3.53829713,1636.876045,116.3961351
9855000,32.70039005,0.44,0.32,11.60108501,3.53829713,1636.876045,116.3961351
9860000,31.43524582,0.44,0.32,10.4794211,3.53829713,1636.876045,116.3961351
9864000,33.6123337,0.44,0.32,12.40962767,3.53829713,1636.876045,116.3961351
9870000,32.79724736,0.44,0.32,11.68698741,3.53829713,1636.876045,116.3961351
9890000,31.42396439,0.44,0.32,10.46949195,3.53829713,1636.876045,116.3961351
9894000,31.64941494,0.44,0.32,10.66935561,3.53829713,1636.876045,116.3961351
9896000,32.16111257,0.44,0.32,11.12310273,3.53829713,1636.876045,116.3961351
9900000,33.430409,0.44,0.32,12.24835195,3.53829713,1636.876045,116.3961351
9905000,30.57552693,0.44,0.32,9.717534141,3.53829713,1636.876045,116.3961351
9910000,30.68388637,0.44,0.32,9.813528536,3.53829713,1636.876045,116.3961351
9940000,30.20705944,0.44,0.32,9.390790665,3.53829713,1636.876045,116.3961351
9943000,30.77898388,0.44,0.32,9.897803569,3.53829713,1636.876045,116.3961351
9945000,29.73736121,0.44,0.32,8.974448575,3.53829713,1636.876045,116.3961351
9948000,29.58941056,0.44,0.32,8.843273365,3.53829713,1636.876045,116.3961351
9950000,29.45217034,0.44,0.32,8.721870871,3.53829713,1636.876045,116.3961351
9952000,28.96325875,0.44,0.32,8.288247321,3.53829713,1636.876045,116.3961351
9955000,30.20662827,0.44,0.32,9.390517575,3.53829713,1636.876045,116.3961351
9959000,28.78918055,0.44,0.32,8.134075734,3.53829713,1636.876045,116.3961351
9960000,30.62858025,0.44,0.32,9.764608958,3.53829713,1636.876045,116.3961351
9963000,30.4477203,0.44,0.32,9.604418929,3.53829713,1636.876045,116.3961351
9967000,33.95035941,0.44,0.32,12.70804904,3.53829713,1636.876045,116.3961351
